CommitId,Date
282f346ca230a8dec8d1956af05fcc9d511ad672,2000-01-14
edb71783adeffc29a56df203f97b5ac0e4566a5d,2000-01-23
fd287b3a808daed93021646efdcf52a31957e35a,2000-01-23
b139901cab374b10e2f73a58769fb4ef1c2837bd,2000-01-26
0218e3ecae8397a700aae864601f963e5771a9a5,2000-01-26
1844a85f5feebe940057df6b041ab2fe095cc43d,2000-02-06
064d126d420b174b2a1a028b094b0254bc32822f,2000-02-09
3c26912e56e06ac64c392444cb19e3587f1bbb11,2000-02-11
ae16bb711b331f6c8a20ee1298cf171de43266f7,2000-02-13
764d1e985b968dda43e19fd1db74f47d564f1f81,2000-02-14
8de96cafd7f3f5a23fe1e03f5325d0a7f2b7f006,2000-02-15
7f93c6c464471c53f323dd190182b1cd3bd9fb2e,2000-02-16
b7258ab797862fb2e9f07b881f2568ae6691b386,2000-02-23
c4815378efcf6cdbb3407c85b4fa4278eeec34be,2000-02-23
b50aeba8b7f159749b89769c97d559b9e4e990af,2000-02-23
efbabaf8490199bb4a3a83ad20bbf5cff81dbd1b,2000-03-02
945b6d36d1eec5f3ce4df1f71c041564ce01f5e8,2000-03-19
4461e98f844764730b62743e3ab9be0eed6a2cc3,2000-04-01
fe4a5cb02940376fddc661302141394be20d1f02,2000-04-26
1ba5087df429abe38dd22fe5c9ddbc343280f0ae,2000-06-24
08efe2fdd47d08fb19b76efcd91cd835001bdd19,2000-06-24
003b013e23a3ddefa411b4340f52f43df5ea0870,2000-06-25
3dd76dec2e98f14defbecd0e4af5398c39a4991e,2000-06-26
689fca41585cc1768a0501fd11c8235b6e4bc481,2000-06-29
b417973d391382a96e26e6c50751b9b24f85b239,2000-07-03
868bbdf4da548be2466571f878447c20894dd4ca,2000-07-03
38c2a2a22283450dab6afcf3d3ec094c67dc1e4e,2000-07-04
d55b86ab4fbcc8807e105e8c99c56488dadc6aeb,2000-07-04
f71f90b16f78b651eb77e8de4781351cabd22a05,2000-07-04
62c181f4549c1a507665534eb4ef75edae02822b,2000-07-05
83fd4e64cd4d70c94cbe03d2a3d91d11b3556511,2000-07-05
d72589dc05c30c8cdf1537247dae3a2d52fc7db9,2000-07-05
9bd75d2c4e8bb5387ec65dd76ccf483f2bec59e7,2000-07-06
ea7cd6fbfe578780eb6dea64860f5de243a15d8c,2000-07-09
efa57c6a8b4c9760ab4e0ca4ec0b884d64270654,2000-07-10
b3dffa5f955c1cd32b73ac3b100e648e1106de6c,2000-07-10
b6ec4af9dd33b9a37fe18f1c2a043e67bdf0d67b,2000-07-11
3007c5930244efc7a471325ca8bd54b622b23740,2000-07-12
09a656d5265ca83070e8a390fd435f08bcc1dac9,2000-07-12
51c4c2282c499b0cd2ba4eee88dce948f388e74d,2000-07-13
cf4c2f018749355bf2c390e438cc18bc7e234efa,2000-07-14
1c3e443dd7482c35d229c86a6112d66b177fe904,2000-07-19
2054505cbb3cd60eda671e0070f085215d038f21,2000-07-21
1f7eed82cc9a11bf2227fd3473f7d921a7330326,2000-07-24
0c1efed954c2370fb8e6217c0c246e227df6708f,2000-07-24
61320f305f5ccb78963b3a9fe607f3505ec635e4,2000-07-25
4f46532c945a4fe13670cbbeda0a0c817bcaef9f,2000-07-25
a41723ab30aa5c6a234b0480b5613eec9f7f94b0,2000-07-28
e868ebf02fbf9bfabcd532071a750c23bab46bd3,2000-07-28
eb0ebe689fe64af7ef39f98abd04e47c93105968,2000-07-31
c5faebbd854cf6f4363402c2cd2a54749b4eeb61,2000-07-31
6035bbf18dc7df5472368d91d69de03b1819c800,2000-07-31
c2077d52ddbe15f9357e4609f78f6cd8187b0365,2000-08-01
cf07b113a08332dc4a79528f75c570ee96d89bc7,2000-08-02
a8d4fe6d9b8c7a4adb1704b12de610dc6e18fe94,2000-08-02
089d421c3f3b9d5ebaaa4642da9d70958dae1007,2000-08-03
6d7c130971fb273119d770033fc4ea42f899349f,2000-08-03
82e6aad2041eedda98525856f6ab515986772593,2000-08-04
dbf806213104986bab6864d85b55bf0912d64cc7,2000-08-05
32cfa5b1066c1de3e18484d533ecddad213b02bb,2000-08-05
6667e4cdd6d4914852b49e767b9f836a4d6941f2,2000-08-07
c32873b51961cb99f47b4ae6da2922b7b46a6f89,2000-08-07
c437e0d2a0833a49114fa69e746b5f5ee9ed7d8d,2000-08-07
10c41029aeaba31241f1a85f9b02591b357e20b6,2000-08-09
818cb969adef1df0f5918ba62f80f62502d5e53e,2000-08-09
23f7147dc6fa39ffc7166e5b3d52fb696577ca37,2000-08-10
6e876ab7f841698907e91ba4d3af3d8a2446b506,2000-08-10
ca6e87319771820e4eb26015fde302a66c9c490f,2000-08-10
3facebf533e1a6d447bdb141350ca644388ce4da,2000-08-10
de3b5b85205a94af26eafbbd493e4b1d99e4c16f,2000-08-11
655df7f9e198a141defc9dcfb45f7f14cd7749f8,2000-08-14
54057d742bcffec3013ff101b9f0e8db5ce65009,2000-08-21
bb0594b899cd5b5f752bcaff0bb0c2387547a356,2000-08-23
2f2302b85bf1c19702643bdfce307e8462e59159,2000-08-25
4a96c6e0b749451b20d1ea87c584881915e66ba4,2000-09-04
493b6bf4f09854e895190eadb466bd4d58ed8773,2000-09-04
8b01a00d1777bd7802caaa9e514fabe6f968dd02,2000-09-05
505d4a8c1d350ffac8a917378a6fac71b2517b3d,2000-09-07
17fbe62a7d3180404fa527bcc568678870edb7e2,2000-09-09
b61e78e9a65229e792b8ab57d6c4b548403b54fa,2000-09-11
53ff5c31479209ea21fcb72643502a5aae70bf03,2000-09-14
6ecbe242189a8d7feba3d56c8ec89582e77b1b29,2000-09-14
002d084d5d809016ae2bd425912f3e6cd5066526,2000-09-14
6c89d5a7b85b61086692c8037aa544dc85cf2e7e,2000-09-15
20a1e91d17753399f8d18a5123f8e5e35e0409da,2000-09-15
13eb95ae4d6f35ee540b77b1d8eef2e44c7b2720,2000-09-18
f0282fd8b18b09bbd18ee4b82fed883f872a802a,2000-09-18
d4458b764328f38edafe251db7c208b82c43a61f,2000-09-24
e47b4d5aca65c519f01afabb9479b8443abd2ccf,2000-09-28
37ed344b385cde54ee62f2e66d347cb243dd6708,2000-09-29
ccea996681f5f6e770cd8a4a204c383ece7e14f2,2000-10-02
38c1cabaac10ef23cbc89b96b6b4f37159233580,2000-10-04
3858aba32eef9d054653cbeb2c781e0bf595c8fb,2000-10-05
fd507cf2d23a705cb42d8870b483ee3f65d0bc8f,2000-10-06
a1eaa272b498cac7c6d14f13d65260021836f45a,2000-10-10
b02f11df78369665a4b7f0d47ba7851fce6b9a36,2000-10-16
34b083983d52d1bc7eaf31b312924fdf83a76b07,2000-10-19
c70641243c667093d23f689c7c28866fa661b1af,2000-11-06
8f65e70de743f36c38e49d728fb7e1858a8a0250,2000-11-08
435e9dc9b6090394172bf029f106b42b2db55a1d,2000-11-10
d830141f773d284b894679215e4d17a379422033,2000-11-10
6a6e0bd2647db6ae35dcfa3e9f81e306a64b7cc4,2000-11-11
e545bf4a3695a90cc6d3645fb20d5dbacc7ec988,2000-11-11
821004a5407db28a7482cff8f928d92b7615ea36,2000-11-14
75b3eb1e70c3ccb912e47445a8cf50d3bdb1dd09,2000-11-14
d4be9171f872a91dda1f3fd2dcf9249f6ee2fa88,2000-11-14
1375d72ba33469d368c812a889ab11e9ffe6200e,2000-11-15
585ca2b4d92ac5cc3bacfc5aa5ebeeee3fe8659a,2000-11-16
7ed150619f995551640a43e74583c3eea1ac2dfc,2000-11-19
96501a8feaa68ecaf8e5587b3e2152c91d4afed7,2000-11-23
95b658dec86bbd7866411b1df9b51250d1a8a0a9,2000-11-23
af624f9bce43b78c03dca8248b10ecbbe00a5b84,2000-11-24
8785091ee1c92874c44324f0429765539987b048,2000-11-24
aa078695e8f5e69cb5562c6e353c0e8aa87cf2dd,2000-11-25
8ff35a2d7d2250207f320ddfb977de3cf9d3f2c3,2000-11-25
41c047f603dc46b74b7058e2c1dd0d3001cd29ab,2000-11-28
c1080f1b8a8469dc79a8f5f86b287544b0ad0b6b,2000-11-28
758b225e9a7868aa92992cc2bb27f5036225a1f1,2000-11-29
c8ec94305bf46a9a29e56bb6805ec5644934c735,2000-11-29
1d3dc3765d4efd6ae54488feab07f6a17315ebe6,2000-12-05
ab5d2d667652fc27a6965c50a9d0bc5d06035497,2000-12-06
19600e6d005c8bebbf6697bd00516e843f0a34f4,2000-12-06
ec853e41d6f6a94b9828dc628f750a052e4fae8b,2000-12-06
92cf6a4b4869a2b00fca66a84622c27c47f3178d,2000-12-06
4cd7d60e99d2dbbea019824a0ac731c2ae341d1f,2000-12-06
9e2e9dbcf9aec4f84d7a550d1af75655dec79b40,2000-12-07
d886d503234e524761952bcf4528eec2e3f55839,2000-12-07
e9211a1fb8fa0ce4abd0b966fc81c7cd1ae75531,2000-12-07
7fb467a74ddff0c39412e3dd1e789edd15341e99,2000-12-08
d8a7035c55e9315383161c20b42077f65748f081,2000-12-11
f85678f1abd081bfd165ce81b94bad652968e4fd,2000-12-11
421736ed4a52a3f068a31f53678b97915ebb0cc9,2000-12-11
bba92ec2234c85ea1ff3ec3e4e2bb45adaaf3197,2000-12-12
8e955e3a2e84e093d19f8053f610c479a3f27478,2000-12-13
584cbc7ad08504b0c000866bbb1e7dda5a4280d6,2000-12-15
6960c203e483c3fa793d97919f86013ce47fc10a,2000-12-18
8f1c8244496bf51623d91f0bf9ac9148f0e92df7,2000-12-19
d9dc37613d9674bcd4caa399529317bdd41ac512,2000-12-24
3d76bc5d3a70e23f49bd566fc54e0553b966f1c4,2001-01-04
1cf34e10947b9de2fb345578caed557b5777345f,2001-01-04
2f3fc4ceb269ba3d0285afb816295ff76e503b10,2001-01-05
8c97911720b40557d78672245bc2e7f724917297,2001-01-08
b60d024fefab7298b36df27bc6604a221bef141f,2001-01-08
1056b715f84a4c3b17b7fcdecbaef6eaeb566ea7,2001-01-08
febf421b27c789d4b426d3d59b24dc42e07785b1,2001-01-09
df3ce6106dd8870ddbbb29b89426526409c97556,2001-01-12
237bbc895936f5236884d0083d7f9f967875fd09,2001-01-12
4ca5683c2a54ff4a141ed562a0f3b431b153b2c2,2001-01-12
faf459ad4374779901d12681be4a77b8c119e04e,2001-01-16
dba8c836d0d1bd4f625deb9fb22aaa457410e4ea,2001-01-16
a31bb63e4bc0e9f50725c1da9b629175bae8443a,2001-01-16
18931f719f446825f75c6f7572698f0bf26370ce,2001-01-18
6c9755c318554e71b7903c35f253a53ddf88d988,2001-01-21
64c4989ed4575a005c66a87a194791cf15ce27f4,2001-01-25
88355d87fdce7b32f129f96e3183d1fc5e3f9e11,2001-01-29
da10e54de9442a412e0bd1ccf9cf235f49e6c2b7,2001-01-30
4fd9a820a0967d106cf2124caf51f664868854bd,2001-01-30
9ab12cf5788110dca87caccb6fb6067fe1d37c1e,2001-01-30
784d54ca4803b0c8fcb6cd4753cc56f0822a1643,2001-02-04
334ac128fea4c6e8e76c7c8af8061a47b5019bf4,2001-02-04
ba37bf7991e099b567f8cd5a09178893ff55bb9c,2001-02-04
22fc4ce3cb5f71292ec61230ddae8eca3e1d77f6,2001-02-07
db81fa173d5cc93f65b6b645239d2e2c4fdc755f,2001-02-09
83113cb68c3cf294068c67a9d0d56c4642887038,2001-02-09
867ec77b0d9efa8819be2ebf82cace4600b929ee,2001-02-10
5337488612953eb072e38cb99e6b5d60999297da,2001-02-13
7435b27b914764c3845b4821363ffeb4ddfe89cd,2001-02-18
a00fa243becff6d062b1e9491d7cada4c552c3ba,2001-02-20
cfa93603e73e635d31be01cdb31dc9959a5ea35c,2001-02-25
068f7348847e10c8deca027f67e7142c559cdfa0,2001-03-02
571c177da2d5b9acfee0e494f0328c817d3f5de3,2001-03-13
7b485798bb427b8b829c276c0fe0758827cc2616,2001-03-13
8a21be498479cb838b88fc0f77547e82ed1c5334,2001-03-14
b31472d21fcd29fc5104562036e9dd98da76f9de,2001-03-15
5cc29f61e6a8fbcf8cb8f0fe2f848955c41f486a,2001-03-16
82377345488d92a4bd5f65ae312611b4c7ae5cf0,2001-03-19
9996345251656eb38c5326fa7e5f394bc5f43882,2001-03-28
e6e450dc16652de9966256b38be3c2b417f982a9,2001-03-29
54b25780fea219ebe12ccea6c1c8117bc9e7aff1,2001-04-04
6c8512b897141883069605874c669c993512c2d9,2001-04-06
e4685119643a984752eb3f38cc49aea53ba401b1,2001-04-06
60ed8507e7718d1e5b0d5f36d18571ff07c8c017,2001-04-10
4c0c12c0f70aab990d7aefae3ab82d92d24c7cef,2001-04-11
4ee2e5c268b44ad68c49168457f64b76e4d64a32,2001-04-14
fc42e57c2cf638019efdfadb5592b3ba4c4c21da,2001-04-19
3957ddae25e17df961a51621ddc57625a4476878,2001-04-27
a80cf0dfece4c5bd7a1dd24b05a8d30bf441abf5,2001-05-01
770b1dd27562618da3a17f725744dd8f28cac770,2001-05-03
cc8afe2788ca97dd85bb3321bfc4b3c583758d08,2001-05-03
f8f5fb01a4adbd7eabedad2c9e06fc5ce6c4525f,2001-05-03
f76dfe4521618521029828e214ababd55124d919,2001-05-03
2fb97663f2446b5bcbecf2bc75d7abe93a6409c5,2001-05-05
86bed70a9bab67265a07b64bafe8d21fef4ca8a6,2001-05-10
c2e518039b65dc5b8c9c31f9f78b2d72ea8db2d1,2001-05-18
7ded9a569f39709b66b0fc816d4e518ba5ddee5d,2001-05-23
362903a2bd195f64f594d4b3f333900d67a3c7bc,2001-05-23
48c54a521235f746024ae8facc272e049d0e1cf5,2001-05-28
6caf36ea18f59884feefc17b5bd3c77f88677268,2001-05-28
32dc44001f1d8348ce37d9b551feab8158e7b35f,2001-05-28
ce225a0e46c3cb76bd99b45b24c5da3b7f126ed0,2001-05-28
451ca455d5963fd430ac58e449bb791138f07e1a,2001-05-28
a44c5e5b95f895c6e7b3f7115f5ca471c7578cdf,2001-05-28
2f95bc4704ce4e95b45dba43fccfdb61926619c1,2001-05-28
2f4b71ebb9a0b10e189a803e3ad565302736d060,2001-05-29
2dddb40b2ba0102cb660492da172f65006785e0b,2001-05-29
157d8f04d2c676ac93a8cda891f804bddf6f7836,2001-05-29
d32c26fc168f32a03444486b5b2b23b19564bb9b,2001-05-29
620c60381636e5d33fe55e18b1e6165360a1f492,2001-05-29
6f3f9cca3e46d9b295f612635ddc47d887d760ce,2001-05-29
cef6bbb3c32f64f13892e616ce8722cba6dde746,2001-05-29
c826372596bd5a536d365188fc003396a1da270a,2001-05-29
2579eaa04ea64c67c1c19e32b50c63af76ffe9c8,2001-05-29
1ec0e4c4e6484e6f946b095227f11a77ccdc579d,2001-05-29
87711d5afc3fc82ba10ace9fabaf47a47d4e3a59,2001-05-29
ad7ff5ac203c6982ffcd793fd9dbcc217b1fec08,2001-05-29
52418752350fdbbed27fe9c443a077e6b3c61cdf,2001-05-31
758feca17109ce14f03d7cb5f2f0ac590726e35c,2001-06-02
b689612fa923ba74b5c89dc891aeff801799e555,2001-06-02
6b4ce7ff5608d4faf76cf400854db8126b946fbb,2001-06-02
47e9fd6289e8ba36298b743d7a551516833e4112,2001-06-02
7b722732fbbdb511be32f94588d43f55b0b51f65,2001-06-02
8d9a74fe25ffb24cb1b8a2c6a191ea3ac7c02b38,2001-06-02
414575a432489206adb9cbaf9496cc51b320239a,2001-06-03
362616390fb06104b98d1ddcab5e2bc8d998a793,2001-06-03
165ec8163b70ab6415e2ca549bd5d2a621a8e39b,2001-06-03
d23b08a302496937c4d1d08e31431ece313de2b8,2001-06-03
5872737ff5d0006fffd509da87f4bc9115cb5a39,2001-06-03
2a9f49ba6cde3f1bdf4a1234a4e4f14773c34736,2001-06-03
7a87980dc39534a2517471c590aa5b5619892aaa,2001-06-04
344f259a18853adc30d4d00172007df4dc35c42b,2001-06-04
5c3c1ca862e3d3dcb31eba03cb9c472b7daa5ef8,2001-06-04
8fc57a55d3662cc74427b9b8af0fb375e809acff,2001-06-05
794a883964c3cd6022bd166dbe6f9cda2360222d,2001-06-05
190db7ce1a9cdad175a551c410fe22a85f03fb4a,2001-06-06
68f6b984a991fd9cbf20bdfe6c1abc5b1a410588,2001-06-07
654f16a698f393bee92ce5616e13d3661d1f6ce2,2001-06-08
1a4fd4f86a4c0ee79b2771d2498011a20c2973f3,2001-06-08
cfd119edd23f56c4aa458d892285c6b038820ce2,2001-06-08
17a23996114ed76b9302506a8f0d34b8284dee5e,2001-06-12
73fde2c99d5e2a2a15ebe36d5a0b1f1eb439b427,2001-06-12
74a38b365139b48dbb1a3e43db335a2b1e9f4bb0,2001-06-12
20f90e4e0c0f916f0e29f84f14a2a216d813a4cd,2001-06-12
7b867a10d26f96911855430e79c668df0e053cef,2001-06-12
7cc3b6ec2294c44089e6bfa38fa7670c162f065c,2001-06-16
b9ce274525d9a24d05449985d000ff04c8a7ced5,2001-06-16
7a89b85adba74e7981b1bacafe47a9b4c5cc202f,2001-06-16
112b6039b37c93e6ff86fabb5a8740501055cd99,2001-06-17
aa4d22adfbe8573cba8dba31e2085056807e0efb,2001-06-17
1c62c7f5df7c575e742b6c2ccf5880186a5ba977,2001-06-17
fcbf12d7b68d07dffc7d0002ef9a69ea4c2b43a8,2001-06-19
1e57e83036edb25a9106c8eb30bbb0183a6f44ed,2001-06-22
68fb37b1a2632d9da411ffa8d6b942fb8536fc82,2001-06-26
e4c765d38a61ec42ce4d78e49485a70662db90b0,2001-06-27
aefe3a83c93b2582688d6bb8d3624bf65299be2e,2001-06-27
ab8c0b3d29af93c2d263cf2924f98827e365e56c,2001-06-27
a916e82d98c1d699347adb5c1aa75a912f21e3cb,2001-06-27
e582ce6706e59d89038f2378a0ce2bf5b5b4619f,2001-06-29
8036bb0ebf115113a2a8f21a32071e74a61cc2c6,2001-06-29
1c204914d03e9bc53afb4ebf3c56a0181c10ab51,2001-06-29
45fd8b03391ec3cccd1da7e67782e6c0f9317491,2001-06-29
75893cd3bf96b9afd55663757e20ecd3cab76256,2001-06-29
6440b64b5a526e07d4457be2153642524cecc959,2001-07-04
1dfa5ca002e81a1b89dbfd0fdd172bad141b829a,2001-07-06
757c77d1af72de2b0893ee41700ff0185591d58d,2001-07-07
96f3bfd7f85dd90663e22a6d6733a4c3faf52d5c,2001-07-08
cf3d817333eb1f45c382561f258acd52fdf3d3a9,2001-07-10
5bb077f59871d3c25031bf9546bcc42e5331de33,2001-07-12
eefa2aba55ad71e6c5ee6e54748b1dc76025c7ac,2001-07-12
0e650797a55ba63d32831b2b77e809554e31bcd2,2001-07-13
0fcac6aa36d856294f2f1829c09b943bb4420f5a,2001-07-17
f1bfa329163db7a4992c25741e2d2db243a69fa0,2001-07-18
2ecc6fa52abb223a67f8b81db23427f103c49b8b,2001-07-18
059ad359164e376960bc91ee4bce1e47abb3ef45,2001-07-22
4f3e4e1690289144b15872597586ed34ae92efb5,2001-07-23
75722dcb03cb32e6efbd01d306f301c1bd490716,2001-07-25
70f7d48dbdb48256e509f99eac4b569046b255c9,2001-07-26
fffe72edb5a6a6deb6222d79841a42c1663ccd36,2001-07-27
b263b1e282f73b82c5dd87d8808681819d13f2af,2001-07-27
af0505dd8ad69538cef3c64f9674c27c1d1775fb,2001-07-29
590936af269c77bda5fb410fd81e19958062efe6,2001-07-30
cc911f59921cda9a230eebd58c4ab6d9e292d5e9,2001-08-01
0e37f4714ce94dd13aaae444988b88d6bf5233c7,2001-08-02
b162d6d5c4d01c9cc0d7ae92b809b8e9ca67421d,2001-08-03
55dcf2dee8cad363de7fd0a2d8317c857349c6bb,2001-08-03
40a387aa615457a153ca11abcf9ce59e214b95df,2001-08-04
fa21d1fe0c0d4f7cb5c690680a29fe2426dbeceb,2001-08-04
21426bf475be13ac5dc846b04b56c19f55d5dea1,2001-08-06
0bcf1432f204e28327dabd2101797bc486407722,2001-08-07
25484253db5920a2b34079a486f15d051503ac1a,2001-08-08
ce8272e144b8168b864015d2dd304410ebb236fc,2001-08-08
f66cab0ea7689df54fe51f64018cd3ef8b05cd3d,2001-08-18
5f35e5e952c7732af5b98e484a87b8a90d8f2fa4,2001-08-29
e982760c849aca983252efb5f9cf66534a7d3253,2001-08-30
16e0c2864905cd7709563ef7e38379eff9897455,2001-09-12
876a3660c251ec609e15db6c7ac6c0cf14a4f8ae,2001-09-12
e4957c5f19c7f0a86f8d6ae2b78316f8fb6489ef,2001-09-12
3d047d54a23488140543b9613d658e11d985eb60,2001-09-13
35e92352f42350861e421af6d386bde2896c3ec9,2001-09-17
bec2a0777e910345fa7877d5aaa209ddde0937e3,2001-09-30
84ca9ada4918c8d19ee5a2ed5f55eedacc7bd46c,2001-10-13
8d66f263f5f40ed0a8fce0af2583ebe0b01354ab,2001-10-23
ffea0a9f7459b7c64148ae244b22e847bad9128b,2001-10-25
fcd6548344aa3f590435beff55530cfdb6983588,2001-10-25
be53ecfdc2ff0f8e955eada253ea8d3db38addeb,2001-10-26
a7870b167d35566a8ed101467825a406aa61fa13,2001-10-31
ab9f91736afcdd65e4ca1da6c627f4df71f5289a,2001-11-02
f19ae9c773a841687ad3e688d68afc199c760105,2001-11-02
307c136939d49423c10c698109f0012d9448bfc0,2001-11-02
d3f69a6b85e1b695f963f5fa2010276ac3aa7c20,2001-11-04
0ba89b453f2033b0bc4551eacd96196135fe0dff,2001-11-05
e655a9fbe6f9e2307841106e127efb3559c0743c,2001-11-06
cc0bf7e707542ff4c331cb0988c585459e9a2a6e,2001-11-06
ba558a362e0ebfcbe75451184f60115c7cc8ba7e,2001-11-09
c657b5ef73c02bd2d60b146fcf1d80cafa977e62,2001-11-15
c35619ac8a554bebec2008a08b8084993b3837f1,2001-11-15
6f7103db54048dc72e08f74df16fee25c94f2247,2001-11-16
f1718f0db6cfc74230565579b5a2071ebd97f483,2001-11-16
90dcced6ab280d3093912bc4c831be790eeeb295,2001-11-18
6c315c38234faf9c26ca3ab76195b767eccbe558,2001-11-18
150b0c8bbac0cf9dae143bfebcf5772a6efa99a0,2001-11-19
072028843ae6e47ba748eb289d1c7d1328e8cbe5,2001-11-21
29c20176679062f1345b7edc0aa3fe1b5810c858,2001-11-21
95fa304e14c4cc49d84e089ea13107a35b68f8d5,2001-11-22
b7f51d116b94077aab602dbc6ecb7f38ca6bc219,2001-11-22
0551fff52443b2cf17815268fd55e810975682a7,2001-11-23
82cc947b9811486570e9a00853bf3b2f9b4d4f10,2001-11-25
3b5944bc9cc8e332a16f02acdea8698b710fea43,2001-11-26
5728d77e073954bae5660e35dd9486e448cf0e0d,2001-11-27
8a676908c40081a254a7af5955d7e2065ecffbd1,2001-11-28
e503ebd4c7a3603efb6119fec72b3bbe3e9a4f58,2001-12-05
c58f8e6e7a80372127af34f7ef9c9bd94d9c221b,2001-12-09
05b5cb8f3d92ae5b438a0c03a5c2daa5e264270b,2001-12-10
9a9e3a3581a5d0063cdbf3c90b81811a1286b7bc,2001-12-11
33a75c75d5f19f1c146c0bf68b3c54c446a8c48c,2001-12-11
968b951f03e69fe19ec5685fe6f8629d10ef21dc,2001-12-11
d472edbcb0e3613a2574a5715dde99c7c6588f9b,2001-12-11
c78d3f894ef997a88406bbad2d848f3e8d7c3649,2001-12-12
ceb720e799ff00b84ce3a5570f35c5489c7a3792,2001-12-12
7a3448dcea316f454dd0ba470f8b0825504ae309,2001-12-15
0d470a57301439a5e5ba2a3cd4f7740f797c0aa9,2001-12-15
02d790fd3627479e5cfca7fd4b1ee054d2ad7a92,2001-12-16
c859e9eed3689ebbb0d986a6227240b2ba1faafc,2001-12-16
7f5a9ddff29645bcae07023c549983257cbfad86,2001-12-16
8bf664b1c5512651c2da77cef1eed73a8c493b32,2001-12-16
89c618a4ba5166ec11651fd7dc29807eb861650e,2001-12-16
002901b2d9aea86cab7d4f770b7a20367136c37f,2001-12-16
9e1cd9e4c1e05da75aa010dbc5bdf048c91f9079,2001-12-16
b8c50342cacdaa5bc7e3e4e72eb8351da5824716,2001-12-16
d34078f20b92f94555b0b389c1974f98e7c967bd,2001-12-16
2b18ecd15f074e6a6eed02bfa16382cd11f73ad8,2001-12-16
7cffd478a00528784882a5a03d46f2b76ea31c5f,2001-12-17
1fb0f64b965c5296015b4d367771a2bc27e34148,2001-12-17
45989d1efef6725311f1b4d11c077c272060466f,2001-12-17
cbeb4704a086bebb4de6c524d16bdc2d087953fd,2001-12-17
c1f679cc78eaccabb9e9958581f5828ddd9922d3,2001-12-17
1a19815b52a418a3fb1c4979bb269ef6626a07a9,2001-12-17
7e3a3c6b31d98e0670eafa58b20215808105ddaf,2001-12-17
66c618c30af90cbd0cd52a6243dce43ba689e4b9,2001-12-17
a6d997380d162ef16df244217c35992826886778,2001-12-19
007e5e2034ecd772345540300195ae11d2bb590d,2001-12-19
eff18a7fed54e12f6bb3e92a9cf74376c527cc56,2001-12-19
405e0bd8e19872c417f7d700db04f5a60e0c3f4c,2001-12-19
928698c4670e7502ede9ddec2785bc412f223f2b,2001-12-21
1b5824a6f65d5ec5286668eb2e68fc2f698bef54,2001-12-21
5f6832bd82418c0d62e243e5d6ae5dcdb95b7446,2001-12-21
9c6b288123d5787acdf6d6da7eb991800f882777,2001-12-22
11adb2a02c61890c0fbe5231cede16880ccd369b,2001-12-22
1d677212cc1f9d5b494e87939453a69e300a9056,2001-12-22
b8a71bf8463f8c38c404467a5aef7c451569ad50,2001-12-22
5595675827da26c6e442e920349e113a12d38a0d,2001-12-22
3d047699404c1932b6190dc6318d951a497f4aa7,2001-12-22
1ef7d3b0cb511d0d059dd0ddbfccd259396a5c0c,2001-12-22
669a7eae15ea1cf4d43f78955eb15a1b757717f5,2001-12-23
898a4c0716c976f77ee8a4d524a26929ef047b40,2001-12-23
33c937a716a5c4684fa45fa7da0800e3a85d068b,2001-12-23
d4ccd6348eb3f4605a09c25795d86d5ac52a3d27,2001-12-23
8447568c3d7a869bc55d7c193ca796b2e48433e6,2001-12-23
3dd3571f8554e5f88c39acca533a53eda86946a8,2001-12-23
b15293b0132b2d31e28a2bc109ac07a0c3566599,2001-12-23
96f9a81fa679d8e7ef4eb3725d383df9730d49dd,2001-12-23
c5b4c4e5e8f199caf594905aecf084a36594d7b6,2001-12-23
be62084bd51450bed936c3ccbd0377cfc6da04e1,2001-12-23
916b5fcac15662805a89082c8846ec6f1be35193,2001-12-23
0ededf8ae2c3d65541f77fb90c5a7c5b40612ac4,2001-12-23
28dca40128af0c97acd366354a3c96403c72b376,2001-12-23
c758ec76a28ad4311f06b184ec39eec9d8b09716,2001-12-23
5b93763d5174da45c49c795fb52205f946585139,2001-12-23
2bb0b8b340ce431f8f949951079aa5c57a8a2add,2001-12-23
18897c517af55f7072a63c838e15c3fe7358e6cd,2001-12-27
f1ca327fe83b0932fe8240cbcf3b86d550dce2d5,2001-12-29
f30a0fa451a62e4937f67191a543fc62e2fab5c0,2001-12-30
f151280e403783a8ea0cbe2181a4f495cd3a644c,2001-12-30
07382b400af7ecebc64eff5c55b4f562efd156d5,2001-12-30
bc9dc4239a1889d0da388b3e52372dbb1ded7f09,2001-12-30
d7d6e9fa4c426534b21ce6a7011b40e7a6a63f13,2001-12-30
3a4ce7972b9ce1f94bf575fa6b8b0336e2e3cdb5,2001-12-30
372c76b40922f63e73e9a3412c94bb2c33545586,2001-12-30
9d5b717a0d741048246f41ed4835c14236cdc359,2001-12-30
2b7e89678394d7eee73fa601d2d0a9959391245c,2001-12-30
d172e56ddf355c2d0859e95725fec6bbcd361b21,2001-12-30
1620dd543b86a7edd25522b6ff8601f8e294fcbb,2001-12-30
1cf954d68ba512d21a7eaec3ca906b682d69d73c,2001-12-30
a6ab0235192d311e0846d196589b71a02e2a7a43,2001-12-30
e84361f93601b411ab3b53b9d38dfd2ec417875d,2001-12-30
76d232ed49e2b73e90d19c39d4372f65779bdb79,2001-12-30
ec833f0040739e131788d3fd1e2809a73f176d12,2001-12-30
74b3200d9029a7478f6f3581f296e8ac8e1d2b6b,2001-12-30
ab7d2dee491d2ef095f51c2b528ac5fdcf5b151c,2001-12-30
5205e1bb542f995e3b209edf0cdfbb37374704ca,2001-12-30
59526e7a6762a7fdbb6bf45b815ed1d5a4f4d635,2001-12-30
aff9d91f0c6c24ffe726ef49f0db736dd988fde0,2001-12-30
4109d9eb051e8d03bdf03658b0d34a54e98354c0,2001-12-30
771c04c147d43ad32185b42eb06487711b52417d,2001-12-30
e2288433da8e8b2fe837d978bf095e8652328183,2001-12-30
be1eba8bf7e1ee4076a0b89c926f799ce59c7b0c,2001-12-30
68c5a1567e0b16d4ba1ca4e41d4fa69984c934b7,2001-12-30
5bdfaab5a1062aebf2a0db2559f4870359d0aac0,2001-12-30
093967db0e29ab675eef29fbe21d840f3467c5a7,2001-12-30
ee5b9c7e25776b05f051515e1d801ff3c9a9dc38,2001-12-30
f87b5ed7757c30daca5cf875c95520a00dce2269,2001-12-31
676c2c7cbc53cf43d91f5cb64da1cb84495b0e4f,2002-01-01
8457b31f4366f1a47533e9b745843fa00ae2c440,2002-01-01
ce6c8d711c59101ecf7c4bbef534d5d66daec1f7,2002-01-01
353fc665612ee8e26b794f4e59a91e4d1787495a,2002-01-01
0b7ecfb32ed587e063003090000b7baec362f7aa,2002-01-01
2ed1541485981f566ee6cc6e3f63bf1dfad2ab39,2002-01-01
010a31e84477b60ff536725b388b38323540dcca,2002-01-01
b165169549c4f199906968196ce55274405767d9,2002-01-04
27eea93c8cca12c53c78ca52da71b0e3753962f4,2002-01-04
500d69e18909fb9dc8dc537095aa352e951f61da,2002-01-04
0c0ea749581b7ddac026ab294d1708f7b784d75b,2002-01-04
a6c4de4a6c04c1770dd101a0c5c26b76027a8255,2002-01-05
4ad84fc4cc09400e9245a47f2509859b274b1007,2002-01-05
36acaa7bec9d8d452bfd8a3158a60b1a99af7714,2002-01-06
0f1c5dd88eba7cb386d894c0bf8aa34c883b4051,2002-01-06
a2c15cb080a27a1535b6770628ac0a19655d1885,2002-01-06
0db510656aabc378951525537403492f9b684e81,2002-01-06
0380eac20a5d2f2fef36091bc8a51135eb916c27,2002-01-06
4a63f3b33824d1af6537636e50dc9f0bf73221aa,2002-01-06
c66f11924c906857ff2c86f4586a6e2e359ee812,2002-01-06
a1db6f5a4c9bcdf38ef07853f5efdb3222c89c43,2002-01-06
34f8f175d68cec9477247022470991a874ae3b0a,2002-01-06
43fd978194e2088d799c96e14e798e0cd25bf2a6,2002-01-06
450b3303ea43757890f32c35fcf4648df2c566eb,2002-01-06
6187610641fb0da97efbbf6efbed7ecbefd4e65c,2002-01-06
2e186a30002a427c2968e2554100c8ce7ad17de8,2002-01-06
ceaf662ffb39a0a16066240d1d27da3563de9ec0,2002-01-06
e0f26fe26017eedcc317a8259d73db75f860927d,2002-01-06
df0a7e735816230fab66918a29b8cff5c541bb9c,2002-01-06
ec67a210de51a68fca045106aa11d8f90b5eea99,2002-01-06
5fe902d78b8ba74492a37b9bf3ac7b4328e140dd,2002-01-06
8640dc1b2273b529148af1a478d195c3dd5a5182,2002-01-06
5d79a4f5eb355e3058e18c7462b9fdc5b53071b3,2002-01-07
8ad08b239266a6c19ea3e3bd63b94b23d0bea58f,2002-01-09
3fa5d5e35c701dd93049108df0502234de6c758b,2002-01-09
e2ec25c8e1268c37fa9d1e56670287ac7f3eeb53,2002-01-11
33db84490cd8526fec0508e9b8c53a2f4ae8a666,2002-01-12
a25bca9c14a1c802c1dec57771f11a77143e726c,2002-01-12
401cfefbdc6f81ab8146bf9bf1055e20049e8b1c,2002-01-12
69b275e120885474d0d21a78bb6c7f7cb5eca90d,2002-01-12
df65abbefe02495631560db49de6c99ae9fc4ef4,2002-01-12
38aba801e388322cd8db783a1bc350cad4d4d77d,2002-01-12
eb278f795eee59165a03a7046586dc20b589f600,2002-01-13
73e215e5193cbbeb05d181e309bd650355e5cbf4,2002-01-13
4e45c4dcd5a483e889783b54be832554d099dfc3,2002-01-13
5060bd5cc2071c45c156c926cd124a3136d618b5,2002-01-13
24d5431aabdaa61ef8e4b57d4aa25dda1de36fdb,2002-01-13
1dfdf1d555692ec5e025a285e71284cf90b25786,2002-01-13
aa92c5f8708c849a96f4100d40cc8f39864c02a6,2002-01-13
04a62a443e831a2820f1ab66b06768c3758891ec,2002-01-13
0a07be8ea89394e90b84b99cccc2edb75bd121ad,2002-01-13
3ea7f98e8093680e5b50d3e47d96ea1ca127c321,2002-01-13
6181417a1f909d88c155f037a597e82d1879f70e,2002-01-13
9bed3906ffbdca75b6414a193f2c13f1028fcaf7,2002-01-13
b131c2950dc47a53c9b2e18829b15c1821d82e9c,2002-01-13
aff894bd1a1bb5e4d7285f96b8a699a1686fff09,2002-01-13
14ce1527da98295378a4539fc827a9e38998ec61,2002-01-13
f735f5f44df9fa52266e7b8b7f2741c2b7560d22,2002-01-13
569e491428f5899676aed3461999c2ff05cfd2fe,2002-01-13
f8ab615aea394cd89a8190fa4aa43124030c0c39,2002-01-13
524975cb124b64ebbc04b20ed1110ae34236c152,2002-01-13
400ba5d1981259cc07b41f08cd1b53f048f8ef52,2002-01-13
868fe28c17cabe0446286f86af1e2a26d01102e3,2002-01-13
3512883717720ed51b4fcc6a8403ac832876840d,2002-01-13
30655bbece94a2cdc2fbd519f1d4f7bb767304ef,2002-01-13
dbd11e5b8fe9617d1cc5628531ca7781c1721bf9,2002-01-13
e4118d939d6e68a252d1244467f3962ae9ed18bb,2002-01-13
0d2c8498eaeac0205065a253ac85402c13f365d4,2002-01-13
ced321c00be004a78c335295701169edf0dcb55f,2002-01-14
0389ea10a4687f078052de61ff19b5c43171ad44,2002-01-15
e24538c3426ad1ef6c10830ee1d326e5b2b797ee,2002-01-15
bfc6ef8295b44eea9ded49c346470c7a7d0c6ee5,2002-01-17
f0aec0feb7c46febee6fa56b43ebab3729483754,2002-01-19
e094f083b680f93fd54c41f38216b20022b6dffa,2002-01-19
b90678157d3ee5bb3ea2904ef4267a77ec0a7686,2002-01-19
29cd889775d70bb1dad99b6bbfb08e826feda1f4,2002-01-19
337e359a8a48bdd529bf581927195d406361fb00,2002-01-20
7ac20d949c1479a45698ca673b1de7321e9977f2,2002-01-20
8bf8f727922d647789d856694dcc64241621cad1,2002-01-20
ee6f20fbfc4f5cb213ed6a5bc8975871065c42c4,2002-01-20
38dce34edfdb4041103530c656e12e6ed61e2bd6,2002-01-20
7e5853486c57409e72a3ce3d49d6cfeaa135628f,2002-01-20
892dd8df07f49d44b5376e6dde197b0017802775,2002-01-20
3c5d592a3520905cf9b1ae78efa6a447dc361fec,2002-01-20
04ce488e76798587c4827b9cfb96990d29f5ddce,2002-01-20
42f63164a88175351e9fccdacbe1b4944b655f9f,2002-01-20
43e8c0e7420729f158a08088839d43d9666a21f4,2002-01-20
3d89aa70b257f2c67ce201e10c22c87b948a2860,2002-01-21
10a5eaecd4bbdb8442fd44231f188964351e4c7d,2002-01-22
f52a170159f6dc5beebe07bfb945cb5b3fa5290b,2002-01-22
fbded36c8c3710bf94dc160347d67fd1775a6180,2002-01-22
432a0ae47a43a7e8c6a8c2678289b88b8aa18960,2002-01-23
158172592212491498d6a30ceab0a1b806fde59e,2002-01-23
fef5fd66d1100c2cea2d9573eeebfce6b03d6e04,2002-01-24
2736a72e9cb52aaa3376f0010ca0c7e3b417c659,2002-01-25
293d45a72a842e0381ad0d21a1efbb304e5fc10d,2002-01-25
088129a371bb05d262a0d8ee618ff131c05d1b43,2002-01-26
032d8a1f423a508ff11c385f021d3c222dfe1fe8,2002-01-26
cd917d00d883ed5db42c3ee4b914a0e6171426b5,2002-01-26
3c7ae9e72597eae42af15839f7d0b3ea87cfdb30,2002-01-26
8c9b85883e0e2b18b0aa443e4b23484fbc70ebbc,2002-01-26
aac16db25bbcab0ce59c1a94fe8dc2f2b542430e,2002-01-26
bc848b4fe1907629c5008b34200fd8d4e3004f34,2002-01-26
1a3090627d25c1ede9407003e24d7e76ca48f293,2002-01-26
7b38537d182138a3e5c9f6d14fa4a5acab47d42a,2002-01-26
c6753a0a7e3fae5c68c4df3e515061f2ff3e190f,2002-01-26
0c7462a17f34651ebc644b89810827a024d0a53f,2002-01-26
ecabb608919ac02deaa8150bb06fccd9f0e62d4f,2002-01-26
e2e106d90bed6e7141aa85adb34eed2c8fabef7a,2002-01-26
a71d1ee865754a9e5ca029494727c309112c3368,2002-01-26
918484ab411a54eea06eb555b0a606e0db7a5a04,2002-01-26
74e0414fae28d386437f1d35ff1cb963de4e070d,2002-01-26
12438f83eb481020c4c306d1dd1d58fd994b757b,2002-01-26
fa273bcbb416d9048ccbf038eb05379d540f5727,2002-01-27
c6cabe48e1bf9f7b46e560d46e88e5f879f97e13,2002-01-27
10def2afa482c645a7a01907ce2e352c3e3db2a1,2002-01-27
40d4de5a0768552b7fcf9c54f11235b32ed978da,2002-01-27
21851ffa6f8b3564f8bfe08bb0a17863141e79c2,2002-01-27
6584b1cf3e65148be573d992b00b2f4b1ca46c45,2002-01-27
602fbeb19d1897a7873aa131bb3218381d6a2407,2002-01-27
91b64c4ca6c3d7307c98cc66b8272204bd33a52f,2002-01-27
076d8fda914346e558aad69f77be59216c46425f,2002-01-27
26d5ac6cd5264b5bbc6f464aab5aed388a4746ed,2002-01-27
90ff09d91dfa9de44a3bb4d8be88d15a80735856,2002-01-27
0b93bdd7cdfe6a7a48f02cf125014e5d538d5381,2002-01-27
1447e596aa13ca3441f24a8e163f4a255c5a7e23,2002-01-27
58083da2a7baafe86f8e8bb21c3d3735381b9bec,2002-01-27
ad91082694f9344ae3020e16cf9351e48b751b0b,2002-01-27
bab9e2d799ee887bc0a404b4acdec0366234eafe,2002-01-27
59c0b1595d0d41e479765772788b976d9429c24d,2002-01-27
ff8b6709bcf07f12efecc3625f5e1665e7ddf34d,2002-01-28
0fdacdfc1a598078da48d77a24f2b7479e9bffb3,2002-01-28
20ab59bff57796a67e1cdfefbc29826c7d55edba,2002-01-28
216965aa0f606d2200ebe15f01855067dcff66dd,2002-01-28
cbf1a178e3f594dd79291e6de776141e55fc3eb7,2002-01-30
dc060b5ab03eb8ad0b2cf933d56c645e1063188f,2002-01-31
bc34bb06ca8b29568e31990be726d04559ca2972,2002-02-01
b7e43ad8c5906ae2b6d6b42f8b2715dc7d2e7a16,2002-02-02
87ceed8170a6359ac2c4714b6ad22c55d2b1f571,2002-02-02
6679566ccaa583f1868dbd7b08c17bdf580c0ec5,2002-02-02
4c429d5df3e8cf99713d69c7357abacedfcccbeb,2002-02-02
0c6f46d68503ab0283574bb98982ed0f4eb16959,2002-02-02
c8fe4cd364e492074913f1242572aa22d2bb8a7d,2002-02-02
728221f4d8d26dec735f8683cfe70b771ded8f3f,2002-02-02
62ff30c775164f20e004fc217cccbc9a0f4453ec,2002-02-02
819831f11e97e6dc4e8de64b121b85f5fa2f452b,2002-02-02
c2b10718db2516942cbceeae8a89d1032393a55f,2002-02-03
6fd8df2dc29733f2f2b0d2c844877f26543a0070,2002-02-03
283bade37c87f86c92763234e886a69eb55cb47d,2002-02-03
b07408a415c2be0594dfe88062177fc4cc571d05,2002-02-03
8ddcf3388aa2e4dfda564dc0d48c695cf2fbd782,2002-02-03
27b4ff64f063dbbfe18d952763fe8724a1062fd0,2002-02-03
fff434e903ebdcb26009b4f11722e355efcd203c,2002-02-03
2705071ab46e919c65a4ebe889fe26ca74aae887,2002-02-03
ccdeef5fa0e7b4ebdc99dc17685d4ee82e5ab031,2002-02-03
e0fef5cf64773a98734998b9736ded96fc8be2c7,2002-02-05
81c17b6164451315e24ae774f1bed668cbca99ce,2002-02-05
ce1af4647df3f1fab5344250d1751b334e774d77,2002-02-05
1ea0d6c6efcc7af4bd72fcbe293adf918a10319b,2002-02-05
9f6a18be9d1d3e242f45f5d8212256e48806227f,2002-02-06
984e12200a21e70c9ec9086f8c69e86aaa0d7de9,2002-02-06
87c6f1a9ceb5fb48cd58466c01a0d0b0cce1ed09,2002-02-06
06ea1d271a3c3557c120e36c2df913050317cb53,2002-02-06
2b0c8d45ef58411b37461e71e16676f42e13785d,2002-02-06
5c39c18686cb56e64fcf3098a637c1399030865d,2002-02-07
22e6b3ce29a6ea3d29d5ae406c169cdf36e3ab24,2002-02-07
85f0f72113aa88da57b62eb336b5b5c1c492b054,2002-02-07
abfd52df0283e30cbe70d9c775f0c1d05ccb00bd,2002-02-07
6518cd22e07e4c95cbb65a9ce11232b9744c73f4,2002-02-07
d8169cab92f4ce5ecf09286db0c57c752fcc5874,2002-02-08
8e684f3e6e608fb3d36212faea4c1c7ad80f4323,2002-02-08
8af1905a98b1e04a63ab7473d64a41bfda91f15e,2002-02-09
7a5c30f33c46dec3fb201dac6878a09c4cfcaf2c,2002-02-09
3b349325f1e1f10b3c4616a1c7a3e9b4ec24c40b,2002-02-09
fa980642c8d6cedd6495a30f6fb97785fc0cee58,2002-02-09
78a7fbf3d909ad842f9e6f3e193a1017eb2f9cbb,2002-02-09
9592a7bdbb1d07d8cd2af7467a9fd24f1547f8b1,2002-02-09
968b173a2769a38ecaf797efa8aaaba39cb99f76,2002-02-09
ef5da3ccff8fbf1c9de85105d58730c2ea06f669,2002-02-09
b67ae6c688226d321ac153e6a76b5283d190bb24,2002-02-10
e055d2d5ad475583b976c0d564e1a3b7cad8b5ce,2002-02-10
2e6e170fb375181f4438e1de44808c7adab508a2,2002-02-10
ca77bf7cd306d07ef1a37b97a97b1de17f07f701,2002-02-10
9acb4910a93d885031d8004d0ce511a0f3e3d0e3,2002-02-10
1a0e2e46bc3b202da4356e80ccb9dfe2257f0951,2002-02-10
d09fc12e5806f0129b029350af8e7b75ab8743fe,2002-02-10
634dbf216a19f77ea83a06b66a5798e5dca2bb41,2002-02-11
7ed240811799349f5a0932e7a464086e5ce31527,2002-02-11
30b81779b563d12a1e28bebf934d5a5626da57ce,2002-02-11
530720983191367e8e8996f498aedac80d92f3ea,2002-02-12
8b4b896303cebb9f6f054254131e248da36b454b,2002-02-13
773c748166dae4d8a3f1e1268353e57a732f098b,2002-02-14
4ffd54fee4e9d7853085d8649a49c175914aa860,2002-02-14
271c73b91cf469886bc023adde1bd592600518b3,2002-02-14
48f9b90a7f56be4ab27122a4d862a95c76e19c36,2002-02-14
13e89f3197245c5888e32971c39ccb143f898ae3,2002-02-14
e3f813cb027da0165706bcad2e07edf5faeff881,2002-02-14
be938b1e8fe6d68aec358cb6982c7d70fe827886,2002-02-14
c86c8e4a72ee08b3659453fc8e9cd5fde5315ccd,2002-02-14
9e8e57522752c19d172b764350480e0d7b69c112,2002-02-14
ef420c53bf5756a4e14afb47a54cef25e01017a9,2002-02-14
56250d886e6efcfa207e9c1f2cd4b00985e259fd,2002-02-14
b6e062af22ec64196ed8d8c65ff5d8b7c98689ee,2002-02-14
bbf5ec8b4491c5579e05094382117ce98205bc96,2002-02-14
23083ead263e275f1c54ff4bf553179ad44a0847,2002-02-14
8c22fa33f300cd8587dee8635a7dda5c318f6540,2002-02-15
022ed20a99a57093f9fc6335aff8234d407c826e,2002-02-15
5c43f6c93edfa3d34075b59a4ae199eb7257dab9,2002-02-15
778a6800cfdfe174d4e21108400d4827124dadac,2002-02-15
e886871506743df400949c1c6c3e87820290119b,2002-02-16
8aa365e5d7d7f14ac4e0002be30968df77b08b56,2002-02-16
3dd91d101c74df4f4f1f9b574f3a4f6dd1d8a0a4,2002-02-17
0deb15031e9e934900b3b41f0d191dabdece8f80,2002-02-17
ef3cba5a038b3d07f752b184c24f7e8f604bbda8,2002-02-18
e1018ac5bacf39393c79c27d80b07e1825189867,2002-02-18
de190c4094ef4f0bb42d710d95b74bcef765aadc,2002-02-18
25c4d95cd51429feee002187eba3dc0acfbb4d3e,2002-02-18
6e89cb024f5e360f9a4a9a3d9e8b8483c7e1ecee,2002-02-18
3946d3183e482916114f5b5126d23cd6bf1c9da3,2002-02-18
5bf5ef03f5d94988310ace632508367ef0a86981,2002-02-18
3ca907710e149dcb83209271754ce53266f7de21,2002-02-18
2e60e0841cb84a45444da250e84915237a686940,2002-02-18
4ad59f0fc5eb69936f4322c1394993d33299959b,2002-02-18
ce63a87681d8d74e45a080dc28722cd7b188cb2a,2002-02-18
ca76c9e33c663b5d22d8b865dfe8fe6967c119e0,2002-02-18
d3cd72efd0bcc53e93dc30234f1793d9c44b3093,2002-02-19
2737393e9f982e62dcd84f35a5f342ae9fa07cd7,2002-02-19
4d8702d1f414ef88110183568a3aa502d18e06f1,2002-02-19
2a642ec043787abc44f1ac422cd9a3b8b257e6bc,2002-02-20
17127ef4d9e10ea47ee1e2c5a9a9f072024bd6bf,2002-02-20
cf8ec43ca4a9a0a70807095725a1fa26dbf73a45,2002-02-20
575646714ea2ebaf97a6290ea7d7585403175fb5,2002-02-20
048caece4061746150290b0264128118a4be3870,2002-02-20
bf844382c856f7b51c56024189c93f11d34cb720,2002-02-20
63eed537b696553cbbb7a98f85ab9f8d2e8e8dfa,2002-02-20
165b7dfa13d2cc15ed344294540b2ff3d68bca98,2002-02-21
bf5d72445b3750fb9e34c150abb7b6372324b85d,2002-02-21
7edeb4e678f61ddb643d348cfd8fede79b1cfbe5,2002-02-21
b52e2b425fc95067ec874e987167114384bca726,2002-02-21
ecbd9e52375509ac6a8f7a55af6612bffe24ee8a,2002-02-21
1876ce865b610d6fe694e7cba44c6c258c0a8cc9,2002-02-21
cf99f09c68341dbfebba6d1df8d5d8963f7aa37a,2002-02-21
da8ec4fa38d1b9a6a558e0cc7ffe9c5a439141d6,2002-02-21
6cbeee38fa5502baa5d75036ad2c0418cf808d56,2002-02-22
5f07fcba5784e16cac1024aeeb2b625b39a4ad81,2002-02-23
2c0784d479aa3137346c57cf9518c446830dfd5b,2002-02-24
f42a96f3046b6a665f9755123c9f7939e53737ba,2002-02-24
5168496109edbff91558a4d654082a36a1f74a69,2002-02-25
ed3fafb887fef0afbcd90eef7f263fef3bde95d9,2002-02-25
2f31d0c9642d34cb2991356daf4c876d8b5845f9,2002-02-25
fdcbd434d8c5cb90bd0c7a98acd9a3f26a0e20fa,2002-02-26
4d3eebbdb62bd31f6577324ebed20ee1a267028a,2002-02-27
dbab858d18a442a91d10911e36967378e835e1e2,2002-02-27
7899d6c4a6c335eeffa486f6b09fa3725b0e3a7b,2002-02-27
2d9c339208c8696e14df9b2c69852af36eca8a14,2002-02-27
6067cc82619953085cb35dceba0b369e99516854,2002-02-27
e91ef17bb5b1855680454851395d663ea19e4d5a,2002-02-27
3347fc027018fcbc1b67b25e134e53897f33a911,2002-02-27
87f806d3e4aba137d933f31a902197a19f96b7c4,2002-02-28
4a5b5fd1eab32cc1cd411ce8adbe76292040b039,2002-02-28
1e18358da6640691463300a4425fe8a2bc6a9bc9,2002-02-28
ef4a11096f4d8e3f47cf7463c196d7175b09c0f3,2002-02-28
7b8d582ad0c4a47e17fbb73773788608fddef0a0,2002-02-28
b5de47561b8f2c842770ffca3e540955bdb94d69,2002-03-01
c54524cf25999c723790bdd5a1b2f865f7df324b,2002-03-01
129bfa374a48cdf6c6629395fbfb15221bb6e89d,2002-03-01
c3405caac549521de3ff36018beaeb07a0176251,2002-03-01
4ddd7dfef4a249617ffb97e4210a18b74f0785d5,2002-03-02
b6ed0b49348d6e8f820f4e5590bd71782c111976,2002-03-02
5b48abc10df6339a4114a4135fdab2b38b9252bd,2002-03-02
6885f5ccadd471cc33c19bdcca4271aa3086d3ca,2002-03-02
6252354506953777f5b921b8746a54e7d317475a,2002-03-03
764152951685b8c87f45306dbf960ed5dd60b671,2002-03-03
0fa0e394dcd0e4f9ebf0547ac4fc25d3b46f118b,2002-03-03
4ab1950bd8ba0bf2335e09b07852d74e1b016f5a,2002-03-03
bc7c6eddecf32bf0f73fda243e4f399ed8c0c32e,2002-03-03
32de119f1545d6ec3e68aa1e708b40c6cf4c8dcd,2002-03-03
3921f5f07ceaaac3e31db6595f65f7eae357c46c,2002-03-03
8dfa7abd4d64b0cbef6166a28440f39f46d6efd1,2002-03-03
9b35ad50ac0efc39cce65a99274f0f7acf2775c3,2002-03-03
6ab3e313864e62f2c77a52d8c636daa20a7dfcb8,2002-03-03
689db09b317b91287cf3a8569bbf0ef8f8137522,2002-03-04
ce2a2bc4bcd641a5feb7e435783a4473e4d0b659,2002-03-04
2afc643a3ea676cc68f2f010ea3a7560b7a0a3af,2002-03-04
70513c95deace3ea5394895f96307c68c228d61b,2002-03-04
9c6515959f5bf9016b0dd8c12691e1e7549b2dd0,2002-03-05
6d5ce5b54d4424f74298d7aac6778539e286b8f4,2002-03-05
86334974455a492f4b76331b6002a45289874ddf,2002-03-05
52a5a5d6e43d8f3b15f67b806b8922009572acf9,2002-03-05
df867b66e89d6dcfa962efed57cbbdf543d8d7bd,2002-03-05
95dbd84d6e12161b34e2426ce26cc12dfe352d56,2002-03-05
a7fecd5cf94b3b0f7ae5dbe0c676b9cb9fb4f560,2002-03-05
3b1a100df553de6ae7f20b7d8d2e69c6a9646aba,2002-03-05
610d15a15b039662b1dd9020448a62b1023799a0,2002-03-06
f9c551b16e64afb9541e8e5507b9ac1a8c2eb436,2002-03-06
6a34c3f53621d4dca096b2c2a63553db239ad739,2002-03-06
475184608355b90b59307f5462e11a89e37be228,2002-03-06
64d951bcfa8ee32137eaa6ee2d5f2fce98e6b64d,2002-03-06
18b9849780a2470442ed5e3c402fff7b6a104ca9,2002-03-06
24ad9997f22641a041b20136c29ee72a47a01255,2002-03-06
15aa471689ebfc231b6ea84b03aa0dc1e0851dbc,2002-03-08
6acb5be183f9d189628089d186ede0caf887cf0c,2002-03-08
c8ae289ddd72e9f5858612fba38393a3c8698c27,2002-03-09
5b87919be6a8db15efe30f2de6e617aba31ef619,2002-03-09
52926715b4f4f53da4b63cf660a14f357d7a9b6e,2002-03-09
4d492454dde097210c04b4cca33feb56fa0f9554,2002-03-11
80793a20ada49e7453e836ffeab1e41c8a88d49d,2002-03-11
71aa092e8cec93a5c43c37a6becce11d3756de5b,2002-03-11
598017b1cdec8da5d9ac7002f6625561aca80ac7,2002-03-11
12c0f4b50aa1c00cc0e7689578f60ccfbe273875,2002-03-12
da984ac4e97c8d8c3335efcab9ee74b4339b0937,2002-03-12
9b81f2c560b2e467b3c02c1255118327e2fee020,2002-03-12
37c58ae8ccb6542d350567e49d7458a4da3e054a,2002-03-12
771de95aa4ce93462d8b7ea33a95b0875834f239,2002-03-12
3678b44d3870248aca2b070f74457dd8cc7dcddd,2002-03-12
50fb7f5643cba98640e7d4ce2b00736e9d42cbab,2002-03-13
6ff9bf50ad2e4fcda69911d207c8dfe93e7b4e0b,2002-03-13
d164c1fc255e7c85b2bc5ce6b2d413f6d8981074,2002-03-14
28a812e0cfaba7e946d865eee09dc9a35bfdbb63,2002-03-15
792642344dd1e5f6135f2b96020b1dd2cfe47bcf,2002-03-15
36c83758a0cbbbec3067f3710ff4b0e1cbc53edb,2002-03-16
7fb359263ae1b2952071f60023b15266ccde8e74,2002-03-17
c42fc5db2ac3b8735fadc4bbca9edc2d85aae6c8,2002-03-17
eaa1f3e7ce54a59360d0199df6176b06c7840eb2,2002-03-17
77333ba49f11effbaa8d033e3bdce55b9eb35cf7,2002-03-18
b6410584b65289fce8b334f40163fa2b6203479d,2002-03-18
3fee832d2527f3b952683181980a446b44f5e5bf,2002-03-19
d319ab594b9d0b5a3a2ee264845172ca590496f3,2002-03-19
a989b254f04d33e5bc2370b62121bd56830ac2f1,2002-03-19
d1392f7d25e288ce299c1be10afb6cbe5081afe9,2002-03-20
299ea801bc1031e308bfe07a22e51edd1b972872,2002-03-20
eca5133693881d72fbd157619b03647e7e255789,2002-03-20
aa09ea1b1f63515952d2b1d9f384d820868e21bb,2002-03-21
cdb548b3b4d78f378f11293a270aa5a8bb4a913a,2002-03-21
56074611a906b46f7db1a78cb3aba8224aa79582,2002-03-21
ee35557dea8f6b803d83f59f13cc384bf73959c8,2002-03-22
8bd077c556d9e35d607baabed8ed50c1ffd6b41b,2002-03-22
ec74722dcd89659e5f1b1241acd59dc3f5978be7,2002-03-23
1bc7ec2902c19bc7bbc8d45cdc68132121e22303,2002-03-23
16dd6ada599a9ae871aa69f75fb7c4b1f9ca4b69,2002-03-23
e2f8be77113d59275d79f7003499bcaf93fd1991,2002-03-23
73b118584a49366b63902bdc3c49576732321ace,2002-03-23
1081cadc83321c93e551269a920df162dc4cc42e,2002-03-23
c0ad96ab6eb848f79bf72b9b085396022d19df1b,2002-03-23
94997ddf2b7b9019a65ec7c0b5637414058d0eb4,2002-03-23
2d59643f6a55ce2cdf54365442991fddd8c683a9,2002-03-23
f37c292c4ccd71a86915d5b096ea263870e75d1f,2002-03-24
bec70759081189ba786d031c7720429f7da35ef0,2002-03-24
a94e3de3224293838cae0d2d7ef67d0ad54e14e3,2002-03-25
62562693ac733d0697b5a522972f36ea5570225c,2002-03-27
a816a71d9e2587a83890f499dd2cabb7c6e02889,2002-03-27
00988f5180558c94a961c8ed38163192c9b9eb5c,2002-03-27
d42faeefd8d4a36746e0e05b0e0db809680a55fd,2002-03-28
d2c225e3700130775183d20109426819f2b989ce,2002-03-28
8e820f665bdd11151b21f9ddfaa74c60f08d6963,2002-03-28
9b1b4ea94444124f2a55f49f3f96d78b43bead5d,2002-03-29
16a57441b256b8fdba6d3b871349a88de1fb418f,2002-03-29
0436e4cac3ff8a208cef31d527a3d4e46ef9babf,2002-03-29
3d3b941aa7dd1e582d95c63df93ecd61423fa41d,2002-03-30
18234144e7ee3f2a087c9427f7b04a34d4db82c3,2002-03-30
a08711cd91e80ad69a52d6dc84deca1230e6ad01,2002-03-30
ded098d5399315e5cb057bf09a72c2142ad82965,2002-03-31
6e56b4522ae86625e4e3a06921e52ec6326c1952,2002-03-31
f7c0a7741dae7278cf3ec00c0440548f188a2f59,2002-04-02
af0dbb6ef20efb56df867fa8025d13b0319383e6,2002-04-03
242af536519aef1a43fdce2fdb383762fb5b6ccc,2002-04-03
b91e4a3c1d8310dea42c2c353ab016d9c5425109,2002-04-03
3432c43ba0170b4e4a0e34bc748fdc7e3b6b1302,2002-04-03
4a2d828a9ed3dfa55030e743f19eee956d93500f,2002-04-03
e16a4c7b1db880e29d37406177e983142302af57,2002-04-04
d15e0c1121fc8f688643e7f38009fcb565eda645,2002-04-04
132029ad615733504901d1a3f6985d948bd079b6,2002-04-04
8d7dea7d2531f76b0e0dd98addee635dcda995a1,2002-04-04
8bd72d65333484586da86a70f2b57c44baef89ad,2002-04-05
0d7515e6c3a1a1e3b78946c2b60f2d8963e44700,2002-04-05
d463563bef58bd94efa53ad1a9aa7aa81f89ae7e,2002-04-05
422ca8ee1e22130fc63be365497ffc07be74fe58,2002-04-05
145903b92bb6ae5fd4b95d530dcf785f464e90ba,2002-04-05
c66d1357e4ef1e3e9b56512ab6b63784fc47220b,2002-04-06
dfa0c6e159416ba22df942ba98e496d99d53d07f,2002-04-07
8da6b3ac95b0e5a1a347169caa2af8b34a936719,2002-04-07
45fd3ec75d69aa0ad90db60192d16272f61b8ef4,2002-04-07
42c6021a9e42f49f50a3f4a170590d15a9b8c3db,2002-04-07
bd92e4de44f659770bc30e39f352dcc8446a1e9a,2002-04-07
708d61d5bcdb0aeca506fc624b74bba049e4a544,2002-04-07
248269dea49bf84d7f1a87d23906854c519b9f70,2002-04-07
9f496d1b2a1bcf4a5ac32e2e890a695eb163d81e,2002-04-08
17f7feb790394b20d4849fbe51eab665326c4842,2002-04-08
909ef56547745d9e82b754af92bf7d6a704bee90,2002-04-08
0f1259d2f38c0a759f6d1cc89605baba43c5838f,2002-04-08
a4a3c8cb37e9874c221455caa954e5b3b88177f0,2002-04-08
1f992c596b0d0a6dae3b6608530b3c798f8f0f81,2002-04-08
07a3027bb2230d2add3de5ec0b166a35d50b0236,2002-04-09
7fe322a2163dc184ea0223ca656de6c244985c87,2002-04-09
37fe632d837d518878c90f674153a6b7cd5adcfd,2002-04-09
f5ba55efa18fa862c2a4f5762198c2a9481f287e,2002-04-09
7eb8a34e54e5c7ff3241f4414e04cf3b623c3e07,2002-04-09
d328f5e4ea1bbde4a82116fa46c4a7425f12ff7d,2002-04-10
d53f5e961288efbb6a95db34d841b31d9571ea1b,2002-04-10
49ac8075b87fecb96138ec2fd569af101aa80743,2002-04-11
12a8163d89f051f1950a8e2b136edbe08b6cc711,2002-04-12
1f611ac0142b8cb9f317198682fc6015c7a9c78f,2002-04-13
0b602ec2cb627c4216b48bbe7bcec82925344cbb,2002-04-15
80080d456c543d039426db35bcf35d90694bbd96,2002-04-15
07d490fcd539717e83be6262f00a6612d0fc360e,2002-04-16
9a82620775359dfad6b8d5665136195944067657,2002-04-16
020f9a52c4a54560f617aea642a180e96294e9cc,2002-04-16
244877e68b0cf5d4e6a6d7850c463bdd4d4cc373,2002-04-17
c2f14ffad1518f0d1c23c084b7c216d06c5da363,2002-04-17
6bc9693c3c5e8f944a104478a7aae93b9b667c53,2002-04-18
55811ba73b5aed3169e1d003a069a4f83f161d1d,2002-04-18
422f63ab870fc467aebc0746cb87df8d7691d440,2002-04-22
550607147fe6a0c89a1b6e6c85f5e69b334d31d7,2002-04-22
34d8396f3ee1562bdd44ce669c25ec3dfe42e380,2002-04-23
600b5034c20950694fc1d38a42bac70699617d92,2002-04-26
9fe0f5be4e42e49babd57ab69bd3fa6d5e64adf1,2002-04-26
420e7ff2b3e9b9abd9752ebd6dbcccf17558e512,2002-04-30
e9a96d595fa6714d1371719a22b59736582fc16c,2002-04-30
cba254e641320b3864c7d81345b5c1d1f8fe79dc,2002-04-30
69d9b9a49622889f44d6792faf00f886857828d6,2002-05-14
fcc7e2b47f01468c83803caa09ce8266e56f213c,2002-05-16
66bb079a1b2bbba4de57309cf7adb13c2e4a13d8,2002-05-18
892725299aa75fb21eb6f154770235045931f5cb,2002-05-18
f9d1c1691c7e9d80b793f5178f6113c949fc2441,2002-05-27
c09d386575d236bd32d3d4ce78f716e90b5bbdfa,2002-05-28
f19f07d6e4c72f241057ecfc32d80be21201bbf7,2002-05-31
ca91f8cb7e4f2bfe1a191dea6126a32649af9565,2002-06-01
5b320cdc202a575a067f3dacbd06bff3ebc43f83,2002-06-06
c3e3cee3b0f5cbe281e94fb595f089edd4d6aa81,2002-06-12
af074bc65d9fdde7982618162dfdab2dfae06e5f,2002-06-13
829d306c72a2e58b0a3b67d27c0dd05aca0855a5,2002-06-17
270394a09fddda0ea9ffa2330956c5f399ab840f,2002-06-20
6bd8d6e938a45868902ecd1092858e8372933c7c,2002-06-23
da4e1a3aa99899d6aecc6d14c2a7498fa51647aa,2002-06-26
b10ac6b22e4dca2c964dbe3f8d21376511449216,2002-06-28
da5a13f8e4e0e4475f942b5ae5670271b711d423,2002-07-10
8f70bc2a919459c49c1977d91551f43819063954,2002-07-11
1e8307708de490453db28c89f777eb4a9c08767b,2002-07-12
5fa2b3cd6484967339e8bd85e3b180117cf4cff3,2002-07-13
13c833611e42de1bf8e25966d4c6812345866c83,2002-07-14
706007fa7f0109b473a9afff06c2d98199ea7387,2002-07-16
fc6a4383fa7cee5fe2534dc9edc9d8a4eb5c254f,2002-07-19
75cdfc682ec1c00da1a7ed51ce5e8621776ccaf1,2002-07-19
61a377b6697aa5b28716478236a15dc386934a0f,2002-07-20
28b68ab7d0689dbc35dbdf26d2308786549b8985,2002-07-23
3256156dcc13ead3eba8a9ea02b23ce7f7be8eb2,2002-07-25
de93400d04ba220ab724125f4e869e3daa37f1d4,2002-07-25
1f2eea24cabc5464b0d95392996cfd997cd8a2bc,2002-08-23
2d2fd6a3f6814202a311d90d8ba6a5c9a947b3f3,2002-08-31
c4e987aea873d1adb84ca0106a945f6dfa5ade55,2002-09-09
0695ed1416b93165997692fe7b50bfc4649f942e,2002-09-10
f1fd5e5e8a65a3463feb6226f4b827fc55417e51,2002-09-25
04408cb596d6a5a0bc1261a75adaf46ebf9d644a,2002-09-26
1e760c7354cf76a820bf05aa29881ca9154757fc,2002-09-26
967ec861a2a70977f434a391d5c70f477e4722b0,2002-09-27
6650efb105e0cdd4941ffc2c98f2aa8ee6e1dfea,2002-09-27
6a012bdb4cf3d536421a4fcc996e9427842df8d6,2002-09-30
e5a85d7265ed5c9a0e391d5d00596368229e8014,2002-10-08
620b8828e3694634896ff05057883da63211fc2f,2002-10-08
114e8b961d76c52345fe98ddcf04230c497d5c97,2002-10-08
60528537f237073bd8f93a2489d0ebff3e4197f4,2002-10-10
b723ad53e0a48377edac1fd4e449520b737a8dde,2002-10-11
0124baebe268d181280e0777008d644f32dbdf6c,2002-10-11
da1aa04a45eef04b2bf6d1137a7eeb42a28d2801,2002-10-11
b28f2604755c621fa63bda2c71deefb29aaca9b9,2002-10-11
217dce84c52305df516dec361fab7d3890929ef3,2002-10-11
70cb3c2ec0a84e848b1632222d61af8102a76657,2002-10-17
a7a6e7a162348f37f0e312f3715b9e581f60e0e1,2002-10-31
524a7831a7c83f78afd325bb3b7917ff73b196cf,2002-11-05
ceeb6bff93b75195d4452b1716d313aa353a2a63,2002-11-05
23e61358c8ed2aa3fe63c1f67082150047f1df9e,2002-11-06
51efe539a6d03adf63a486d27865f78fe4eaa804,2002-11-08
abd749ac59547f30196666617311f6737bf4369d,2002-11-08
a7bc73294352164be218d62dbcf8c95cf1fbeb34,2002-11-08
6b5c48061a0409b564f51bcf0717e946a0a41556,2002-11-18
90b811d74ba241f5fe1fe8508acb87fe9d0a5fd2,2002-11-21
58cee40515ec978431b9b6d4a6db3b6401225f29,2002-11-27
3255fa8ff4d68ae67f32a9df7a54c163fdddb9a0,2002-12-09
41c3e23d1dff90edcce9dad05bcc50bbedb22ee0,2002-12-13
ef710b030375243e30d55aafc475b5e168b6cd2b,2002-12-20
4edeb27347fa04663f2cb6d067fffb753a2760f7,2002-12-24
2ebc17d579e5e8a3ca1db259e25ecd370e945a34,2002-12-28
9f081e617876d628a3523b8c14c72fadfd6f99ac,2002-12-29
359855b65f028b1f5939264810934e7d09f65648,2002-12-29
44e40a7606432325bac57bdc244bea997dd7004b,2002-12-29
e47e65c61108aa6a508fd5629fa51408cd8cb971,2002-12-29
524ca16a8f92973fb88a0fa9692524258e6e3941,2002-12-30
988ec061641b11cce372f8d85e12aa9f0134a8ae,2003-01-08
6a65262ae702364e448ed94837199c40eac8eefd,2003-01-13
21660b7678a4317e417e236d2cd36d12ec102434,2003-01-17
9d74327d0aa7052193a0fcd9430f6f8f3509e619,2003-01-18
c2dba687256b368d6ca095487a17d432dcab22e4,2003-01-18
e910d5184a5b6dc049bd830acbd60f5d6cfd3dd0,2003-01-20
83edbb7a85886207a528219f32cc598e4ea1eeff,2003-01-23
50ab3762949b456ef74fcde982f16fc4922897f6,2003-01-24
a506341591609c92acc41b9d7e7f852f520f2815,2003-01-25
56d0c2f91a32a2067a6810bede57cbd0187c4190,2003-01-27
987c943d07983f5c498fe4334f01a75f026b5865,2003-01-30
f3a629c22722a0508dbc8dcc17f19debf99239d2,2003-01-31
6ceeb5d3da20fb1877967227f54d2d9148e2e69c,2003-01-31
8513609d9c7d547fa4907dde0522e409b0018095,2003-02-01
98a9c95a45f2d1cf952691150a32422e7ef1ea67,2003-02-01
1cea69ac674b7852c3e00a255bd2aec352218695,2003-02-05
07b710cc96c363b69d4e7225c96ffc0296354597,2003-02-05
34dc5127ac1a581305f7b89cc9801f1624b2e039,2003-02-05
96062837118b7dffe0a2a11f60008ac2645b281f,2003-02-06
55641903fb9a4b029554bed4e14b7544d0829f5a,2003-02-07
984ad3c0217344ebdeb3b55fe2ba4018384fcfa3,2003-02-08
b50fd138f8b9c08dc04ff70319e953d2450780a6,2003-02-09
f25d3801bb03267e98e239d6fae047b8d3778eed,2003-02-10
753f33937fab2726887a2f1b0fb02d1db3827fd5,2003-02-10
225893c4b96e202aae6654f8ab2354b307ad35ef,2003-02-11
c89a66172df55665b27e2ef3626453d8958f9767,2003-02-19
d67398ecca6c48d849fb8ce9cd1e2d1dd2b16d6c,2003-02-19
198cca7aa68c3d73f41cea3d673fc07e0009c7b2,2003-02-26
77ee46ba7a31a04ce8697925985e8f9f1a59d52e,2003-03-10
ddd4677c145ccc8e11755ea2aad6c53c3e15e9e3,2003-03-11
c84425e271b6fec1221fd7d742cfe4699b941e98,2003-03-27
88dcebf815f27d9b16735745605342963870010e,2003-03-28
f7d07d585cda891f3ebd50fd013a4e089c9100e8,2003-03-28
161579a6d082eac88d197ee70491745c54d48b92,2003-03-31
6540a295cd786c80c28c14f6c544aa1d64ab3778,2003-04-01
5cdfabc038e26f67080037ea0c7ad6ab284d821c,2003-04-01
4c30847da6c777e84a8bdce102ba4142e71a8343,2003-04-01
13355064e679198a0b8212779599eb888739a9bd,2003-04-01
662f68f096613b90eb1448be53d907453492287f,2003-04-01
b001eb2bcb618ad963c862bf203df3c0a302bd99,2003-04-02
df03da5c6a1f8c8720c81e3ea0f00f2c618abdbf,2003-04-03
062217277c2cdf426144efb0151eb912ddcd96ab,2003-04-04
f6e86e880925fe33e288665c38af04bc7acc8a15,2003-04-04
3bb2c149aba3553aa4d57f8047d41510d1c1b622,2003-04-04
bfad69862eaa347901bb7895a2bcc81fe274f67d,2003-04-06
397cfc71395964eaf2333f235ce00feec85689eb,2003-04-07
a60251157378e7231a85b7e3d1e5cf972a646f78,2003-04-14
c4fc48f69dc1a3abe436e42c103e6b53eb92d918,2003-04-14
d76fda652ab6bb3f3840e8606f73d23307a33ca4,2003-04-15
26a9faff104e1786d28d7855210de58f0b818184,2003-04-15
576c80c81f9a0b51eb663709a57784eaa5dc7428,2003-04-17
416d46165ba953cbc74387d62e82515e8180208a,2003-04-17
845b84aec3ef61f3be9123b02199f843af80b303,2003-04-21
e596d350ae9efa7d0aaf51d8f988be6ea3909078,2003-04-22
b404a282b25f5b01eeb1646495eb2f36f675ebe9,2003-04-23
b113154a3acb81036230d6bacbffb6ea977271b5,2003-04-24
adb971260c7328e1914b7716ac1691c52d2c88a5,2003-04-28
117ecb1742fe323d01f98523c2d187c56d86fe9c,2003-04-29
6e7154321d3e95449b4a9ab838d0872384e641a0,2003-04-29
3abecbb4fb32d45bfd43ab34e12901c84920b5e8,2003-04-29
b3a0cca7caed8bb8ca0c267aad7e60cae78eaa37,2003-05-05
06880eabddf99b420e72f91ba19700192d49c036,2003-05-09
56d0ca9a293eeb55c459118ccfd60e3fbca258a3,2003-05-12
a571a7b97b2375464666aca98a002687cf0f071c,2003-05-14
0d7f1ce40f2ca5e16a8c99bf9c185d01cf6fa1cb,2003-05-19
bd578f489a9200bf0c1e361023cb235c15d743e7,2003-05-23
b5bd5af0590db16a907d2c845821623934a8ff0f,2003-05-27
abf343291206f3cab8b3436214cc0a88efefcb25,2003-05-28
ec0ed5336208c963b32eb8c3858532828a4e2997,2003-06-07
b198322c41db0cb673217f89ab43cb179d98a54d,2003-06-09
e00d04fd4a3b08756835d0238168daa01cd701b0,2003-06-18
9b60f270d444982f535698f603f3f1e4a3704b36,2003-06-20
e4f004d939e26bd63906121996b3dd5d50d76734,2003-06-24
931a037496b3bc1c55734fd221a3ef773dc8cabb,2003-06-24
7f18b8f61106667917fa5bdd33b885344f2f5221,2003-06-25
84d3e4a158b155664d401f0d8b57124504532b74,2003-06-25
26f6bfe2be0861267eca5624537b48daa7574dd6,2003-06-25
8701272b2418d74536d09b289f118d1833d42217,2003-06-26
b36b67d9e2f4304e706efad7d4090dcfdf03e215,2003-06-27
c1288a2b32be38143c6a6d3d512aaaaf3fdbefa6,2003-06-30
8703d66ca0e5d9014e069426a69c93343081c38a,2003-07-03
ad9c15103d9a4829b0c16c5187066008efd70f9b,2003-07-03
01a0be022dda5f39aabf77afc4fb7c1d4c468218,2003-07-04
88c9b2534776f2f3d73609a6f1eceb4014ed2304,2003-07-04
77f91dc2d98b28ce1524ca20489bef0e283aed47,2003-07-04
12d6c01879b76774bb1cb969f3081301b96dab32,2003-07-04
f463bd2cab8b132695d8bf60c889212628eba281,2003-07-05
6ee5317ca34e43ca1d62e890dcf034eb44cca649,2003-07-06
3341571e8e6ebbcd9a5e89f78f15eb01da9936ab,2003-07-07
46c40044e121ccf6096148a2def4159a4887e405,2003-07-07
7a297b6c99265eb360806ebb2df6d80930a63114,2003-07-09
36d84a61dc70dd6bbc8ee25d5261de5f2874e837,2003-07-09
f3939727d9e11188d266beed7e9dfa8e2fd0bc9a,2003-07-09
e612a58418f0a8880e8eeb4d82aca14d67a9b7a5,2003-07-09
ff0739c9ea16f764f011c95caa199d0772416e87,2003-07-11
33693452f183ef18791a93941930b17bb8e1568f,2003-07-12
787728897a6052af385456788bc4e578ba170ba5,2003-07-14
a12cf63191aece501e0c5b2603c6b72cad03caf8,2003-07-15
7b6a46d13193059c7ea056ad646fe5620e2bb79d,2003-07-16
740ed5fbfbb7f59db596062f9e853fba40a65722,2003-07-16
4ac04f30c2cdc4c0d31eaf13f797afe2aa72fea0,2003-07-17
1f71acf427e164e75bc4f90b1ddaecd51998709b,2003-07-18
24eb5693d6b7363262ea941cac63d15230aa1aab,2003-07-19
02e16487243acbf6815bc357d7e2dd9e702bdf97,2003-07-20
4653e638dd921ac96a2e8583851b121e46477ae9,2003-07-22
2366612c9c9ca8e538fd8faaec24184bc5b96c73,2003-07-23
149ce34431423cd116e5d7175ff281c30565aa6a,2003-07-23
9e89cec932a798d958cf6bb310936d9a00c09a9d,2003-07-23
5460755b447223e93e926e11a08e4df4f0e0ddb5,2003-07-23
99067d060752e5a89c24d99c17b6eb7231f96380,2003-07-24
6a434928c1677e61d1e34f12c0323524923434fe,2003-07-24
d6ae851614fdd338ece0f76246e8b4939f0126f6,2003-07-24
a643eaf19bd0fdb7640e07ae1c1e44e537ae2e66,2003-07-25
db75fcb34ed8d469fe7ff1a0e7afddf4a1d89177,2003-07-25
efb4de409607632a54e6831752edeb5a6adb221b,2003-07-28
d70354a61742e84582d0bb8b67a4c09760426c3f,2003-07-29
2c905033e5cd06651d88e58949883841858059c9,2003-08-01
94a192bb792ac737581a3510a278dfb5c2f0fd3a,2003-08-01
130d4ee759cdd6627262fcf640843c6c5c65a317,2003-08-06
ca5799fd8c1780abcc25f63745faf95bd2cdb06a,2003-08-13
6cd58fa504db7a3a5e4a06a831952b7f6b3d3b0a,2003-08-14
58968aaa63891f65d5a9a7197310471fbc21f4e1,2003-08-14
e211cf05f7df29b7531bd7d1525f7fe8bd8d33e0,2003-08-15
c7ec7ad1a4aa4f52693b354d08914e07e0bcd2a8,2003-08-15
9a7f8d24f541c554cedaf2d7c947cdb2828b6609,2003-08-21
a0406cafe6a8019f43e573018ad38f7095db879f,2003-08-22
3396e7c32132e8bff2d50196131cf641ed8d1fb2,2003-08-22
24179ae7ddddc2dbb4470a06c592398e184da325,2003-08-25
ff6ef3c0c9f17d03e8bfdc866297e3f787b92250,2003-08-27
8fab9564d5c47ca174fd37efe2ce94075187e92c,2003-08-27
665a5463e7d894a3d7cfb6071dae3fc0ec98cb39,2003-09-01
49672cb190db8dcc8abe583b603edcdfe617a43b,2003-09-01
543e74c7843629a29d55ae81068c57385e6b3eab,2003-09-01
03d8b12829680840c24e878d3d65fb4e7f808018,2003-09-04
a8d3085b01b4e04df3eb81f913d51dc99f1cbf2e,2003-09-06
388c987ddcb15cebcf5d2afb2ade3c5ec636ca9a,2003-09-17
2bd38f0df1294b986163ec1ff27d12d0aab9c270,2003-09-19
d1bc937f76bfe650c3c2a530e848140cadedd785,2003-09-19
84b6f69d71494069683bc7d041c31e471fc697cf,2003-09-22
e05733aa9b6666651f4aa455e3ce0dc0158951b2,2003-09-23
fa097d22eae9c6c85c440307786f3f7bd0689ee8,2003-09-23
c12912c52bda86fe28ed7476165b6cc49ce8c0ee,2003-09-24
33d19ef67e2eb18cdf696c337f158ae725f92f21,2003-10-13
098290b6de9ed04f19bb0676c976e545fc0f4488,2003-10-16
b3d2f33791994d168cbe92642f879e6087a6e712,2003-10-22
e532d834451124dce54c907ce17725b02ae981e4,2003-11-03
47fa568d321d64f801f7108e842985b627608431,2003-11-06
ab0aa53ee1b8cf5058dc8b9ceff1af934f5a7aa7,2003-11-11
9931a12c723b640bcc8f96c889bc5f59cd72a3b6,2003-11-18
53ebb817e993c03b6dc0ee111634f46085bad498,2003-12-17
85f6ea3795fa8d4393723ec229e9168f8b824f28,2003-12-23
7b0865572eeb259897cc24ff5e0c32b0fbecbe8a,2004-01-07
5f41947fea063436dbeb9b190662016f939e9554,2004-01-21
5ec7e1db1b76797c2513ada02a7cdc4fa23903b4,2004-01-29
a41ecd0f2033eedcc50ba1e2ee2f3f56a19d8f91,2004-02-02
be91e2871f1367fb3667ebef7d1f1caa0be7d162,2004-02-27
72621f72077df4b67c31e5b6cae759a8e49c2fed,2004-03-15
b0507d4451b72856ddca45183143a96493e8ef3e,2004-03-27
89ab1168c984084b8d804744ea8a74f268cb1fe5,2004-04-08
021fdf251c92ecb3981724d83c0265dc770280b3,2004-04-15
990243c7851b0c2bc6c5f21a3b61deed0af7712e,2004-04-16
14d5a4009a398c3b64fe9a313f4c0670d75ae0bf,2004-04-19
9dc81a0315ba4e18a8a6023b43e294bd700973c9,2004-04-19
531e66cb1e7a5c8c495d724a0dc52ab65a77faf7,2004-04-20
b6298168c94332a367ae3b8be896d4b30583ec2c,2004-04-20
2ead66e52c56fbc1a59789187ddba634ebe4ae2d,2004-04-22
c00d5a6977e62911b613f7b4464e9d953057e4cd,2004-04-23
dc6ab2dfed662f48cad5dfae9fb6b8eaa04e2cd5,2004-04-27
fa45d9628d6fb4a8feb330027db88c5ce903cb56,2004-05-17
476678d4a660bd6077ae4a8389cc29f42fbde0c9,2004-05-24
278074659bf5724cde17788d210699876f7ffa4e,2004-05-27
698b90a7df8debfcfeebfd5e2e8dbab106a2d512,2004-06-10
5f037857b64eec462d45aefb97997f37733dbbb7,2004-06-10
527056c9efc3468a3b3c2bd0aba9c3b249474eb4,2004-06-16
8d4197a222dae2279657d9765a8869d45d0c768d,2004-06-23
c672e8778ed4d0f929d9bb413532a4b2e421fa16,2004-06-24
a22c8c09c83a3a684cd003cf0661c7913291640f,2004-06-24
cc141e87cde0563beefdbb2a7c3ea5eb7e172a64,2004-06-28
590844e775f322377fe9d9dbb7137ed465d625d9,2004-07-10
7dd5e65a056c490727f5edb12a5f58642c7fa269,2004-07-15
c692a67a30db602f835f31f127862ed581779f5e,2004-07-23
22b84e3a90aa69d0b0de53d108af5b9caf75a59a,2004-07-30
72252a914825c9fb084ea32f3b59f32442ee47ba,2004-08-03
b6da0f3f129cb8b4a0c37fed0fef05eb127e534d,2004-08-04
803fb00df9e066be53b6bca73efea6fe0d8a83ba,2004-08-04
85f05e8b8d719e03559e6b07e480b6c0812dfd56,2004-08-05
0e2cfd51d2dd546c3304993c1e39dde7081c6f8a,2004-08-17
6fd0ddc8b843c2f0348fc51f680d465b89046fe7,2004-08-20
e3bbc7c3c043ec2f36aa5cb5f8dba72d3698a38e,2004-08-20
543344b83993d92a562a4db14717a1a8f27f499d,2004-09-06
1ddab2c141c45161d8006a705ed52100f9f318f9,2004-09-10
b3b1c6dcc6128fab6b369205c12bb5d672307f7f,2004-09-21
8c9b19d0a2849ba712c6859ed7b7d3537cef33fb,2004-09-30
66676d22f4163163a8f7b567577705159d7d4d60,2004-10-06
c31f5ae25766b6bab90b1d0ac86eab2c7f66b804,2004-10-07
a5a1cf23953be08f91c28840a830e295eb7b171c,2004-10-07
b76a450b32f2bc6b7eaf3910123cd5f998af25ba,2004-10-08
c0bda1b4cc908cc9c691f8d38a31e67bbaaad7b0,2004-10-08
00a70173b29f3778d39c6fdf664624ad739137d5,2004-10-12
7228bef97c4c12a5012e14e1a059a12069ee4818,2004-10-20
a340fef0f6955dc800215a72fae0f53f45626385,2004-10-21
39868ef36807b9456eac82fc6210be649f744eea,2004-10-28
f993e95b3201e777c399c932ba6398b1fc4e2b9f,2004-10-29
060243e8bfa9d86b481e6d7ea445754243b4ff13,2004-10-29
fdc903238f666ea1f4f60385d40463c8ca3494d2,2004-10-30
844ca96965c1cf8ec9bd6d28fdbf483400d4b1fc,2004-10-31
f40450a1ea9d49a2fe1a3c01da37f89fc7bfed7f,2004-11-02
7651d02856325bec057619d215ee30c4c605ee80,2004-11-03
1700aa0b9e5bac1e1e6b70f17173dd109576585e,2004-11-05
3f31dc8f7a3bfbca7fc1b633742521ce5e4cb6c4,2004-11-12
ed380ea5d0201e2e75eada6be54fd55399877810,2004-11-12
52bdd44cde593329bd9aa321652620bfe9ad2eda,2004-11-12
c776fe2b0ef03fcea2570159dedbde6616162e8d,2004-11-12
bcc7e3dff34ce66d4f1af34c5d5fbb1603808210,2004-11-15
7e5837b08014c79772dcb815698fa2e174b7fbdb,2004-11-16
f630ef56ed68316b07aaa27e05cf871de1070498,2004-11-18
f4c6f96bae085938e99cf06c3d7007a0845be1b1,2004-11-18
81d29e52f1d4715920d593792f56adf5e71faf03,2004-11-22
0adae3872fabb89ded584e82546ed9b6f357e18c,2004-11-22
a3c195e5881fa8915eb39300a56e5d0bbbd1fd76,2004-12-01
569f22aceb8dfbe9b8876721d313edbbbfc2a3a2,2004-12-01
bc09dd927519aac3009560b06caad116865b9d3c,2004-12-02
9c8768b75b9fc59bbf87125a4d1a31a6b9253daa,2004-12-03
a05d1f12196d34b23d4ab80c3598f6fb63410ac5,2004-12-04
2ca7dca3a61c1dfaf641aaae01d923a018e418c5,2004-12-06
ab752d0295f473dde0b01a369616625a3ce9b871,2004-12-06
493661af544f4db9b039b74e13d157eda1076a46,2004-12-06
a0ba302efe9a84e4735f08c631e01209496fe522,2004-12-06
4b829dcd9624789c7e5fcc3a27f090ee8b9592fb,2004-12-07
f544eb807ac9cd1f28bf1a894ad33519b7119771,2004-12-07
be6e9c4ce20319bc8449466a5db9d2dff4d7f258,2004-12-08
64f7d86fe1e4c58eb2bd35977e2fd3b05e9647ba,2004-12-10
04fc7457032906cee2e0dea7a27d5e8a770b86be,2004-12-10
88e1208306a1cf415715a172da65980378a4fe7a,2004-12-10
b0e60527f14be8d2cbdb7c9c4e24f0782a5bb712,2004-12-13
e70b911fa582e390d924ba3545c003a7561e8d19,2004-12-13
2b0c95d418b4f3646a6e8479123efd8b95147674,2004-12-13
e142e5addaeb50f2c2a7c71c29747150b9fad463,2004-12-13
cf2fcaff65289fb09eedaf4f3003aedb57a6aee1,2004-12-14
1ddaea8055b242a63505cf20bc65708000ca5009,2004-12-14
73e22b9d37f72c3cf1e6a277813bdfbef2cc7a80,2004-12-15
fd1350c42a919d8754a0b4ac133eb0b262d809b8,2004-12-15
ed1dc6c2376542ff311a33f0d2269c5c19d00a29,2004-12-16
0bcd7a5471174ff145eeaaac386503efeeb68f89,2004-12-16
c4eee4d986a90e301d41a08f87ffbe8c57e0ac63,2004-12-17
c4e4dd9bb143278cd2553abe74ef28f00ed3ddbc,2004-12-17
3476b74ca5f7bb4f3e7986c715b17f6e37523bd2,2004-12-21
5e049f635b8b55f64217aa350e4958654330453f,2005-01-06
2d15e8d8b3af5f74bf06989fe1c5cce6e07e3471,2005-01-06
257dadeaf0fb8588b80fa71b24ee3aca38ea19b7,2005-01-06
25ae6c22121ab8c68c15f6783da60d93e8663058,2005-01-07
b38c25e33cdf346596c2d9e32b030eb124adf852,2005-01-07
6ca846600896d24b4f9962fd85d579e8df8f8283,2005-01-07
2e3455f4e62419b163a4a05c4c40b0f717366283,2005-01-11
f5d98f1e2c9d99c04bdb2ceb94025acac06be1cb,2005-01-11
6d857af2bf5078df3560a1092405b8f3245abb19,2005-01-13
7517bc70580950fd744751a673d7c9b77ca06d94,2005-01-13
b2b649d12de2918643d1aa910f194df3be345df9,2005-01-14
5fa7f18c21986b77138e292247cbfe4a85bd396a,2005-01-17
897463d1f93d1f6229b60e60d6a97d13df8f610b,2005-01-17
16483f5f41faac0ec8040a0f6f7e09d959e1f289,2005-01-18
28d39b09a766fbb0dd3ca9b65ac06edf89075e8e,2005-01-20
618526facad92e90078a45fe0c75a51c03c752a4,2005-01-21
7e5302e625762b75bad101a081c18db88881d079,2005-01-21
460d33f41866020828871b0f4b58196ab56961fc,2005-01-21
4122b8a95fe61f58e29b2ddcf1c8ee39ccd0a4f6,2005-01-22
7498cc00cba66fb695849e1c0d8cd34db1a15f7a,2005-01-24
3739ec9f837b93a123032ea69438db14c75b2564,2005-01-25
f0d04b5c681dc135066cb65b1973e03672eb5044,2005-01-27
88c3b313e0162f8b1ba60cd3617d9c7d44d04991,2005-01-27
f6af4f69889848f60f5ab381a035964ab3015675,2005-01-28
296f7cecd0347b79f837be45c671e0fa9054f402,2005-01-29
9e260d7fa31b28b41ef6061745860550eefb965b,2005-01-29
bd2954ad1e31358aaa730893036dafab1effd875,2005-01-31
2f6f27f4272a9d4c69cebcb5b23e2f8ceee35a52,2005-02-02
eca527f22bfff2af0e9b57e1c10e6f25424fe653,2005-02-02
f5b5a8b53cad568d5a5ab97ed35c91f698fb1c8e,2005-02-02
90a6d8155086ee0d0a1911584a56eb7b33fb3d0f,2005-02-03
3e94ca9450e57d4f0321527cf3e3d53625a30c62,2005-02-03
13b07b313fdc7ab2620f71517ab16698be496f24,2005-02-04
a799f17a4e2ff063e0d4c05d6a1be064e84d68c8,2005-02-04
bec41871b591248271815886afd1c0a318ee025e,2005-02-08
6c7f485943c930bf2de75288e47c4bf27c63b50a,2005-02-11
4004834c04e0eec8f0f698435b0c5983751fb593,2005-02-11
65802780b638e786a26841d5c3e2cba710d7b716,2005-02-12
6c8bd4c6dd380146bb647d8e5e34ac8b05ee3798,2005-02-16
38e8c824936299cd2b96aeb302c5bf5c9545b31e,2005-02-19
b69245c4223aa35cb2cc78726cc277cae45f0db4,2005-02-22
eb442aa3a45fbd7af68adce9a326a0ff34817fa8,2005-02-22
649af7a77f9c8b06e2d92f2e07423cef7b88e400,2005-02-22
2bf735118217ed87488f9e5519c5122da48c5e43,2005-02-22
8c08f38c4f011cc029b2c45724948479b35c0c42,2005-02-25
323c0a125257b314fa15c480877f729e94196fa2,2005-02-25
cbeaa439d90c72eca250cebb5ceefb80ce499c49,2005-02-26
b0003afe366c593c70d5af9b037ae55dee28df1e,2005-03-01
4c83562c6c9f681cdcd17c86f5e3c68c910dd5f8,2005-03-02
81197f555a134f3d58f7195fa85046db167bd704,2005-03-02
0ba9db2412c5caa33ddc91c7bcb5d4abbb325af6,2005-03-03
88b40e16d0e7976c84460e0d515db0b0398ab4a5,2005-03-03
5061e731c3919a7236bdcdd2ad9965d384313e26,2005-03-03
a62c18b46505e8c47c8fd837b75fd6cc9672b77a,2005-03-07
2a291dca9249d6a4958d9898282fa67343bf59b7,2005-03-10
f1414a37f28a85a5b7fab5e4019b723c5a3546d2,2005-03-10
0773ce82fcf583c403d4c2061f3ebff0900ab96a,2005-03-11
80593698b1c36eaf97a042406b96ed82932f9cd4,2005-03-11
de95ac9a0ec428dbb2fffb4fbb866f29b7a54870,2005-03-11
fa99b4cc4482aeeaf7b19b2372078d5f16998138,2005-03-14
55969a2dae9e11a43efaaf397f99406d5c7abd9b,2005-03-14
4ac9a8932c13b7d5c9e8f15c7856a71d7044f236,2005-03-14
a7900921c30f730f0fda304913f867dee4dcebc5,2005-03-14
8f927b8ff527c174d0efe0ded1a1be49f1bb434c,2005-03-17
89d025a11df25e7edd6820ec47cc4859ea7a7ecc,2005-03-17
aff45f3377e85f974b643b95a2bddef944c61481,2005-03-21
3b2ee536588e043b52f5926cd0d60639dada62aa,2005-03-22
abf8e1ecce416dcab3188dc852413059d836648d,2005-03-23
450c0f1f2f827f00b7b03bedbede099ae0b3dc43,2005-03-23
b47a31a21065882b7b6279ed634fc340448feeef,2005-03-24
41985851e26cc0f1688f1ff06152ba6803bb212f,2005-03-25
3d67036913aeb416479a16d21f2792575f7b7202,2005-03-29
67c71a89e9e02b6e4841f748c79350b7ca190a00,2005-03-29
debc4cf475921fb0cb62cb8a57db93eeb8b17a36,2005-03-30
223b50ebd921934fcc16bf8367a08b1b275d9fb5,2005-04-04
02c264aee45f29a2936f681099661a31ad206500,2005-04-04
2c68e6ab607fa6a70e414eee76d56afe00c29c31,2005-04-07
6bd9a3ed7834da429c8281f1febe3ff5d43ff0d3,2005-04-08
134d95afef9b42cf08f2eccb077b97525ac38034,2005-04-14
db20074a24385567131acd6a6fd226e4ce64ec6b,2005-04-19
e98db2e5116b7e208157f8c8064deb39ae5b583f,2005-04-26
da4edf3f9b8344ebb8c5d2d8ecc2031e848a8b12,2005-05-04
813c2482279195999531f86dce204164523a071b,2005-05-13
b977b55da647e2c09596065ab1e2b6c7dd2820ef,2005-05-13
07680bb2e3534cad36a726dba2f4cb06fd9ec683,2005-05-14
da924b6826a99480fee5bba3a73fb9c28e9dd759,2005-05-14
3d66f4ef91b4caeba139914e097e68800c38d941,2005-05-16
5ee66cf257ad0b06158cfbad75fca23485b781c4,2005-05-17
873ae06dedf1e003f7aa23fefe8dcaa1e765fbd5,2005-05-21
af67c9bf8ffc275f7a9c9c74d94dbbf41b51544d,2005-05-22
fcd9581d6121602489e491a92dea0109a186a274,2005-05-23
e539f6378221559dd8f18f43ceb941801e9a9820,2005-05-23
21955959d2e6fa632638ec278922cdd654c1c35b,2005-05-23
fbb9886634198d8377104bef9ec697fadeb134df,2005-05-23
b746aeaa3768fb8b9fbe7eddd3bdc4eb59bfc13a,2005-05-24
81b65c0eaa7fff0b658e28269907a36c3a83fc6b,2005-05-24
ff9b546d81da21c253e71319dc8a756380bac15c,2005-05-24
6a659a85b774c74ac519a7916aac9451ecd034cb,2005-05-25
3885afdd77f0f1619377c813800780c711983ed8,2005-05-28
2a816a5361ec39c8693a6a4bbac559ffe5948c6e,2005-05-30
f2d32ac66d804c5dfeb14adcfa0ab31ff8f648e8,2005-05-30
f67efecf7b71abb13cde1c89fcb56e4e8b7c5c9e,2005-05-31
bcb846c8052a13d203836f221d8e2d7bf636e2f0,2005-06-13
18281b2030f09bbf0e6c95e3eb16621015f48317,2005-07-08
20c7e9c7a1a4f6c2ecfc41883e9a7f1b8da2f8d0,2005-07-16
93795db6defdb1059c70826f0e7e15773672f36e,2005-07-20
ce9af8263b480d123091720ab334e9c18061f359,2005-08-04
c1a8cd521f77cc542c206e7ab3f4aeb6aae53e87,2005-08-06
a44afbeef74753208e8f526cde2f2024ae177d76,2005-08-13
760ab74bbb02cae61080c4e0735f44103350f049,2005-08-16
7527ef19625d2d77806b9ce8262b49e667bb7101,2005-08-23
71ecbaefb28107447e2d3875786501ba1a71cc4d,2005-09-14
3fd5d9ba323b0d4cf83368085be5c9103d97f7f5,2005-09-15
d8a41c88bee05a818356bf6f4f16f31ccc43940e,2005-09-15
33e3b2533d5782e539cba766f178da3ce2c27d24,2005-09-21
a10f2fd77780d96b37b5eb667c9ec6eab7d332aa,2005-09-21
954f6058d772148440655e920c59b4cdfc651924,2005-09-22
0ffd5612f57b4b785af3455b800fa189718299de,2005-09-28
d93d7b09161b9fed366062f9fc095e46e772a69e,2005-09-28
575148a6633379d3f2c61d0cc838050b68929852,2005-09-28
a7d38cf2639a85056062bdc2c3da1067cb84644a,2005-09-28
f027ced8e7799c021f5678ba73fba07faca9de8f,2005-09-28
4db83aaa5baa9b47810796035a0e9cafeab911d7,2005-09-30
fa84f9f4612033d0b9d171822cc9af6593602f8e,2005-09-30
5a381558aef54280f925781bed3d4c9ba7ced360,2005-10-06
a96627738decba56e1c94e54fa23ecbd7bfdb9a2,2005-10-12
b5fcf10604f56a8061d10f332570342b34cc7a9d,2005-10-19
5e755270ba1e5287dc167a6c5f3d1e9918e37f9c,2005-10-20
a360e39fa70b203d8faf34c0fa43c5709b8f3295,2005-10-25
6f8402d926c54252e54ac79efa3f5480ab7323c3,2005-10-28
86ffd422467bec1d81ff85e58eb75d1e589cc95c,2005-11-15
5e407c51a757b889049faa96156769872c829654,2005-11-15
c4ad42ed39b270e1752007d643aa4499ed437ef2,2005-11-17
54b56c89e0ac748cf76d0246eb1c96f7f010fb0c,2005-11-23
a41ce8eb7fe01263fcf3923005eb95937bed8b75,2005-11-24
998099d11f6b6d5763a11101be8f2a866e068192,2005-11-25
5c23d3d1ca65bf9d163712c9c6de72e6c3201f75,2005-11-25
d99445bb67a0feecbc78238c54ff468fc72d2315,2005-11-29
7ac5356019aca23d3d4deef18ce09bf05dfc0577,2005-11-29
c51cce56b802399a1712e67544a3224da62b7c49,2005-11-29
e7418c42017ce223f33b4c97dfbcb7a72affe205,2005-11-29
36e5ac64fd1e76c49877ce8bb5596589a2c55ddf,2005-11-29
551b204c245d4861589a0be50f453507e3c72e81,2005-12-01
4e7f82aede337093ce7bf8bfe03f930500e22551,2005-12-12
dd6d777fec28c68e88af5345564f70a1f515cc1c,2005-12-22
23465a49091d034634a7887a05730e9885f3b001,2005-12-28
75b9942dbaade0c9122d7bd0f6244b1939a0af34,2005-12-28
1740fe9a0bf8a5a141483f4f538252d535a965b8,2006-02-01
23dac944330ed36cc3b91be50c54961428660f57,2006-02-06
9af46a2ca05b7e2da738a1688ff679445f2c1a6e,2006-02-28
b1c63b2dee167ba4ecc1d135a4175e0b831ebbcd,2006-03-03
dac8f932ac91bd42f6fec9d8e1a324897312ab42,2006-03-15
f5f6982c88e608482d611018d32219f2f528c045,2006-03-25
1e6540e5975e006a0e86313b2c69ab53653ff215,2006-03-26
49727a3da8d30bd6abcb219f140097f4a3b6fe95,2006-04-06
27c1d843ca0b5f75261d97603772e77b36ce0bdd,2006-04-19
bce9fe013a8838393971f990e13f8fc38404a629,2006-04-24
5800b026fac0179cb373c1c85261c04bf2b54e8e,2006-05-25
88f1be2d0462de59e99bf085522756a647195248,2006-05-25
e1653401264d037382e0ce11ba0c254d1b20c197,2006-05-29
cf3682027277543826fd8e92a4cceeb1dab51da2,2006-06-17
ac92e4e6bd1e87f2d689a1588b469dca22316ecd,2006-06-20
a1448bb07d8e4377c5562b9ee25ce040da749ab6,2006-06-22
e7734def8b0961af37c37eb1964a7e9ffdd052ca,2006-07-01
7030e8de61dc33cedbcff46a1438b62fc1da5f9d,2006-07-03
30a41589b40d875b84d124885d566d3614e17079,2006-07-05
0c2d03d031ecacd79ea8d77cd88b8428e84a3c7c,2006-07-08
44ecc125fa2df70025e742ba113dd793c0e27580,2006-07-09
bf042df7ec488399fe7db09e73454320f27b8ef1,2006-07-12
91ee1ced95e8b60187ccaaa4f032015605c26e07,2006-07-13
ea98aac2fa3f7a6b7bae5d66dc179f438cc235ae,2006-07-27
0c7b42e0748a73a5f05bd7c914ca61b277e3f268,2006-08-07
9b30afed0e4cc4849144825ab1d4d3323f73074b,2006-08-19
19397fb959cb8afa2a87b3e68eaf23994384aab4,2006-08-25
21a1b3cfb48abc9e87a97e1bdab451abe49b44eb,2006-08-25
0f55b6b9d6a98accff8e0352474df465207806f7,2006-09-05
52831c9ad417f328fa61cd206fb32701123333bc,2006-09-05
74434ce5d074e3da0dd29528e6ea7c62be9e20e8,2006-09-11
05b68e21f02fc96afdac64432894f46ab153078d,2006-09-14
3eb44a175f07e3b8ec63c95b6f54bbfd99c9b534,2006-09-16
427c2d293d2ae1e6fd446967a5936e948dfb647b,2006-09-20
b912cb97f49f54d02ab97e8d98cfe10c9abc80b3,2006-09-21
359ac4f9675dc4c2bb7add039015fc00f403e9d8,2006-09-21
55e706dbe4f18d6bbf25680669e1a5ca340a418b,2006-09-22
76cfa5be6880fe04efad01f9b9acbeb2e41825cd,2006-09-23
6c9e00f717f85949fa52914e1203785bb7c22182,2006-09-23
7ac1fe3852970ba3b866db1f75660fb6afa1f077,2006-09-23
6e2df44c948e89915d089a6bd1504a2f4de73532,2006-09-28
da045acc91c10bf9a3e0ef58d1343ae7704e5d3a,2006-09-28
8ed820fa8605aab75f5b65bccfbc0229cdde5ff1,2006-10-05
7b8f2409f896ed9c2fafa21d9774747b6914466b,2006-10-07
44f1058c6d58bd5376c2b4c06ffe08bf96564937,2006-10-27
2201b1634b24e1ab769a1654f46c30eeb71fe990,2006-10-29
0aa2b2528ff92c3786e50f82ea65acf4d134c260,2006-11-01
f58d3967f08c8cc033ce0af114bb1ed87ca08664,2006-11-02
2c3c58bb7f2cb9428f399cbad9b7c8dd0698dd09,2006-11-10
b1885e4435e6c00b780f8182b2d03f7978f87940,2006-11-15
13bdae7c19c9af4d586622a10c4edf8a31fe8580,2006-11-16
dd33f4dce7a3b7bd91cb5fdff8dd26d5feefccee,2006-11-16
e661544ab07aa797e2d3e99c9834f7c6fa15eba8,2006-11-17
0a5cf98f65e6ff720094f43785a702a9a4fc57c4,2006-11-18
3095d02ef04fd87f7718d969f4c35e204f7111e4,2006-11-21
c3232ae202e7c7d75d99cf50289148949db1ba4d,2006-11-22
c0b535098106a3b4549151960da251a6e78e627e,2006-11-24
50db66a8563c04f0db94276fa5e3bf360de14844,2006-12-06
cfe5fa582b0777881ab9de4a103f1490e1451ce0,2006-12-07
e391ff8c8045964370216e08c206e8431c273848,2006-12-07
a8b485c525cebdfc2338660fb321ff3a833d93af,2006-12-11
b471ac5e8ccc7bef2a5249dc325ad577740307f7,2006-12-13
e24825b3b81014e025f1181702cff049a41adc65,2006-12-28
3ed946bae41d5528a2b4762c20efb8dc74b71519,2006-12-28
cdadcda40f178fa306bcb336bacaff34f3a0d026,2006-12-28
94e18bdaaa70e6e4f333cae68ee7721e062b9807,2006-12-29
7f8f17e8b86c79fc802e13cd8bc9947eddd3a090,2006-12-31
b120eead1b06b7d47b9ba63e4083b6fc387ba9a6,2007-01-02
5fc15284f36e2c714f1904f57ed9788cef3683c2,2007-01-02
d44807f593435cc95f2db2ddef3553166dc61226,2007-01-10
e52b987d30e5eccda2fb1d223ffb8e9b6edb4a90,2007-01-11
b07c2855a840138380f07be547c8328a54544498,2007-01-28
fdae4b3eaec0822c0ab1138b9ef8c4de28b2b0b8,2007-02-18
1a0a6dc389592d5085cd734850059c8f01a59f4f,2007-03-02
16bab4de70072d2c7fbcc17609068ed036e17ecf,2007-03-02
19ae8da0e8d9de00c518c94d6c0d3e8c9aec5cc7,2007-03-16
a664a9752084fffbce7fb1c5135620671908d43b,2007-04-08
ee2779b5b94b830a888590c16076952941290922,2007-04-23
051ba1279d96c822e7708a348a4d7bc0393b89f9,2007-04-23
bcf84f5f14a9f80df80ca5836fc5b08d8be7c295,2007-04-27
c089057ee8af3dedf824123633017028d368f205,2007-04-27
b6f25e8e14321652f21d5506580380e2a3fe4c43,2007-04-27
d618e1f811b3b248d492609633657d787f9c03c8,2007-05-09
512567d2f68e90c8c9e36441c6a0bee8f64997ef,2007-05-09
b941f2ef443cbbaec2b995b3c34958067c4979c3,2007-05-09
bc0012c1a3b49f75baf100584cc92869a9325432,2007-05-14
b5e606fe0ec7e62fc26854a77e29de35829df027,2007-05-18
ad9edf5f5ea4a8f2a974726eeb8e656c177357df,2007-05-30
3a896be7fdf1beb063702928ae89b4f7cbe106c2,2007-06-22
6872650389c074d2a941d8192dfa348a216b4848,2007-06-25
63fb4d459b454236caef0e037333b8ee4cabb91c,2007-06-28
7627a966ee4283bebb43ff4f0b6eeb84236a6019,2007-07-01
1e599c6651b3baafbf807462fe32a975b416f1d1,2007-07-08
5c4a83c51cfaed79f3400aa90329321e44003b4f,2007-07-11
3be2b26d815b4e8b26dedbb5be5223bbb6e9604a,2007-07-17
c6753edecbdf78d519c1265040a581c6417d6210,2007-07-18
910c937723c4710cb1309c939dbcd4b8c3e8b6ce,2007-07-18
bdfee6de49421e9d026d6f0f1b48db07ec31621d,2007-07-18
b1eddca62b78029e0e4aaf63930a83caa11681cb,2007-07-25
9d2aa2ba1d3c21b509be909d7db2ba0d79ea5a6d,2007-07-26
31deeb980977afb1cfe3234eb17a1360aab49d5e,2007-08-11
30ed25c7c7f8a0de0cf10d2129c314eddb43c562,2007-08-16
1266e53bd199e68ea11ce1bcf38b58d8fc1ea0a1,2007-08-16
3ef74849efee36e856e6a1a37199a13ee15499a6,2007-08-17
8b0f5b8c9ba88b3b80dba55661f1417ab6cacf04,2007-08-20
8f4a67608a919e16059f3a74cf08a940d4a2f085,2007-08-20
eefee2f267c1f2fe0c2a1f2aa1c0af625ca3daed,2007-08-20
3426002af9a852d277a4d188d89d84cb73112ea0,2007-09-07
ffeb30bccea8adf4b543ae90b214734bdcb95ced,2007-09-10
f02f90064bbd969d79995103290b722750fe67ba,2007-09-11
3cd3ea567181792ecac6cecd97af48564b9ffc42,2007-09-18
79c6e8371ad80a538873156af0381ec82a0d6dfc,2007-09-20
97a4611dc868e0ab10e9189a7a02ff6379a7ca42,2007-09-23
902b72ec83e985a35e2e9fc26e41e2319cc7ea1e,2007-09-24
138108b44b0a96807a4d9335a220e528d040df33,2007-09-27
98c94f2ed3cb2c8a28812d56f60afdeb69574c72,2007-10-03
cde826c2b0d226773ff00407365ac581b3e7c9e0,2007-10-03
48c3492303350febdfc637a4c4a2e681f15f1867,2007-10-03
cafa34ca0878175f8c8ab1bf7fcfaba70c2b1368,2007-10-04
19b4f6ae8909922bc99b9309bdc7f0617abc23f3,2007-10-16
4369f6482672e451edd830277d0f64fcc9c7d10b,2007-10-24
4afd11bb119c92ef5536603607b7c9a0061ec42c,2007-10-29
a4bf9960619bf043094a34944f34e2f7e928994b,2007-10-29
7be8dec567fd71e5c1d7959728abdc3a82fc2d86,2007-11-02
23bbf085727756cfbad92aaa345e10c7370d3486,2007-11-21
94dd480d07ac2028fc94d46a253abcd2ddb189a8,2008-01-04
437d53cbd2bf3d9dbaea55981914f59b772a71cf,2008-01-15
86b59ef90ab835a88e013bda195c6c2039e2715d,2008-02-19
6e72d89be84e4a3b021e1d59f14a97d2f4959adc,2008-02-26
00829ad00c50d5d4cff7c5f9b52bedc00225dfb4,2008-06-17
538af2f04d343f3e90893c666d47e1b7446a134d,2008-06-17
983f0dbc16a4c8b93fae21bfc480b03138104a7a,2008-06-24
446f9ff3333e65b5e06d0fdcf20f30bb1a1053b9,2008-06-30
72e471f0b44df72d79e8481ae11768c141089569,2008-07-11
1a850087363ee5a30d9c98007e1f253c4b134f13,2008-07-11
f110a5fb7a1553b1a15ab5c2da02235e48101426,2008-07-11
37820a501815a54bd1bb393d1cd1ea0bf2f6c273,2008-07-16
b16652b4516ee8e3e5e8d4c52577c2164ee78f1d,2008-07-16
549fc1f687f02ada2b7d6f12bfe8678eedffefb3,2008-07-17
1c7138c4dfbc65b68862f53d156cfaaed4415788,2008-08-19
1f06891d003a6f39cd3b456c797bb8ed5a1708ac,2008-08-21
c4ab43e8d76504c1398d062007d9d4d40511aaae,2008-08-25
b456160d70409bf1b5b6a2cfd211a4d012378f00,2008-08-25
b550611aa78ea488574589cac566f133bb328928,2008-08-26
94da71c7641a9cdccc8e4b5f0bd814fb75a70b7c,2008-08-27
246480ed2d0979def56e56b513ad89e5fb4a0004,2008-09-01
1331049054d53ef94674a4966e7000bbf8baf6be,2008-09-04
c13dba6d524fe74b1518e3442429ba6e97592edd,2008-09-15
2c4faa154f069f3f69d6c3c95629409a7b8b0cc4,2008-09-17
be9a9286654ae67726b1c9c8512f0ae41c63dc6c,2008-09-17
5d1320e99cabb7dad880799accea519ce575d492,2008-09-17
2b925503d71972d8b782eedd6cdf75711377d7b0,2008-09-17
8b58203e3120ecbeb7c53ce127fb41316f7eea92,2008-09-17
0a679803f04b2e3e9d63c5f6b46677b0cf713d6b,2008-09-26
9f30d0550989766a9ad2032363a5dfdb49ee6932,2008-10-07
6b265b5612c67b97d9da2c449f706b5f4c6579b0,2008-10-09
5f81fd801113c7f3bb4b734d0be4337ef482c0fd,2008-10-10
a1853e2770a23f6ec76fd0c3ed2c0ea428ae40c6,2008-10-16
70f35e75416468e31f537f33b248caaae29ee587,2008-10-17
8aaa005834f2ab61dd187115ca3c922517f2b850,2008-10-21
8f488f0872a795638f9ebbc51517f85d801c1b67,2008-10-23
18681d7fc981b944ed3768a168ddd44898692175,2008-10-29
ee0fc90c1af3f49fbfc357258ccf63aafd230b10,2008-11-03
afb49574cfcbe00f84a117d7a59d8518bc369d62,2008-11-03
d754a20c3fb29379494a2411bbd69ed876fb9e7a,2008-11-06
3ae69e82c33e0e03941387a3506561accc2697d3,2008-11-11
1e962d0d6d74a53709e9cff40a0c6422d27ec3bf,2008-11-11
32c6ef39e4527cdcaeb6a702be90203ca8ced940,2008-11-11
6b2378c2e6dfde13698cbe45bf633854c817bbd6,2008-11-12
ebac9845309a1af1c1814faa758cdd310f9f3bd9,2008-11-13
edb0dd9582a26bb899aa970735f93049c61d7ce7,2008-11-17
99deca2a7689ef13a6dfa6ad2c30db68e6f3d3e9,2008-11-18
2077f6716fa502957d606dc27630d3a618362620,2008-11-19
a92061f3cbf0d7fceefa95cbd9946032b8fcdd2b,2008-11-26
020546329950689f337c188a4a80e7a40e8b6fb9,2008-11-28
aa373b9f5e7548bf96a51588c9e67b8de6c05404,2008-11-29
e19934b1604f6e5803cdf5467a15cd31a6615c3b,2008-12-04
6b2e7156fce5c379bb51f9aad53a90bad9e719ce,2008-12-05
fd3ea490305970d8594f45a45f617ebe011ca885,2008-12-05
727dc821bd6ee4bf266b270f17e218fdd816a337,2008-12-08
f4bdfee52e9db4abbc479a628e7b836b8bdfec8b,2008-12-09
dd72ac08fff2f2eb7fb7b8fed237f718036c7434,2008-12-19
10f8a113acf483132b5e6379298ed1b627a984c2,2008-12-19
499deaa3777abe9b4095fe47a20d9ce5d5991b18,2009-01-29
8c3c62ba7c84790a1de9509012aac980e41de3ef,2009-02-02
3ade0b6e769ba60594a31515f5ba7e3e0054810a,2009-02-06
7d2c3a1c0f43f4dfebbd85eb395646eb8e46a48d,2009-02-06
8d0bd81aaef83b8e46eb962d9e8ef0b5953fad4b,2009-02-18
3cb22aa1c607dcc42ccdf3249be2c26e3585c6f5,2009-02-19
8a183a492de7fee445cada4a051a3d41a85bbdb4,2009-02-26
752d64fa43db2172327771ba4d36bee3f2d3b49a,2009-03-02
6cd0de1022faed419783119405f458e44a1ac663,2009-03-03
272ec48fce817f88b217db240d51bb6c01ce9b91,2009-03-05
54166cfaf09c222a4fc9bb2abd7719c6d452921e,2009-03-17
9922008d657c72235c402343fd88847b044014ad,2009-03-27
0ce2545f6c212bf88eedcfcbc3ab22c908a73a26,2009-06-29
d4071f9eb63cf6114580ec13036f8f0bf39c6e32,2009-07-10
ddf5cd73c9f609b1fc5da325e186b68e6093e717,2009-07-13
4de20278c248e733a82b2d4de9ba9d458ea6496f,2009-07-13
c341e8606d84afbac9fbe08b9814bbb0bf826e3b,2009-07-15
a6e42833f664835fa3f5352d379e3ec520d54eab,2009-07-15
5c440d24815308e7d65366c36742f71c026cd812,2009-07-15
a4c986354481641bc4b9811854fefaf2fec7f86a,2009-07-15
d18b6658866bb1c1bc1e73ff2e315ebaff583928,2009-07-15
c5a945fe3c7f09577a7b3ad96953f2a09a8da824,2009-07-21
8ebe808f72152ef41370bcfd89c7cd0c369db2f0,2009-07-22
e04ff4d52c085936aae51afe2bc9a4db7ab18dde,2009-07-22
a1003b0b8e5e18840b648d7da746efe92b093f74,2009-07-24
37d7a6b6798a55e87f08273bb3b451939bb0dcb1,2009-07-31
aec61d53b73d86c4db6e9a31206f8b9bbd49ad56,2009-08-05
0d2218167bbf0eeb812301c657643de0e8c9c317,2009-08-09
ba8cedaafaa09d6ae126f273fcb6a615c562cf4b,2009-08-12
77024a43a293e7911609d3c3192e773f082688ce,2009-08-20
8741512d8c2e4cad30f0c6e6134d9a793f00d4b7,2009-08-25
541157c5de95bf1cb2ff9f47b8aadac0b3ee98e1,2009-08-25
d72413184949c04015b452cf9cdf36bf2107061f,2009-08-27
6c014111ca3af7a3ddad82c0b754883db98f0e6b,2009-08-31
63eeac0b800f6797dd406a1ef109b2eacf804e1a,2009-09-03
26a42bd2034a7ecb1e5bd0f0dfbd179a2185502a,2009-09-03
e11335f5be704c98ab9c83f5e1337e2a5e579704,2009-09-04
e931e7bad1b82f459c34b7de1ba191d269322d3b,2009-09-04
759f97729aa8876433fc8df2cf1d9d0084e62b66,2009-09-08
32f323668f263fad0bc38a43c6d4e6a1f4579c8a,2009-09-22
a920aa9f305e0f998c908798c99b6d108f5d4a58,2009-09-23
df121a6cf559a17a573a5795d7c7daa0cd37be37,2009-09-27
d6b9d9ccd3f9966f41414c4af4534eaeb7b35c65,2009-09-28
c6b7ba94ce4c307dcb423f749bdf475b682ec205,2009-10-02
df102bb3a3c66a6497d780fed807527a865cf864,2009-10-05
1d56ecb5abc6bae0cb30e03ac02648b08922362d,2009-10-05
73c0030ac60560e2e1fb64d94396c5e630028141,2009-10-05
48468d8995cff885dafe714609918d4adf8c6632,2009-10-06
163f90f6bcad4bf68de340e19e17b8469db905da,2009-10-08
89ddfa3d6c328407d120b33bad3705b3f54f4d7e,2009-10-26
211d0a8ea6b0e7f4c28b83abab1961b40bba90e7,2009-10-27
2ef9a200ad3991e75ca0bd5d909b751ce7a704c7,2009-11-05
a5da600a7a23e415a3028787e9b06fbc0dd27f74,2009-11-11
42f31b452be82bd026330f0e3ea44878f8c79e5f,2009-11-15
37cf105bb344793a164900b1a09d678679e13946,2009-11-18
6cb11c4a231c055d9ed5f710f842ee190282c65c,2009-12-15
510f6b08f62143dee0fa468e9c659ccec0562589,2010-01-04
73a3dfbc278b80db74072d0ff48efeeab5739fdd,2010-01-11
74f04b527f206f00581cd8c5727cc5ff0b0476a6,2010-02-01
77cba689ceb7e72931ba405bfab50150a21e3271,2010-02-14
f665a4d33564ecc12851996978a9847024643829,2010-02-16
58f0bb04db9c5c8a858d7a3be7719608f25f2f49,2010-02-17
69eba07e72da7b69d2ef95717c1e91d7b9b75b00,2010-02-19
d3e00e275a0cb053f2a7020c1c45f94804fc9065,2010-02-19
9caa9ff4403ffbe97b9eae43d7cd79003319535b,2010-02-24
2bcbbabc08c4473a33730fd06cc67870f01e17fe,2010-02-25
0a8c19b47ea82e23dda0ae4b34a2a48877273b18,2010-02-25
b33d33d754378862953b0243500d94eaaf983923,2010-03-04
3078886d89c8e27e4e4ec7bcc8263cd070bfcf05,2010-03-26
9969e4d608937721c2c14287ac42e665c964a91d,2010-04-13
2c468c212113f3d3f8807f41f2fe72d9b3727748,2010-04-22
35e9c976aca460e541e62bd67f88fa8482014f1e,2010-05-10
a26365ccc4e3a521e358872418da9056e9fa7915,2010-05-11
3fb4745e703a0b932afef791b26fd637da75be41,2010-05-17
c78b5d0baa7d9d1f00e81af7cf53a40044e5a799,2010-05-23
f7d47f6b71d196023c293c7afb75aef91ebdc878,2010-05-24
114d55869f46b382375b6b32ddc17bb2e5fc598c,2010-06-11
cf0368cc6dc75cf7b91519a34e542f0ddc74787e,2010-06-28
9b19344ae6777673cc093b5882e02fd43fba99f0,2010-06-29
f67b8649e8b40f489ea4091276cfffb010beae99,2010-06-29
fdc711e2e2805a41b766e9d1e07d83512d97f658,2010-07-29
0b52075bb1a4f7ddc2a22342ff76faf61250fcd9,2010-08-05
401473f8de76542db1ada7cfe12a5f7c1cc326d9,2010-08-17
1b30eea4620f697369cb2948254e5ad7fac5fe99,2010-08-18
52504ea28080af9de93e757d2adf8a5603785ed8,2010-10-25
ee4aa01089da8a3c4c0b933df2b99ed6b73b4c74,2010-10-29
40e298139fafbe0b8a5694c0175d6e43b254acf8,2010-11-22
ff41336fc19f549bc995898f4543da6d7e9d9bf9,2010-11-26
c737f55aabcfd3a00288ca6b33de392fe074e978,2011-01-20
5f20b99140fb4ec958a6d540b9df7b3c08312b40,2011-02-03
4427f8c1ed17b388ce759a0249c44464c7b9a971,2011-02-28
9fb3d4fa86037a7c9a413317c011fc1652743262,2011-03-29
14ea08b49e98e020cde9265cc199b40a42990337,2011-04-08
ececc5c3e332b97f962b94a475408606433ee0e6,2011-09-29
394f665213e33f7e47dbf637f63979842c80a69a,2011-11-17
c04d3e26a9afaea3f3c8474e0f6414cb6bc5f535,2011-11-17
291e7b02172f3947d095b0b04e734ec9c5f11ff9,2011-12-06
df7e0ca089cfb7acae1c006307eb3842e5637cf6,2012-01-28
0ceef36b9097f2061ce321b85b654eba2bd82e52,2012-01-29
6d9e7cb56e1c3e3ffeedabf92486c9ff25054c9c,2012-01-29
c28ec7da7aefa85051bcb81e0eea06c74e17342a,2012-02-27
ea33301047ba2de74fa062155df4d6337e5d1392,2012-04-16
08284bc7aa7d066544b30974231240c9b73597eb,2012-05-21
1d63aeddfa4d52f665ca097f5842dc6fd0f291cd,2012-05-28
dee95e3acc5154aee03ff5f91f9a56426ae79f3f,2012-06-04
abec7e48efa22a34d81b78adbfbf44627de85ccd,2012-06-15
b43f4224d8fe9d1e7d628e88df394a7dfed46d1b,2012-06-15
2e5b53fa106b848646493cb6f6ea74616973aca0,2012-06-16
e5f3393251f3b7b8b8df1e5300559828bc73d8f0,2012-07-31
9585ec663a4244b8b75bdfe173c115189cbd08c4,2012-07-31
d377aa50f3aef9a5dbb9974d1e5818489ab2db99,2012-08-15
944210b384ccb4e335ce5a5c3ded7f784fd3e581,2012-08-15
3d706ab8188a674936880b6f4530b0cf3991758b,2012-08-20
da5f3bfd256e383926c6ece58dba15a7d4bd5761,2012-08-21
9caeed5081071d6a2de28844d0a724918f8c6d86,2012-08-22
73d3298e62a626fe485cdff4909502598f44f765,2012-12-27
98f306fa8431c78926e42cec5801c752747e016e,2013-01-05
0282d8fe2ef1441598d9a1032e7708bf0b7b8ca5,2013-01-07
06dc6c0eea11b763df082d9e0e929fd250b13ca1,2013-03-03
4e101e3c49a970d5818e750d03580421bb99ae28,2013-03-06
6af38183767fe6db8bcada1ad9d50a5f571c82f7,2013-04-23
1a22123f5c7a236164cadc975673d2b3bcc4033f,2013-06-03
18e098d81f228e4e36bbbbf98ed41203556a422c,2013-08-09
cb20f508808afb48e73cab035f8de3661f294caf,2013-12-15
6a6bf3879820971393828fcb751be6723d4ad4d2,2013-12-31
169becaf5138b6db5f5ec8d9822b110199dc9d6b,2014-01-01
6ea9dc1024fa547e046417d86c602bed21d64a43,2014-01-01
e46fd219c35e1230ed996ade7466b9bc10cea069,2014-01-05
313479bb3569061c2598d90274930c4957d36364,2014-01-06
0e01584f3e42f2e116d8601b3d5198d5ac80c35b,2014-01-11
5fc48a4bf92cd63ce993a0bef6738a5ac9d17f96,2014-02-28
671dff9a1cfe74859b9ec4356974b22840953989,2014-03-14
0faf6e94d6bd5911035e07913286d1ff0c75524b,2014-03-14
9d3c394c5d1c57194e8e49cd62837855411cb98f,2014-03-23
6e88f92ead6a5f67935055661a9e8041f5ed8bae,2014-06-24
f13816683ddabdf2378167245d20a334053a3ca2,2014-07-03
ba170891db5e5a75d02391a73085dee6e7a6074d,2014-07-12
43844a7e6b54e2dd27216b30f6d7b44bb601d29c,2014-07-20
c89d650a9c8fdac5fd5cc71a5fd6dbfd48cc893b,2014-08-22
2c04d7e833b4e5dab1a3c5ddfe14b572aea8c112,2015-01-20
dc37a17ff84af8e9c7fec2aa93d7b2b989fb304c,2015-02-04
da83de9208e2efceaf836a155abb5c2446f2dd46,2015-02-20
71715055cd0a9a993d91159d0aa49e5eee13d935,2015-03-28
1a584200e27de7867d7f613ff9c910dc0cc9730a,2015-04-21
ef6cad6a16581080ea8ea0e191dab031cd46bfa2,2015-05-09
43e11902e90740f6f5fcce825c3e99372b8c91fd,2015-11-06
588ce1fbe3c07994b03283ddeb82662bb23a2785,2016-03-06
83eaf4804522c3aaac033f224ec2c5b9f6a25e30,2016-03-11
b2558bc972d8edaf6fc59bda833669b19d5233d4,2016-03-21
4af291c5805c26fcfbecd527862bb27727bcc0d6,2016-03-28
17527b6490851a728623c1dcbf5078cc63a982dd,2016-03-29
3c930b93232641709b6d829167a3ddaaf8a2bed5,2016-04-09
c03b8a506f20e65892ed6892fb43de1aeec02f69,2016-05-16
5669303f290a5381a93841267cdab1858c0dd76a,2016-05-27
31cc48c6f70b8c24f79aa5f17f80c32f8480e2f9,2016-07-13
5c85c44601c38541572b756406edbc8d08d11fe0,2016-07-13
0319f8134564bb4a4912608e046728fd72a9fcf4,2016-07-24
4ef2554a53506a186bc11b5b505ec64cf902595f,2016-07-24
625d3d371fc6454232e69cb6d0c68373341feb71,2016-07-25
1d7b624155b06f665c8b99014227bc1f87f9ec54,2016-09-04
c1bbf2fc0ca870384cdec8f437fb1fb9a4699db9,2016-10-08
032e888aace67eb95884b2ae40230f2656c4e0d0,2016-12-20
6c8b3542fdfd2a43e9ca9de9191b5df8bd846160,2016-12-21
8e56f57ab5a1250379ba486048c52ef2e29c882d,2016-12-21
4bd9b4a6e473a9188124989315f75b778ad2a363,2017-01-13
49896d33693b9fb3b766757c566fc862a6f0c0cf,2017-01-17
198d7a2f449b91d7c559e17e2bc472269a8645ac,2017-01-31
53474759846a9ade58ddbd6f24b1649f16e3233f,2017-04-11
b7d1e9bde44cb8e5233d6e70bb96e14cbb2f3e2d,2017-04-13
7c6c749c952153170e82b791d97086e99fe2a3cb,2017-05-08
b9125733c49256ea7349bba968d9eabd468a9223,2017-07-22
013e9159e927cf96493a5f8577cfd2807cb045c8,2017-10-11
bd0759d943a7717e43d1d774afc4c3e1cb2bc04c,2017-11-29
67f29ce0c2ad332570c0a1382c79532cee66dce8,2017-12-10
6656db28bb79912ec1c744f34affbda53f86e6fd,2017-12-10
5eef12a964e1813763c4a0ab6a056edcfa768814,2017-12-12
7f1e7628b357082fb1f786d1f58156a336db45e3,2017-12-12
17f06a9f0f728f8346500bbea9f7fea33c3334fb,2017-12-12
0fd2a86369aab41db316b1064a559bae08afae0f,2017-12-13
6c860e0036a8742f4cc35e3e6a8e595e42804c89,2017-12-16
1fbf712537a179f9e1b3aa172e83cfef9a2eefe9,2018-02-14
fb75550cdc6378f32e0b7aa7f6aa0a452b6fd6ca,2018-02-28
360acf53d0b88d9e51200e3c2374fc397854876e,2018-03-20
1c80d507f496dde98869890e671edf635bef8dec,2018-04-01
9a8a441655a09e6c074f4ec2cfb9c9a4a291809e,2018-04-01
28e51503e3b08c5feeb7a6af7528283a517835a0,2018-04-02
3af9a7305af2df433f09001cea337e3ff8fb4f5c,2018-04-03
dccbf1fcec0fc4e0812e8906494b15a1301ac32a,2018-04-05
02adb467e426de1a62a76105c36ecd645b1024bd,2018-04-05
66d7986c3ad41040528a118052c4ef5b2e65ef89,2018-04-05
30f52135af7a18cbf3f140089e90bdb39ceee134,2018-04-06
4b14d85f11b9a7728dcd2d9420551fd28bf8f45e,2018-04-06
cda6c91cf800ba7be7fb479ce8e3264c7ca7c232,2018-04-06
96ed9bdfd06c41860ccee7e860f865b44b8afc13,2018-04-12
061d29b6fe242c365705a76b28112392de9cad80,2018-04-12
c851c3102fb9e76975f906b9484d794be26c9df2,2018-04-17
5f4c43ddc3d0b67f3c4bf6f66cfc95227537c6b9,2018-04-20
03bb68d6baa2323424aaaae932c6278d1c246de3,2018-04-27
333f5baaa1987d0c89ce7d3666105e4d5bd73e77,2018-05-13
070c3bc86f85e8f01cb624fe50ae82f0d11171b2,2018-05-16
11422630936848e82c7b13ab3fa68a3003e10195,2018-05-17
c069b5007f243464c90461c5b478d192f5dff945,2018-05-18
cd1ce377dc769671b46ca6e68adb604b0453b4a3,2018-05-23
8c38eb4c618fdf496d577962a1fe2f3c91516b9a,2018-05-26
4c03d7113ce8b00272640d20f3422c9667db71ec,2018-05-26
c9ca84fd5301aee6d0f58ef0a0907c94ea0cf38b,2018-07-25
ed567daf3218575642d0a19b88ab2400f39ac579,2018-08-12
3f806148c3f3542b8526d5f91f10d6189bf0607d,2018-08-13
460303f6dd173a6dfaa73c1876d1c2a8976df4b8,2018-08-21
8590e1539af7e5057d02941911c44d887ba3caca,2018-08-27
0cb9d22b77dda1dcabba91d4c2a1616d0042d16c,2018-08-29
54b6df2f44c5cb4f9573f99330c2d2908f1bf506,2018-09-08
790e27474ff11b42f1d3f355fa8b0d34be10e321,2018-09-11
2977bb596c7f8f0b3f81258d04d1c1ef0b3848b7,2018-11-04
1e30b48a0ef0977f0daa492ee7d811c40d589e6e,2018-11-17
2c2cdb090ebdecbed8f737af3045f1edfbe3ad2a,2018-11-19
57895fd06465933703cdb955b5afe954095710bd,2018-11-19
b510f3588d2097beb322e946a944a82c570d2782,2018-12-07
