CommitId,Date
249a8666c8ca2647c7099ba525b1b7694053bcdd,2012-06-26
733a7f6431616202b248adc6cf9d619bd4750162,2012-06-27
5ad73c0dbd5cee6da9b93688ae815be126d18f89,2012-06-28
2a5de416ac26b37cde2d07c66873931495db6da8,2012-06-28
34e2a25c3a6eed0b261c8be4b00610c6df782bc3,2012-07-02
4890139ad39ae959dc5b0bb9e638fc66ef702513,2012-07-02
d2d80a5efc56a551d6bccb22ed56d1b31d2c7945,2012-07-09
63a7e1ce3f7d202d907b4227ab51e98549d91d76,2012-07-10
52a260e81054eec5bfd47f419537cbadc2045612,2012-07-10
31ad32fd607773ac3c0d0f7fdde26591a459506e,2012-07-12
bffc92136a197f0fae9feeb8db5992da6574ecfc,2012-07-13
c3b97b664828a8b63e44c7e7bc93d866eed449df,2012-07-13
f554e50fb1fe07e7d89e1386ac45b751e0ff2118,2012-07-13
b5d5fc196c9f6147fa34b0cc7f5d10ae796230e1,2012-07-18
bcc571d751514f5e1fe7489691c6403f2e3577f8,2012-08-07
979df3169bc3c3011d44fe43f7c05f7b57e67c69,2012-08-07
4136fd157588b3ea64f054e82d10e4c09419deb4,2012-08-07
7b0c34fe4def38191eef738ab391b7a5810bc18a,2012-08-08
be6bc21649f663cbe63afc2b4b8bef7a2a8f0999,2012-08-09
a2cd8dd5cb3e0c8e2656f57038ff75f305d4632c,2012-08-09
97db4a6e9302d8bc3a97de628a7d8f6e5135c76c,2012-08-09
15df5e3584531d8bdb6c9816141b36724237825b,2012-08-13
69c9daf5931d27902dd2282d0e606a83bc993ead,2012-08-28
a11e1cca39c8b51dc5a744863ea2e2424b7a7c27,2012-09-09
27ce14810048cf1d9f7e15ad8641aab0a3545457,2012-09-18
0656b1a9d346099d3138da9d50b20c4efa1486e8,2012-09-18
07ba1c91ab7a8cb2f7bdb6b9914b37824ed2cd12,2012-10-02
ec170194cd8dda6c918ff5f563ce474b4c40fc74,2012-10-03
18cdf2083323a2102d6b4ad9e07156f789fd0517,2012-10-09
4e33f8473241352b5fe791da847e0c87f1452e93,2012-10-10
fafc8984e5975718e48fac0e5028b32e67399035,2012-10-10
e27a178bfa1db99ca18852d9dba9361c8aaaa3ee,2012-10-11
efdf172843089f71c350a9b7037cfe8fbd0de09e,2012-10-16
f0de3941d22fa017c377f05822f225005d9dd7fc,2012-10-17
0fde256916eb3df88155cd0ae2168c7f05956f90,2012-10-22
0c423be49209bdcf750faae2b9f5956a1d58ffd4,2012-10-22
5ded880f5b500a71f32c16122b937d6c7a3b420f,2012-10-24
acd98c5bda9c1df6eec3d3faf5797210bf347d06,2012-10-31
1055f45196b44b4d5c99381ee2ee28c67648a1b2,2012-11-07
7bfda9c60f948b250d4dc4094a6cbb0b42369a85,2012-11-07
d064af4646c4d4ce94b26c26eb06fe0f0d8be1e6,2012-11-08
f814cde122b989f32d096e7d2abbc26f907a2799,2012-11-17
a9b9eb0432ac4da4d009251df9f33d94eadf356f,2012-11-25
aa2ae012ac14c62cf79a768cbd5bbb89867dd302,2013-01-03
40fcf75133f68fd25dfda355b0276cb2a6065fbc,2013-01-18
060d31db04253282497417395d5d548ec2113a0d,2013-02-16
49e99b558887c4232aed28a1b8a294974827f90f,2013-02-18
c19d3828c122373b1bee62a7feb140e22f5f8e4c,2013-02-27
dddb939aa5165888c18e12e09976ef5dd2a4d354,2013-03-19
c5949f345b5abf965c85ff1db08be8874273d813,2013-03-25
6ae3bbbf9c1a919d8f03b6ef8bc7f17fc483742f,2013-04-17
96f9f799a2ab93d9786e45159b2505dfa10b866f,2013-04-23
cee648fb591371d108e4c01acd0d6f37d44db813,2013-05-01
5418dc3731eeda8bc2ca4eeba576ae9d0a7a199d,2013-05-01
b96585a372eb17ab2c1fd7f855352d99e99801b3,2013-05-07
45fff791d2b667ff8c84722bf924b692cb662e17,2013-05-30
768c73161c2a622c774742f95f7585f4964fcdf9,2013-06-05
d4155a1d044dbc995c914bb20e99f50405add73d,2013-06-05
bb488da7c9daaa42a92b019c45a7ea20a984b391,2013-06-12
7b56b7ede287de89672facd74773da588c95affb,2013-06-12
1e04216536c22ed526283b3a6b01f26476f7f644,2013-06-14
dbfa84f0edc51d82bc3c871ca956037f43714bb7,2013-06-14
66e14ceb93916a40428a8a216f5d26aa3d30a208,2013-06-14
ec9c6be9b26391a09a8135b65e553b6d6d2f541e,2013-06-15
0403d77e2fdd24e16db859e34312c554e5cbbf21,2013-07-03
7b40f781e05764c8d9770b8a48996a03bc5ef160,2013-07-24
7d0bb658cadce2608239ab0cc19ab22efd2fa9ae,2013-07-24
d843cb92cf9fd312517da673fbc6ead2ac34774a,2013-08-12
728a41cb20df8ebb513a4d0549be6620ea5389a1,2013-08-12
977a0434542c4f0ac75791c3a749ffe57864f24f,2013-08-12
b7bc1881035b16decbb9d1f8c165a8c5eb107938,2013-08-12
6ef9be3ecd0874262a580827f4523d5140dd504b,2013-09-11
4f8681686bd506c9dcc579b048cffe50a212fd8e,2013-09-11
b59d8647be4b6c26ff7f7581592a44860cb2df65,2013-10-15
b0a2094e018aef06963120adae55a00e4ac47af3,2013-10-17
f1f40dbfc1475348711b634e34b930d97b1f9c72,2013-10-17
b533d152372e37a5fcc041d372f77570ef6f6e82,2013-11-06
70275fd5f9f2e5f16f7f3cf6d2fa35e93d2cb127,2013-11-06
c30813c559e4f6391dc6aaab8988670298eeb4ee,2013-11-11
76b36bc96594308778e25292648655970c9d4ff6,2013-11-11
93fa18580dfac3e15dc995bf1310b9cffa50e9f3,2013-11-13
a20573758afaba98766075c9363c19de32943424,2013-11-13
f39a1944c59bd4e7adbd9b7fb5de9115acfdb821,2013-11-19
b6a0be8b560b824f5202b84c0a8241649ec51ada,2014-01-10
89c834a99eda3be19dba9061bea4a62a1b710623,2014-01-10
3e7ec960d903b2b8053817bfc29dc12c7a835080,2014-01-28
3ad765ef8e40c6b754580b0d1aa2b5370f5785f1,2014-04-16
fbb8e4bd01c3c139142ad916fc636d5668881228,2014-04-16
0f8f8f228aef00fdc0eacdc1ca979c39a09c3f72,2014-05-05
9daba78097b5e4db8a3886b80d97b644054badb3,2014-05-05
eb348a32dbd261a91904e75dc93b058cb3956270,2014-05-05
4aec5ba7dbc43ec446eb0ba8473731d66e154bfe,2014-05-21
b7b8c2721c64cbe6094941d955955e13c9cdb20d,2014-05-21
791bd292c6c10ae70120d55a52df28ac69af6741,2014-05-21
76107b04d7848da451a3d7d91e7e899af9f73564,2014-06-01
10876b0f222f5330bbacce44bb0f51011cd57d94,2014-06-01
8d48ae8d66070e8623e953b765aa43a1667011a1,2014-06-21
2a90069d8c66bbbaf03b60f7635d9ad735fc9e1b,2014-07-02
01afcc94e8dcac06b76861edb014fc666e887628,2014-07-19
a80f7655cce77e114057e56624073c706151aeb2,2014-07-19
14aafa6b7937f323c663cd8a079f00bb55748520,2014-07-19
fbf12344a6ea7019760f614778d4cf7f3e44df8e,2014-07-19
391918134ca2ad87e766345583dbf080497b3d58,2014-07-19
6098870482f509025bed15b8ed5149c7cd34439f,2014-07-19
29698204611467413d431ccb5c3f85fe3aa99930,2014-07-19
3fc075f9ccc6ec0bdd1c4064f4fdd0f01ba63aac,2014-07-30
09075bc4746a05fe32fb690e4afabc7caf4d0b1b,2014-07-31
a8901fa3f837ea604811caf4e41476d923d58d57,2014-08-01
04749d38d21e78683f684c8d107c70cbffbd9305,2014-08-04
ec49cd53d6ad7140ad4307e111841604b9def8d4,2014-08-05
adfa97ba28e76fee3d580d2eeec39551e3281200,2014-08-07
46032afe9d972725937902d866b900689139e24f,2014-08-08
048eed6d2616a6ea9b78826f0dac79afb717c4e3,2014-08-13
1e967c2f5ea1d2a3aaeff2a992a2550d175f5ae2,2014-08-15
99dc9b382fefd378aaaaa6b24d11d36253036fbe,2014-08-15
05674f4e5811257e4f70a2eca991cb9ceda6d548,2014-08-19
3978af3e3acf7a934f2598c71251f0b5c9960bda,2014-08-20
12fb0ab3b5c29f5c5a5c0543cfb59d03bb4f6765,2014-08-23
3306ad809b66c0499b7753836a705f142065abfd,2014-08-25
405222637122447e58455edf2688b2280115b055,2014-08-29
815ccd1e20d8b7c9d1be7d544a8bf8dab8d897e6,2014-09-02
ad6b5e50c80f8578cd3a2053f3d23302838f32b1,2014-09-03
5a047e46871c9750ac14393bdc45cf5583b89bd9,2014-09-05
66a9f35612dea24abb330ca4e203d2f0f23933de,2014-09-10
bd1bc20be70fcf9c2a4f92d85bd61891b1ca58a4,2014-09-15
e15e29783a2af7ff99e8c82a9c15c48b65c02da0,2014-09-18
16e0cd48ac0986937dab8877f5c4aefa63b96683,2014-09-18
4c96a62bb8b7bd21cb1ffad0895e62262071a3a7,2014-09-26
d5e238125a1d321f46e25bff5ad943d04bd6fc21,2014-10-08
27baaf658e87d63456f08509821345713a429818,2014-10-08
191da715bf5b6ffaa2b8d610ada8bf05af3ba1a0,2014-10-21
35387cefcdc11fc67577157aec824939edca58ae,2014-10-27
4646ff324c44deba4433506ac5e0c78eea79ea44,2014-11-05
1fef5760f2b645634ac6b49a4878f4a243fde6b3,2014-11-09
1f7cde514177ef334fafdbaa0b0596ea50287825,2014-11-20
db5f877294fd18e2897e91e55690dd884e9eef7a,2014-12-03
72466bcccac96dab2c1aae5d444e4ab131a25c5d,2014-12-08
b22893298b86892226841acaeba16324cb110f86,2014-12-10
4d6bb3354b842e2cb30430a6ab9dc45e97253d67,2014-12-10
099d8cd40ff090152a609bb6d9b90628b8e23bbb,2014-12-12
3e950f3c7ebf583369c505d951ba2f96bf81a484,2014-12-20
dbe0e9c6c08cc47f1e244df7a975a36b48b46a66,2015-01-06
73fcb6f680f7207c3131a57c39955c64f620ec4f,2015-01-08
faaa9693e4348d9c5e242b09bc61542f0e790571,2015-01-10
2b0d1d2aa39dba3e7849896e823a9d236a4aa738,2015-01-14
2ea676a2702a48866f227988a9994e0e6649e1ce,2015-01-15
59d2c99cc2d410d33b3a28a2851fe3ba8919b853,2015-01-15
0d49be89e51307ded4447fb0785b7894f15c266a,2015-01-23
475a606be03caf27d2e4aa62af1eaa96d796b45a,2015-01-23
69667a2ca5d8c12d68c0b65d73a480a0441d50e4,2015-01-24
ca9c82ba0d935896544d1833f3ace9aa600cf079,2015-01-24
959f5cd1c8ab1aa4eef701301b3363a8b6c10ca6,2015-01-29
725e7833026a93b0d867e1d76ce161ace37a4d5b,2015-01-30
905358f114af5bf691c23794ccc536aacf2aac41,2015-01-30
cd57feb9ce6465cf8c862d63148ac906f414df2b,2015-01-30
abb9ea8fa2b3efe35286168cca55bfc99ef486f5,2015-02-03
29aeaca28747095db0b71beae0cbcaf5777f1757,2015-02-06
29dab8fff305861c9c7126fac3b5924725d1d061,2015-02-09
8a3b4e1313f10260006f3d463a9cad8a31ca42c0,2015-02-13
01fed47b0290e69cdb96e1519acaf2f22ea1e880,2015-02-26
d296d8910d38235145eec2a95a359e5e3f7f7663,2015-03-11
4d2caee01a7a5b1e0f716b794c888ce1648b6d6f,2015-03-26
78ac368f3b019d71d323e7793fb6330cc7d8ae47,2015-03-31
86eed8042351b5998e1804a630dffd25031c9fc9,2015-03-31
c57e1fd97d89d4a80db37a8194c5678149d90c34,2015-04-01
f781e326989e219befe4c29306683c60922aec54,2015-04-04
6322fe75a3222e09b859382a857496f7b835e0e3,2015-04-04
8a929475cd86fbc244025b33452a68f5c4580ff6,2015-04-17
6f0ed2adc9c3af83da7b870f59cf5c7f108e9ef6,2015-04-17
a6ca43e2ec56993bf3b0fd38c8b351367bbd6d1f,2015-04-20
ee11cd6cd5b1f3e5947ed1f07cf2f229efcea8df,2015-04-22
7d6279b5ccea3e2e533bd0987fa08582eba7fedf,2015-04-27
75f5a155cf05e2e6a5ce6af2bfc374d9c19df8f5,2015-05-01
bd9628a631203abf6b686c1449ddd883cd32bd14,2015-05-13
5729242c67d037282f5fc2c4ecb78dd847a9a860,2015-05-19
c6483441b4e6dbdc9c774d8bb8e620cde7685692,2015-05-20
2cb2c2ff7d6cc0aa03d3b5cdbc11f2833ad76708,2015-05-22
0aaf32ab5e3ce4474430970a3886be66732c7718,2015-06-03
48d3dea0e2083294b6d6707ed0158631bc4360ec,2015-06-25
c160b33285d57fb7a9684aaf009972d70fc1d46b,2015-06-30
0748982e486ece5ef680c08af0fff46bae90b360,2015-07-06
c49cfee3127714e8fd7931a7008c4c18de2a168f,2015-07-07
a4331bca17f215a8e7cb0aa5c28500d18cb6c19d,2015-07-09
a57e387cb3ee0fb91df9bf23034632d71f344b7c,2015-07-15
94f2825d62a28b8a4e62daf7745d7bca872ffd64,2015-07-16
8b59848c350deca9f84778ebf4f73adfad575a58,2015-07-16
5721a939ebf130f182c8b280572b427345e2f551,2015-07-16
de9434daa651ed8b335554d358c50c0c1ec3a7a3,2015-07-21
980d7892b207abb8087cd25ed9d8f112a0a690d9,2015-07-21
582d7e29b104846bd496ace524c082493ae9a15f,2015-07-21
bd341284bdb9154db158b4dd0d3a55c8b2961ab2,2015-07-22
90b72c80f90ece0512c2dfe9027abf3b9b3a0fad,2015-07-26
f02553191927a6f848f933d9daf497e108f687c3,2015-07-28
4e71c38d538280301338571b6b845ca75e175396,2015-07-30
b2f8d148ed8759cefaed4b1e1f618aab62135c8f,2015-08-04
3a19fa49ab5c6358cd7abc0e19429fa1148ce943,2015-08-05
ff07f808aa28f801c7e9fa4278543b9fc11d6bcd,2015-08-05
371b187b0be20b3e8e6272f29f8973c16c519c0f,2015-08-05
482cbd424bd57a3cfa2654e7f2c6017f7d520fc9,2015-08-07
67c87976a71280af200c16b875f02b48d88a746b,2015-08-12
238cc654af2ff18ec4615ff13a9f06b9c41a284b,2015-08-15
69997640156c74dc8c310e674a4d3bc4a50af5ab,2015-08-15
a2620428db14db638eb213e20fc9a5784f7d30fb,2015-08-15
14527d5093e0681a95ccd91c5419003fd92e97aa,2015-08-17
2c0fe845bccf0dc35063819b199c911e409991db,2015-08-21
092bf2d676c74858463b54a8e8b008513ff04232,2015-08-24
49b4cd58fc0a4fc118095082d22a7fa72385fbc5,2015-08-24
7fe2dda6d9befaaf4dc3f10d082a05ac63d1e4b7,2015-08-24
924b5f4d8a42bd942959513b1b271a4d065ad859,2015-08-25
3a5e81ead1aae4b55ba1c1d30d2df2b0bf490a3c,2015-08-26
68f060a94c9bed20ed45fbf08d850beef515f5b7,2015-09-15
a359478695ed53c1895e3c508d4ecfa03f4d8f80,2015-09-15
fb7a9d422082e1869f76bf6c05796ba23aa6a244,2015-09-16
9b81e1091d5e9ddd1e84318fbab863a8c62fb757,2015-09-16
89ede446fd2bbcdf1f08a4eee879c3bfbf5a2ec4,2015-09-16
a8a1d1287b7a91b1815b49bdaa15af7263ce00c9,2015-09-17
e595606da4848c1e6c1926701ca69c9d6a8e9128,2015-09-18
fdf1a9e905782dd2885799c6b34d9f1da842a7e1,2015-09-24
ba28f4100f0351f3f922a6883cccf33047923289,2015-09-24
1f57aecb8c5a7df7d3b58c7ec3619bc4d23ac685,2015-09-25
6bd55de58dc04500e83253577ca64e423ba78219,2015-09-28
be842fd8c2af885e3e6c056495193075f9120dd4,2015-10-01
7c3ff298f5257632f8156082483feb0e34cf8fe3,2015-10-06
96559bb6e3fb1c51c974cdcccd3c5cb493287e0b,2015-10-07
95c9b6f491e204eab44813411830d9ea6ee8671b,2015-10-16
0e6f248fdf6aac7ed1513aa3a187eb266c3a8b45,2015-10-23
5dcbd968a59d02aaeed563659564b7dad92c708e,2015-11-03
52a002ef42ea421bba7dacebaf8a11c228ff3e19,2015-11-13
f8c5c7f7cb08b2465d536ae34c6bd6643bc94286,2015-11-19
05cdf1edb9a20824975052d15fbe0112adda919c,2015-11-19
20a06a5627335f31e66f6d4578a82e05a4defe27,2015-11-20
f480fea9642669c7ecc887eb9c09f433572b8e5b,2015-11-20
9659996e2c39bbd5a42fa03badaf7539db83b3f5,2015-12-02
1c0736df857b6cc025ef9fcfa349f2ecd2a99294,2015-12-04
db8fa1a1024233d0cf51c5b74b3f36a9a17d29e9,2015-12-04
bf29ab3e8d484a599003153f82ee678e2ca4d570,2015-12-09
5719880ae6136c7198d95d9c5e939c148617d36a,2015-12-17
51bf8b40a0258f43946ae9ef732a7c36723fd4e7,2015-12-18
778d522be51e64732cf80d63132883e9716b7c12,2015-12-22
c82d8ab6ff95bd6f9ee6537a8a27b6cdd409721b,2015-12-30
3bfdd50c870120ca0ddcaf97871e01653479683a,2016-01-07
822516247f1a6130986b7fbc466272852ae58870,2016-01-07
732e50289c9339668b9fa20dfa175e339b2132a8,2016-01-07
89f98e53dffc4273dc9f11bdc917a4424619286c,2016-01-09
9540fb2657c10dd02476040262b0d61c31872333,2016-01-13
2075d549cfb64e69015d21b1446dfd14d5236757,2016-01-13
a296c10f011ced16bb41c41d6845b7c032327373,2016-01-14
96f751435a5a8f1e5068ac9b63c95d4b263a9650,2016-01-19
f6be7d62aa6a6b84de990ac1de87640d27aaff14,2016-01-22
db24072afeec33359819d6814f1af3b971a84d90,2016-01-26
78b33beba56c9d3f8dee03e200736c8ada8a676c,2016-01-28
f22babc5198fccf14ac06e6abf33edf830338b99,2016-01-29
6475f47799f55eb2d22af72b7c8bddf3f7b1d01c,2016-02-02
3bdf32d6df1ce148d2759caab60dacf2ed385ade,2016-02-16
893f770841d8a37bd436cc270d1f3efdded1d2b8,2016-02-17
6753917518539e117788340237af350c3a87eba8,2016-02-19
938b752ec47079093040c54867085f3b13b8978a,2016-02-23
b824a7ecc8d86a5774c5e57b0dcfb624eb9cc2f6,2016-02-25
03e5ae46acaa23545924623075e83a20291a9e5e,2016-03-03
c6b0eebefeab03011d4f41ef43ad70bdf593e6fc,2016-03-10
3f8796af98990ae650e8537b63dba677f0403d12,2016-03-15
ba02449c6ca58df9bdafe5045826f153f6623929,2016-03-28
4cd56e89eaf8ef64227862ba6b00216813ca092f,2016-03-30
af5da3e2f0515d1c7df71ad02cd8d61b625dcdcf,2016-03-31
b232ea935fc866a872d7c09e40aa96159fbbd3a6,2016-03-31
ad76361d297cd969ebabf1bc429869490a2dafcb,2016-04-06
e1b68a261d23651597ff2b06e60edca1d873f0a8,2016-04-07
0083cab7c652c41ff917b3eda29c85f5384dc48f,2016-04-07
fc3059c138b08132914fd52fb80943112e11d1c1,2016-04-11
89557b09e40a2cacfb6c85a04132ec0bfb28bebe,2016-04-11
f0cc7ed3153c2d7c08fb5cc8ba1a911db588633b,2016-04-12
665a4a56226f6dd66bba69365c851dd5e14d2827,2016-04-13
26ece5bc73f9af0700337bd8827fd9aad4ce4c2d,2016-04-14
e7e7b1b12825106804e3549a82dc9573bad02b8f,2016-04-21
2b6454b7dcafbf60126184e00b1ae06ed71c89e1,2016-04-27
d289ddc5215fe71f28caf52ce0aee3fbc6104921,2016-04-28
4955ef9911be0af41409e78acb998f4fe460d3b8,2016-04-29
0fe3d92cdbccd449b070aacf3f90907d8e4d18ef,2016-05-05
e56af6a22010a88226529004331d3dd0622d522e,2016-05-13
eace97fd0d0d3b64464bd188a0a0c8187ef75d1f,2016-05-16
5db0cb18445f13d709de4035285bc7c82cc6c25a,2016-05-18
3d0d902e8a38ff737cc34e449384c09a0b1318a6,2016-05-18
795db6870e2d1b65af1183404f1946c952240a81,2016-05-19
228475f6276c89e7bfe526c6bee0c30844df312e,2016-05-25
1aae74d3400d6eb103b1143fb9abcbb1f1ec9974,2016-05-26
846fd945a65aec39da7867f64da1be0ac0dc31a9,2016-06-01
698653f87f385f6c5beae37730a07e8fa7dc0a92,2016-06-03
cea017c9c02d674faadfce039c5f919af6eacdee,2016-06-07
db5cc603f0ea4b08c206063a2b69a4d62e26e4ae,2016-06-08
d75b83c9542ef9b96bd698011d0fcbe46a25c368,2016-06-08
23c17b829d35eefd41a53bb81e74de21db570b60,2016-06-10
828b1a2da4fe0e5d690e591f137e54e654d9bb76,2016-06-14
a1097f93972b93bf8e44dff5924b6b6d9d3a6504,2016-06-16
131762a57e2822fdcb8520a7e487b3c955c7746e,2016-06-21
7edcd4db535dd6e93a3f60241e0ce6dc4fde4011,2016-06-21
6313ae342282a9cde2eb1f315eb56ac33aa53eef,2016-06-22
1da299949c540d92ac052ce62664c29309a527d3,2016-06-24
30daeb21db90b323547c7ec17129c880766b0c81,2016-06-28
7d2d3a577d4bbf5765fb946dca25485a8e4198fc,2016-07-07
633c97b2236d0326f3d2b768957f48af83dcd1a3,2016-07-08
dd276032f8a180314ba2c8be8e68304d9a28e301,2016-07-11
90263a5a44e11865ab1d30abb32bc41223082013,2016-07-13
22b2b8cc7561f011bd829ca3c6186c153795b9e2,2016-07-13
8b0c281f10ac1fa30675dc031272b0254da7b3a7,2016-07-20
d69732715ee05245f0b7d30ec5378c9318588499,2016-07-21
4938083d25c1eee3ec8796adfce700ef2d7b322b,2016-07-21
5d7ef8a295d59c6577a2b458fd1895645884e3d4,2016-07-27
db44262fd882788f1b1441fdb28fd612002fbd08,2016-07-28
34e4ef7fba6f99c896a4759a7d97832f54995b70,2016-08-10
a0bd775c2a6922f07837bdf11278e348217cd5fe,2016-08-10
f370e191c121d6337ae4688131e4fc316bdacb8f,2016-08-11
f53c3f9f3b293085727489fa39fb1134a4d36aaf,2016-08-17
8449ca3c6a59947d6df3189d7a80443c8e963609,2016-08-19
dc1a84cbca231d335d5474ec065d29f759926c71,2016-08-24
9be2efb586b2df24331faf3ec804ced783025667,2016-08-25
0ce1c94d7cacf830ffa07bebf3e91bc598be3ac7,2016-08-29
d8d950af06e847f58b531d88f50d3dbdb5d375f5,2016-08-30
fbb684005f94867c54a07e824985836d845ce654,2016-08-31
0322eb5c89508501395686bbf7d3e95ad5167946,2016-09-02
2d8b5cd70a6242cc4615d810e6f8361b53ab4c05,2016-09-08
e0998bd199d62cd27945d01bb474c4f0a3ee5c9e,2016-09-09
185f1fab6a99b2083be02e1737b9458e95511269,2016-09-14
5f21a80926c6a487c2c80d344e0c6d0c7f2c01d3,2016-09-21
9802d11d4ae57c06faf8360394ea8c799e6e2088,2016-09-23
555b88feb4f4d4869906c89adb8d7b9a5264ac16,2016-09-27
083503148428fc67761cc48ff988080edd0acdb7,2016-09-27
bfe72801e9cf2994ee7953f9997573bbac8c65ce,2016-09-30
75b9b72dde403da3dbd9e1e481f0ae4ff7132a92,2016-09-30
a644f1db00166fb068b7a415b3743cc55dd7542c,2016-10-04
4d86019ef33b9a3af2b7579113b4726ec18bd8b5,2016-10-14
ee138b993ad1dc23b14a4f6da70dc3d87d46b6d1,2016-10-19
141148b516ee64bf9dd08f1192516e39deaa3e36,2016-10-20
00a6fb136366cbe91a6869be062e9c8e83eba2b3,2016-11-15
c1d3e2c20a1593a024b92779886e0e21b89c9cda,2016-11-18
b50b8aeef85ecd095e91c379b4dac111873dc70f,2016-12-07
3a8d6ea66976293168fff670831f6382bc80b3ad,2016-12-12
ffd98f68f2839d588aa67e49f1c36b8e148d0101,2016-12-20
1ab10de81f3b00f5405d3df37a977b064a9dd620,2017-01-06
ed30daaa15084f500bc5dab17b445ee55af2d9de,2017-01-07
9883435313b7c639a945a443b812858954eac583,2017-01-30
ad24acf1685ad08cdf4d43c3665ed1adaa6c028f,2017-02-06
f5447bcc3e2a1f08bc6ce3eb65052c4bed01977e,2017-03-02
2f4e9fdb325dec7b9e14cb9dc0890d0565c8fd56,2017-03-06
69aac71df31a7cb906612ed27e1bcf379269facf,2017-03-08
0aab14504efe7d8d0059738804db9f5a48a7a1ec,2017-03-15
720dc6ec7d426b34c90773c257e808ffc9068170,2017-03-20
9bdbb54a07958ad92ab21c69c630cd4783956b16,2017-03-24
954ba085bed6cd21d630dad1f72212628815513d,2017-04-06
3a179ec55332ad1c08bfe4c2bd8addbc8e4fa6da,2017-04-14
0f4a729e9b6e7dea7251c7d005dd49985868cb63,2017-04-21
ea3fffdeb820debe7a87699a22b899ad3d27a5fc,2017-04-21
4a3914214939cd0e12de40a365132ec573a6bd19,2017-04-26
ecba30a3fe3bf3e42c474ef5677f69f488569f53,2017-04-27
2c9ec49a52208ad9c2d934f3022c1632ab93f11e,2017-05-27
a6cc7909cb8be2112e6325533d5a8119639d4527,2017-05-30
210e71593e4d57301dab21e8eec97c90149410f0,2017-06-05
fceb47efa74ad30e4b7f86b48728946c1c18cc9d,2017-06-05
7bd173e99de9bbc5a7004e1d508da88bf886b3db,2017-06-14
9dd6aedde73c8b86769001905e52851df53ae15c,2017-06-16
45e68e36c7ae8a70ed89f8141d0152aefda394b0,2017-06-21
3a891dd3478f73bb282b6b65613e1ae424c36221,2017-07-05
6b3430dfe26b7483c344df02f15cef5d6198821a,2017-07-05
cb725da986bd3cf217aa31bca2f0d1ddbdf7929b,2017-07-05
c8c6c0534def5f3b9881d277db7eb6e19fd25a08,2017-07-28
4377417764c1ca8092c089e456b726f6021dc43e,2017-08-04
e05f921812772eba98ef3b4a1ab6b301f3b25e26,2017-08-08
55cd3920ae30b0e45864961ef9615c1fabdcab3e,2017-08-10
186d17a5d0f48cc0e459fe1087199d26cb18ec5e,2017-08-11
a6ff6c10c17840c30b7fb1b3e6ca9431734986c6,2017-08-14
68c77d890af93f3e777c4bc7da8186bea9869690,2017-08-16
b5ae2492c0adb2a95b8a382d7729081ed400d2f2,2017-08-19
dc07ed5f0ef6b48caa86bce4d75190688f67bbe3,2017-08-23
6e5f0fccfb55f1a25d9dd5895bfbdac7ebe87392,2017-08-23
23e6df7e052ab8c355a348e6a0986a2460c48690,2017-08-25
e1028b77caa41ec4724aade1008d825b18c4b3b5,2017-08-29
e6845ff89ebcfd6bb6499c6b9f843c2566c573da,2017-08-29
6f910268482fa321e0df95036249432c07f823b3,2017-08-29
b449911e3b780c2115dfd1282adb124ebf5f4ab5,2017-08-30
790bb45604dd7243f5543e9e1087f5cbffc0633c,2017-09-01
c7a1a18352e154bc29851078b397c7797a0cbeba,2017-09-22
ab029393c4326190379ef3c96dd7bd09f443b12f,2017-09-27
ab08135176e023bd9f0cf52b51bf200cc2563288,2017-09-28
ba794860361045047c431d89feeaa9072f118384,2017-09-28
daffb2888c456078803a0667623773055d08756a,2017-10-04
a409c6f3ecfd0657e13fd67c51af83db5e4b87ce,2017-10-04
e2bff35e52a8550a1c011237daa7a2f35c44df17,2017-10-04
4b5bceeba5d13a9e41b36ef723742af32d144499,2017-10-05
6d1e6acc5fd8ac20d2cf83d20e3a9ed946f75943,2017-10-09
e8d7cd4c29c1316c5bb1cf0737d4f29111fcb1c8,2017-10-09
6e6ecc0d755626d19ad57c93e8fa9100e723c1c9,2017-10-11
3a3ada223cf1d6a7f570a5bff626e4cdfabfbb98,2017-10-16
e643cc619df2b935fdb32b72c4be464c5094abb3,2017-10-24
639bd4d95acb178f91d015b87b37851d1f341c96,2017-10-25
efa75554699468b6e235411fd07959e7d8a13f53,2017-10-30
79ac73a47b8db45d9ab838e602026409a5433f17,2017-10-30
e6404cb8931f47798708a08108e4bc86d165dd52,2017-10-30
b67a31ba486651c296c6f6123bf80db6300e97e8,2017-10-31
e9d8498641d6139a846069bd19249efa022b9f83,2017-11-01
19cc9f4580b41efbba01492a768be86ab97a0d02,2017-11-02
509ed9438bb0d96e5989a96b6a74b93a959913db,2017-11-06
c4111587dbd8b14487635c0a9b3876cecb4cdb09,2017-11-07
258295a47e4d8eb2db1a57e07ecd2256c97ae96d,2017-11-07
6863e7ef018a3f483ed76092cd41d83daf0b45e5,2017-11-07
7d6edf27e93cdd2113502758be7ec45551b23c7d,2017-11-09
8743b798fc030a5356be799ff12ac408a8f92585,2017-11-10
a6416fc2f5f7ef4f9389b8f12c96bfd77bd11014,2017-11-17
9ba2f8fd6bdd5dff844394084afb03c51b2af184,2017-11-28
4864c85322b7573a048be0b0cbdc0bc375c46c1d,2017-11-28
c5dac09ca8edff9ba26c2641b04291abff17edd0,2017-11-29
2c2796685997d755a22aacaefe8fbad215600532,2017-12-01
f0a99fe48111fc22fb656accc134dfd08247bdc6,2017-12-04
fd466ebbbd42324d79f3ac46d515580a88b3a2fa,2017-12-04
2b8e16863e62a819a8b27bff8252648d4ef8db8f,2017-12-05
5f05959a5767b1c56774e51c85f909d2dbbc72d9,2017-12-07
d90a4295858be7f7eea021c272186618371efe79,2017-12-07
64861845a6735f1e1810def088a7f62da9a1331c,2017-12-12
a6f99edf1d49001c66a01c6f3404c6b05216a517,2017-12-12
8c3605d028b6fe802af6168dbde9e5b530c5097d,2017-12-13
120abc636f27c52f4eca114cfd7f0b647f6b12b7,2017-12-15
a441b1e70485a1a88fde59d04d9195ac60bb9007,2017-12-15
87435d6072b76522f68245425566d10f07cd8d4e,2017-12-18
be0e7d3e2e48d94f2082f4e0d4be0d4fe901d2ef,2017-12-20
788d057addb2bb4dcf3ecd980eb4caa1a5e3ca77,2017-12-20
7b413f6d0eacb456023ed6608fbd060448a8276d,2017-12-20
0a277fd5a04a5cf4bd2207e6feb87bb3e7635e08,2017-12-22
5e7dcda31247c04ac7cb2453b718a80776774b63,2017-12-22
a530c256f5dc0293a6bf7ef252743ec6e3c793c7,2017-12-28
a5023caeedf4811321841115953fcdb0776d6154,2018-01-02
320b8ab3e4c8cebba5b75f7b6dfe805331f1dd02,2018-01-03
cc0f23d22d00323f5bd0f954144fc6435fbf73d3,2018-01-03
d397f07d066936928418945632ae04d78396e72b,2018-01-04
de8753eaf34c2dc985599b053487750a3e0a78f2,2018-01-04
3db68f0f23acf5ffe6de7d716bbde3505f0c3f65,2018-01-04
716dbcf20f700a6ffebf41692349c695bc192bb4,2018-01-05
02db213a6d9f2edb2243ef1e978ab44325ee411c,2018-01-08
fc6969d6b9f6436a25d09ee4827c18a84812d09c,2018-01-11
412c879f505e4c07b1eb7b699a6044a69cd7203f,2018-01-12
e3a9cd51951ac8b9561be70771c3da1b2d32e601,2018-01-16
60d2e090c2ec3fa9641adfb1bfd37bd06b42da0f,2018-01-25
466064aafcaf7accfcdbe6f31f416c9779fa671f,2018-01-26
09fb2cbc262931b29e52ccf74c04d5eb6d2bc7c1,2018-01-29
3828ca25b67720c21e73569816e85e01f31b49dc,2018-01-29
f8a6e79f3bfd04516e23a149c7f2fa7676e135c8,2018-01-31
120a339192589fd9f3fb5841811bd70f56383a41,2018-02-06
ffa42895549b3acf7751877156ab31df2eafa46b,2018-02-06
356a68406437993de084f9f51bbdb589e83888a4,2018-02-07
73afb303360c6ec3c91e1a75aab00e80e58efd9e,2018-02-12
9288a9737702c9a6b0683c55f69f3a9237ab619f,2018-02-14
d768576d6ed1b05e225f60b54528d1129fd8b213,2018-02-16
d27ab75f0e8bd0ad49a0af1bbbe9dc9a343291bb,2018-02-16
e7b89587d6e0148f9a33c444c0fa8a71d822c9da,2018-02-19
6c36cc3c1eaa284206a5beb816be786b28c65c81,2018-02-22
74d69fcc98fb6343231a536fda783c5eae78f89a,2018-02-27
ebf074201b87d6f1537d031707d1ffe289745316,2018-03-02
e072a7e2d4acfc56cc9ed291605cbfbbe97bdd9e,2018-03-13
c8e188a49d0cb50a8b188e5ef2eb6a4192c6e391,2018-03-16
e8d79aa39853db1421cddac85ba7c461824ba594,2018-03-19
8a8039a1ec117930de3305c97b9ead2358039f8b,2018-03-19
567ff0eb014c807d5cc6095e4c8ee42dd93397a5,2018-03-21
1f4f6bc6645cedae8f3f7785127c21585305008c,2018-03-23
ddc9b401eae0177e8ab987f2623505a1da30c2e3,2018-03-27
49cfdaa14abf7346f87d5427239478cc80afe182,2018-03-27
cd706912089caff2b932354f8187298ad2e6f44c,2018-04-10
d021443364651e1804641f5149897c1f5a399c3e,2018-04-11
350b2700ae17b77db39572497cdc36e985165ddb,2018-04-13
abc8293d79212561c632c78770c9493cdd9d3624,2018-04-13
7d335da6ef49ec7294b79a42e43d4057dee39bc3,2018-04-16
fb8b7f2a3dcb378afa7739618fa2ad8313be7b2d,2018-04-16
b4a0b8dbd18a93fbc14695fe6ef39eb22f168bb3,2018-04-16
af9e00478c923bd0f095026ee774a265a5814aa8,2018-04-17
592c03d811f573b14629f49c8f9aa671060065ca,2018-04-20
cc739fe17cb9bd666e14b7bce2bca78d1c497585,2018-04-23
35f75758b9d5a2bfccd49d15d7ca4ed08a9ea4ea,2018-04-24
e1ed045d59ef8fcbbd664939a476083ac8614b32,2018-04-24
7c96e0662ab97977b1c673445a745f3402e8e6e0,2018-04-25
33fa5c6295bf2b773c7bf356706819fe98f804bd,2018-04-26
bf2b6fd397d83417ef2c211be70842db68a3120e,2018-04-26
8dc854ee788042a55a6f65a7b7e1a625ae1b85ec,2018-04-27
3167717874319dd44a9773efe7d261930c8fa6f9,2018-05-04
3bcb8126185ea025032ddd64326dba72f7d25dd9,2018-05-04
cbdbe58086ec8ecd32c66515b838c5434a88d4d5,2018-05-11
18426a783619cb5af55a321f98f808e9b31e0870,2018-05-11
192d35916c663af5465fe5fd6c8524b8c3ada36b,2018-05-24
d55c02d89526a4217c7720cc540e6e0ffca5fc0a,2018-06-07
945edad2597058ad09616d0a7772d99fa5616a2f,2018-06-08
ce42eca7bcd97b7be54947c0f37ecaa3317711c2,2018-06-11
29db569ff349acd7b102be045f404db6bc771167,2018-06-12
468e03482a0a9fff1a7a7d02b65bd8ec31bc104d,2018-06-14
d1c2eac64549ee390f0a84a19a9f2f40cefdba81,2018-06-20
6a16b6f386d6cc466df5623d8c6ccaf1539f5f4b,2018-06-21
51d049ff958f97bceba324882c478cb1a10f6e15,2018-06-21
e42c86496cd383690a49ff36da41c31e88282aee,2018-07-17
3a089646fb70fb5a193a731c4909d6ccaeeaadd3,2018-07-18
b24375408f9afe8bb932dd5d4e59cafde6614951,2018-07-20
dd03682c5d6841c21605419b1137150567fd5ff1,2018-07-23
4f902cf808c594bdeed2c5d23be23a36bb4fe033,2018-07-30
b1fb108d16c1d89bac91132be919135e1f3739a0,2018-08-02
da2e1f0255d3b9c9c9fde51f5eaf01cb6e7687bb,2018-08-07
5e03bd5f88ed959fbd449a253e3c04a94fc8e752,2018-08-11
46f315fe8135f09865786dd51482a27701e39bb8,2018-08-20
40f7f25b0df97a202e54fc4933677db5bec5345a,2018-08-21
2e206ec54f49b2c5da9a2cb8c58c2f5bd567f0bd,2018-08-21
96069a4817336ce748d6690de07ada7a1a4ffb93,2018-08-24
c6a36c1d61aa1e86f2eaa29a9c4029fa633dc76d,2018-08-29
b391f8540f9b89976417983411cb3e71a6379fac,2018-08-29
6d2a7adf3352942c376886d1bca5bbc825da1a2f,2018-09-05
952b4d11fd37a71e8540faeb3dafe86a6d713734,2018-09-06
baf235794459ea8318b89c9c3eb2f9ef5ede846a,2018-09-06
012fb2b8481f2675820bd098377f6aca0ae8ac0c,2018-09-06
60a5dde60765c189892354aa9a016a0a90b92a37,2018-09-07
09adeae314d29ef0488325f0c838999e5278381e,2018-09-07
3be3073f4b9a2c0216a30c71ff75b55d9d759db1,2018-09-08
d045fc58178040eb4352857c7ac21dd711c9caab,2018-09-18
3379b957111aa247a4295688144f411fea433e1e,2018-09-24
bd5aaf71bbfc4bb07b46ee88af54fa635a7547e0,2018-09-25
61274ab65a294dd197840dbddf6a4a67b38bd465,2018-09-26
f0f6dfbb67b356080c2ad24c960338ff00177dca,2018-09-27
84a89d4c1e12265304f5a825692270d66174361f,2018-09-28
ea48dfd44e6f3c4ad2b5e4a241a946542c39b218,2018-10-02
be9493d9fc01eacf534c14b71b8855f48d9cedd2,2018-10-04
e38705fa96e6251d5828ee24984caa7628a2e749,2018-10-17
9203183b34c4832dc44630048736436ba82217e5,2018-10-17
ca4d6ff0cb498fdefade3062e4aea2d6459c286d,2018-10-19
8882a8c8dee2c251ac6709271ce082b8da62f6fa,2018-10-25
f10c2a35d4b50ae286cad0ce8e22bf13502a2b2d,2018-10-28
3be80e080b5b2e1426f457007ee4349918307840,2018-10-29
01357cc856584f2a22d5fae3ff7a4048b15e1784,2018-11-01
159d81b1b835c96bdccf322b0db63d942910ec05,2018-11-01
9934094cdc705dd686f14d4495d9ef1652964d2d,2018-11-02
8d759b2272112b8e8b2778d6b0692cb4fbd940ed,2018-11-05
221f000e3d608637d5275b5c4650733c7668d450,2018-11-07
a40a67b04db970ce66f8ce803097a28ed6b472ed,2018-11-07
c38bf3273844dd62b471d2fb0e839df6dec25992,2018-11-07
c7e7c4f155864edbf20ed9800c63c0169c0e137c,2018-11-08
fb6b9aa9633c3ad79650ef538bab02fd472f9b68,2018-11-09
a1fa01faeaf647ade9ad49bc594d2e45ecbd19ad,2018-11-12
305681e2750286d5ab6775b955eff85a83d13436,2018-11-12
c8f6213195a3a070e214d841b82f8a11676a1bf9,2018-11-13
115b10e2aae0a4268b180433fcf5db66a42033b1,2018-11-14
bc8dd5bd27b04404ae9ad00cf463ff37769aced1,2018-11-14
2137a2ca169cfddf818c2e7f5f314a49e9be04ff,2018-11-16
9b197dadb83ac0321677d3420c965cfd2c758a4e,2018-11-16
1ae4c00921ff3c0be64c3c4f71c5c957ef42dcd8,2018-11-16
5515b166766da3a719ceecab632d95bdfad7730f,2018-11-16
3216741d12acc390993f1b4b9b359fc455faca98,2018-11-16
ad1ed9f1cbf5d5b19e9e733d2fc274ca318bc3ee,2018-11-19
24b63ab4738aa1280c9a74e1cbb979abd86e4cf9,2018-11-19
db0d66bcc314643960b1c35fecab598d83644c09,2018-11-19
623461fb9f5e0b6b5f4cf9a1d8eb6e62fbc0ff97,2018-11-20
e74c291f8b7de3cf8835dd03fb6e16ea8953b5e3,2018-11-21
66dd69fa93c16018c8218758a4e02225b0d1df0d,2018-11-27
3b0fcc8270f43a8c3f852853553b8e5af3f26c36,2018-11-29
f0b5d1c803cf67e08407782c2ef27df6f7bdb73e,2018-11-30
d67f535a6f43301390b50dd64b4f95d6005040b9,2018-11-30
79f2bdcb7d7995a2bb6884f683908dc84501f0bf,2018-11-30
9b55ae3ece0b83d66b2dbb0f2992df6c1b2b0f4f,2018-11-30
325b516ac6a53d3fc973d247b5231fafda9870a2,2018-12-03
7b1b232d5ac3597d3ef76d72d0e8398060d101ce,2018-12-03
5177a0672be38723580c48a6d64a2af980ffa654,2018-12-04
14a1a94a6d4619ca5ba656438c18a723de10bf8b,2018-12-05
f8e786977645b12f8fca9295dea84b09760028fb,2018-12-05
c7c432aaf57cf71cb953a7f9309dc2637071ae49,2018-12-10
3b5c7a4bd08abcfca0b530aee74ccc3f5426d985,2018-12-12
924b0b039fa5b20fe347cba8def0a6c5e2a6177e,2018-12-14
3a46e07f994fd648583f6c1d5b4f80043898db4c,2018-12-14
11a3b14497b904f1fb95fc2b3ca284a659b99332,2018-12-17
97fce1e3f25c37bbde36dd6e230517bb68f26bfd,2018-12-21
61bdbb3da9ab828baa034fe6a73a7bf072d160de,2018-12-21
