CommitId,Date
ca83934ecf5f999de50176cf1b9671571e0c0935,2001-09-05
1757e51229007c28d2d8fac511b65785cec96ff8,2001-09-05
3433dd981719194b1314d1c0aa2cd19744b4cc66,2001-09-08
ba5f71f62e6f0a324d73ccc02c5bcd08883204e8,2001-09-08
6d128dee80d1514ec9fa3f17c623782abcb273a9,2001-09-09
c855fdcb80622488d75cc62bc1c4cbd87baee1ce,2001-09-09
d0f5e8e04ede49fc96b5fa45ec9954760d7f2d8a,2001-09-10
a0f147f41362c7563667cc9601416b8cb11597bf,2001-09-10
7c6c64580855f3d055c9f4f041148e51ab1d37b9,2001-09-10
74aa4ce962d61280eada0a533f5320620269578c,2001-09-10
5d0ac7c883c0b0abcf2c8d0ea978a316b40e2d17,2001-09-13
7735814ee25665a107dadcb0464c5adc456c4504,2001-09-13
8a9f55b40b94c3327424d7b9eac3e206ce51f6e0,2001-09-15
6f7a24b89c6a2574360c5659a7ff258896d788b5,2001-09-15
b54a6ab3edf56fca633e9242fc2236d917f09fe0,2001-09-16
2361e4735f6ec19e8a00a6262baba06ea9a290c0,2001-09-16
4aa53b0ec45ccba14a5252e5d7fef44e6c0465a1,2001-09-21
66646f38aaba0b0db4447cdbdbc3a560eefde647,2001-09-21
3d42c1f8e36d9cc9c9ec644bde115cb00d615465,2001-09-25
8429e0fb207313d90387a970125212440c8bb5ac,2001-09-25
2076c90dd9b42a6b35550d6e53dc80cb7737e089,2001-09-27
a99e7701d33dfb0c7a5963e6cd10ef074715245a,2001-09-27
ba54b1fd3098621467c6a3957461708dd9b4148e,2001-09-29
b088783352cea43f8b7fea47656fe847b19d6703,2001-09-29
40ab7280a4ee3409b8aa6c5d138e34e974e88ce2,2001-09-30
2a1e9d5ca9a0963b0ce71e30b94a7278376bbc1a,2001-09-30
7bdf7c9fd4d928c71a7de8d577e27c7c6eeeb6f7,2001-10-02
d5738f0711e50970e541aa10c1e6e5fc775b1107,2001-10-02
af8b3fdf7970b0982989654b8478bbba2713e7dd,2001-10-04
3345509fb08bb907ab4139d3f619b17b0f701d38,2001-10-04
0b4124564f3a006694ad7fa07d39a6bf1e639edf,2001-10-05
0d771fbea8242e6dbcc31f3ff36f41ed03db27b1,2001-10-05
c84e9deeac10e55e15a25f4125231baa5d49eabc,2001-10-07
3007a2cfb2f1611f957d38d22157aa1dbcdea47a,2001-10-07
01e0d2fb5b560b8768caab14c15c374ad21e29a8,2001-10-08
3d2460d3145b6224d5b0a5c4a7777b66a2598295,2001-10-08
2390ac67ccadcf6d85fcfd8a795ef35e0244e355,2001-10-10
45844782b592dc401fb87929f85511e1ba4ce68b,2001-10-10
7c40af085560bd44a8b4190db981673547d29581,2001-10-11
e083e8e8368fa0ff6fd90becd41bedad0e833a7f,2001-10-11
5227a3cdddd28f0331179329870a214877899cef,2001-10-12
04eded0a1d3df856d3ec173f8dcaba02c3992164,2001-10-12
3c7594a0b59d85891c114a7820e87523ed3f32fc,2001-10-13
34cf1e585ddddaf8965fca716f3f81b9ad713047,2001-10-13
5672406918d3d064729535f9e6a96a8f58e61977,2001-10-14
44f7b5f5d7b5a14ad33404c10dbbd8d5b773a535,2001-10-14
051d7fb34d06e779b758029241a265326ce05397,2001-10-16
22530aad3de963a12370372b686358cb1c73554a,2001-10-16
d06ac498ae142bf13519ef1238f4cf3f6384b92e,2001-10-17
3c81fe6e046cf55028b82e07d11720e7cbc7e734,2001-10-17
490d687728df8ab6140fc6c08519e7f6b4ef7032,2001-10-20
40ef5b54861ec6ffb67051704d912fabd4df848f,2001-10-20
82afc1a925bc885e46ab48c4172c5104dd770a09,2001-10-21
4e6a6140d946a53ed368f703fdfe76954ef1118b,2001-10-21
393ac6c0844e16242a47a831be03fe53fc6cf087,2001-10-22
b63dc0e75d8337cdb595a1bf9d46e4ce0cf3afaa,2001-10-22
43fed091b8b6f7e52b2f0c381b324e5047c5bd2a,2001-10-22
ff041829d1ca3270d7b186908c4d7b91c1080c96,2001-10-22
894b2509f22cd0d6fe739032064fdf6a2d9fcfdc,2001-10-22
3e6f97b427c978db4a7ed39a8c800d73fd9ff074,2001-10-22
bb7aae4032ae6ea80e3cfa9f35b893d71187c777,2001-10-24
9cc87b0fc6a3139aee86bf9b10239962656a8452,2001-10-24
5dd259741ec789c5860251c8696ae3572c0e07c6,2001-10-25
8f9108317a4d9357e53d8ef3c074ca05f9efc1f2,2001-10-25
129d720904f35b6c2a715f74922199e652d97d41,2001-10-29
3b3b0a426fcae16c4b7f409f50bb0c7ad04d1257,2001-10-29
d4fbf828641ddcd298aa8c8819ad9897f98481ef,2001-10-29
9f7a53330954aee5bcbca13ad568b524f38fe1b9,2001-10-29
8d6d19b4b396da7cf359d2d2feff6c8e283b9898,2001-11-03
dbdbef8031fc75733fdef9539df77a9684f70eab,2001-11-03
9a430cadb221a884b2d1bc0d06be8567e5d7a0cc,2001-11-08
54caac8d5f7ea279c0bc194f037e70a306cc1f79,2001-11-08
c8ebfead725c4161043950b23f86f7d73452dcb2,2001-11-10
c6b082480b163c6e6687391fe5a22637888fafea,2001-11-10
d2b99cb9982c6a5381a2186e7c16f482fb5f5f37,2001-11-16
65d85e9df3751db9292f5145729573b7aac4725f,2001-11-16
6cd56a633662a68640fbb594d34b89a0a6176efd,2001-11-23
4fc96b70074e220655613667bbd3429358a60d73,2001-11-23
1c476e033df9caf2813c1b2c790dffdee0e50656,2001-11-23
226bc74617c8816b81f0fa803d529e293c0d70f8,2001-11-23
fec5760567f6cd5fa0c9d4d55e0129ef15e06425,2001-11-24
ee66258ca4e71805cac66c37fd2e47b49af52045,2001-11-24
5aa03a209d4fd45c6d9e4cd0664f8186d42ae807,2001-11-24
c55773a904fece48776c7908bfbf50c626ff954e,2001-11-24
ee0f5f881a22e4540f62a9f9823a23676ca9f442,2001-11-25
ba109df79fa8cd88023f4fb7bb30b7bedf78f495,2001-11-25
42ef3d125d5f65f55597a8b63b3af3904d9a01d3,2001-11-28
3852ba99c46669c8992c48f6515dad415f448416,2001-11-28
fda9a5eabacd4a102312c8a0803de3b147ec86e1,2001-11-28
671da77c11095f8125516799a917208199dfa036,2001-11-28
ba3a814b921db16086f1f2b9d5aeb954090fd454,2001-11-30
f83802117222e6af398e4a97e66fd9ce329a194b,2001-11-30
4b89ecb3d65b309dba7fa4d93b58d549ac062d20,2001-12-01
e0a8aa56de82a155b2421f96fbf26296873bd0cf,2001-12-01
ae7dea1f8d179a7db4b6df30e256c3f73730638b,2001-12-02
1cf2ab73ef1da3bea3742704a02c7779077196dc,2001-12-02
6059916bbd05598540791096121e1419b31222c8,2001-12-02
5325da152ba7d88ab40198e18ac3796e9e540ec9,2001-12-02
a3e65eeeb4d75fbcf68724d75445ba5ffc894f8e,2001-12-03
cc9f3d85a0ab0a4876fd76b2e38d0a5548485ea8,2001-12-03
ed18859fd954a31ba77e4f9d09dc8d6e9f455e73,2001-12-03
04fa6e7c6aebb288925aa351c1e4de5ad3f19514,2001-12-03
9f6edc70533369b8912c991160433094e619b162,2001-12-11
ebed68b6450a41c4472b3a77e2921559b5c9d476,2001-12-11
f2c5c98d8b44f52c1928851018554041de3f832c,2001-12-22
fc47edfd08d30c55a8b966aed67adc93c62c8126,2001-12-22
4d0ac9714f91378b2a9e39811ea312f9246870c8,2001-12-23
c1852d472776e76de6d78e728f84f011c1b4458f,2001-12-23
bddf0f139df21bc09915a8520546a66f00f724c8,2001-12-23
d6db89a314d10ac48d6026b072f9796a866d3651,2001-12-23
aca2133fc2066e863d3752010059f9af4d243c9c,2001-12-25
767f0859e4f4d2e9947b688709126f908ec4e7e2,2001-12-25
a0458aeec8239f70b920628da938e6fdf1f0cb42,2001-12-25
db5f2065a5b9ea6191a2c4ba3199e435c5ab9917,2001-12-25
51f1c9467cb98ac22e7b139a8954bb812a7d5906,2001-12-26
d3125bfa029a58f3c3da84efa30f4e9a928c612a,2001-12-26
e18aa9aa999597af71b4f58ac1aa68d9303a140c,2001-12-27
29af40e2ed59cc627784e48a1a64afd791f02c4a,2001-12-27
4363c53363d1e3f08dade4a1150d06e102fb88bf,2001-12-27
88b47782a4ad686a362702a8d9468fa751929303,2001-12-27
987612d303df91e6e4185b8c5c7fbbbc7f854199,2001-12-28
ec87598f1f3e201b24fbcadf2d134e83fa8ee327,2001-12-28
32cd57e16839aa6228c2060e2691bd8db90b1123,2001-12-30
b3440bf6e1521fdf997e7cdd2dda742ffedd49dd,2001-12-30
3b7637e8695f16b4f70aa396b972fec113f7c5fb,2002-01-01
f4aef89bc67c7917abd4fe3a9535688d923238f5,2002-01-01
fbd317814b33aa7486fc92fa0fcbd6cda8786e9b,2002-01-02
b15e2d3d51be41f9ca7fecaf88d71482f339358a,2002-01-02
33f9601a62277b1c873d0e0c35d09d7db9126660,2002-01-06
770673b9e5052d25f92f32d92595e52f138476d8,2002-01-06
6a971ecfa2b9bce542adb85313e7276043af42bb,2002-01-09
26e8b4fdd1b98d3245a25e1497200da6251b89dd,2002-01-09
1971f3a9641bbc91704c24c12fb245c580ca58d2,2002-01-12
69ad8ea25e8fc595ef3d22d2d2fd6c1d85d9edcd,2002-01-12
131392d5bbfacff80803d12f7536f3224db31cfc,2002-01-12
c6777427f0978b4c0982567b3f01d735c6952426,2002-01-12
1da626c6ee88bec385f7d3d47f980a686656e00c,2002-01-13
f7d1cbdc07752752525652e6f85dda39c121bdb3,2002-01-13
e469b27f468e90a36c6629659881c7a31396e518,2002-01-14
ce3c10e5653e21b36a120a4a6f88cc83d7461301,2002-01-14
637c07a7427f885c3d1d56dd0c0b75cef75a8384,2002-01-15
592523a9f57b11c9a8f867c640170b3797d69be7,2002-01-15
e6a1b0b279f832ee82106f9eb09a139d0125f573,2002-01-16
e8de38d6dede9b5c1c865d408dca2c67ac4acf4d,2002-01-16
0d48f31e7d8c2dcb203c7e11e0906bb43f89939b,2002-01-17
3aeb01f6a2fe99781d046bbf7a87f76c22158da1,2002-01-17
232e8ce2f95d101cce7a169c449c735cbdbbfc14,2002-01-20
7c6aa6f388b2fff506b1bd23f53c8552df19d334,2002-01-20
73485c785bbe46af14deaedb2a482b92a81ca68f,2002-01-21
fb09e46e8816d755d3b41d4b4c2d4a5035953a37,2002-01-21
5b78892a937b2357bfd7868c0cfd9a3b154b9115,2002-01-21
86a67454becc6c7c72b851b5cf51165e1e5dcd6b,2002-01-21
7fb31e068a4bc5526c04bfe27012a5e638c5fcb5,2002-01-22
896637ee11edd5b684f7bf3cb08ca9b08476c3cf,2002-01-22
fb4ea26b528af57512bd38465e52b932a03a758a,2002-01-26
aaeba91600ffa1ce9f35f3caf08bd4256f101a67,2002-01-26
9f1b8bf221925011fe0257725549409502208fb1,2002-01-28
6215acff6b2257841cda73338cff20bb4efe07a9,2002-01-28
3c4a87b00b3df015e341274c5eef636bf2c09f5b,2002-01-30
6230032094b59795c41438d17edc3584e59a5930,2002-01-30
c9136e975a35b57433942204a0631029f2405704,2002-02-05
f1f03a78da015c125eb672c26fe9c30433ea8949,2002-02-05
a2043e57a1f07b4c706276040dfc08d6b05542a5,2002-02-06
9aba4a0f17c08361da74f06b338ce23819171d38,2002-02-06
485f7934d5eb9ea1d55a2a90a114dad314892938,2002-02-07
b958c5e6cff227d83eff84641918329869801906,2002-02-07
08a641f3d6978d218c15666bd75803c28ae852c7,2002-02-08
3024d76dad6ffd1cdb84d81c3c8eb16a511214f4,2002-02-08
c59eac89106f79020a5491a60c038974c57954c9,2002-02-08
019ddd30be7d068b39636d49198ebacd562d1ae9,2002-02-08
3f7bfcb0f4de2557c8ccd6deadd18e81889780ec,2002-02-11
8e6bf775b6e71693bdf252d4c7760e5a3798694f,2002-02-11
a7851ed0186971fbf809e9f690866e99252648fe,2002-02-12
e18bdebc76283944f44d70077d19dbe14a7a4b35,2002-02-12
a9f20ae7562aaa81937e40df8d8317312c3f4dbb,2002-02-15
6583d3430b196ffbd21a19403bde9d98cf6c6f64,2002-02-15
3a352ee057099931fa24c20a4a690c1158af92f9,2002-02-16
c09da5358650894c6426d123fc7bdb7be74b2561,2002-02-16
f07728395c34799748c44022c7a4633836aaa437,2002-02-19
ded9da3a3e459bd51fea107b4b22a038f7e49a7e,2002-02-19
c069eb2f6d91d2180615fffce8b71342fa53cb76,2002-02-23
bd911cf85be78d41ecfd197ec655796308b0a544,2002-02-23
ac2b45f4d484cd7ee92d18677f07821e0e55b164,2002-02-23
9c3246c57070dcad07a0f914110e23667f949404,2002-02-23
c6897bb45e40b90c0da65c47f0f7764cfa1d5d55,2002-02-25
35cb8234e4933897c00cfa380e0c90420f5cfb55,2002-02-25
cd15096e8d1a0ea03ab150d441fbf63c073dbe3c,2002-03-06
361fc6bcd4db5ea3cf8333a6621c0448164c57b2,2002-03-06
9bef80765180db49abafa09b89d9b009e77b8576,2002-03-10
b380f775ffcf6b81357f020aa2be755eac98cf1d,2002-03-10
6689ae9a613d55dce7b6cedfc019bbab1425b2de,2002-03-10
4fd1f06c425c5c95f9d85eb332ce7b7fee291b94,2002-03-10
e12493b4e6a5bcb565a85574f7ef19abfb9e7e57,2002-03-10
a0d92dd603c039a4292b6280b65d75bd28c52dbc,2002-03-10
53031197544d6b21c5113619ddb262d1054c8436,2002-03-14
cf41f1ed4d4062f3086890c0d05b288a1b2f419c,2002-03-14
84acaa5824f43897371282b1028a6579292e88cb,2002-03-16
3d7e788b83681455c0509beb4be14ca4f87f28cb,2002-03-16
0e1bb6f2fc2391f6edba5d83e5f3c24e2f9f4f40,2002-03-23
4bba82542f963485ab41c3307f623e283ac2597d,2002-03-23
9391f11133e98f99fee624deb755fb2889e36d32,2002-03-25
2cdea3fedc13b9af5ae1f816684d0fa7c34632cc,2002-03-25
0aa4fbd34863636970a1d1febd29e0f856df4e0b,2002-03-27
4037fdc3dc18ed8b0057d1298734b2d179c4c0dd,2002-03-27
7f8d99871414cf867c495bf238a254f86da56c54,2002-04-22
f3de86544e0598c6da3024d09799b97100fe0d45,2002-04-22
fc69f0339f5406dec6346a8f93b5c8dfbf470a04,2002-05-13
89d8f833bc7544c265024f575b6130e69261ca0c,2002-05-13
823d7c28dabaf0ef7bf18761b1f95cd6a0124ff9,2002-05-13
ed602c9d382482f10ed006c199404c16270eddd4,2002-05-13
944560b28c41fc257e6a7fc61a9765f0b15f6619,2002-05-14
81376f889e270436e0377865c9727722ec2ac76c,2002-05-14
957c0bf898ad31c08eb761dd6e209c121cf3538b,2002-05-14
21a7d492e6023e5ebad97e43b3e19e373565a5b8,2002-05-14
77a3a1c804e58f3243c703d9e56352fa2badc71c,2002-05-14
6b2c8add4d165a8d9539035a6a79f67ca3cdf089,2002-05-14
b6390540f3867ff1dfc3b38e798234c7aca9b3e7,2002-05-16
6c0823e29f3fcc9ee6f6566eda689cdc38556fcb,2002-05-16
07da463c3a171cad24ce913b9e2a0a27dad26b52,2002-05-17
c1b026c612842558f6c525cb4962ad818e651106,2002-05-17
c7e30bbd3ca163e9d4d686cf7fdbe33ecf8fbab4,2002-05-17
7d6ece126d7fa2e5052146c0e7c33f14deccb34f,2002-05-17
405b63fe8834e776d82cd65ab8fe8fc141459882,2002-05-17
6981e5dd3cc3ca19a80a8386a323d2a12cfe2278,2002-05-17
300a61ab149d03ab167aaae7811e24b3e7f219d7,2002-05-19
5ef372784fee79374a011966fa674f6fc6fa6d83,2002-05-19
a856524a1bf1a7f747f216029ccc41114ba2636c,2002-05-19
b76db8abceb0ca27af7c6bb3d1ebd89c5197c4a2,2002-05-19
9712c5bdea5f62525995f57565f5f7934b643a48,2002-05-19
6cb0aa4af8cf32c9e51ab9e835023237397f939c,2002-05-19
2e5102c589a61b3c92712b4b527b0c3566395d05,2002-05-19
3298f8636f357da1740d5556be3ec36054d1cf1c,2002-05-19
1028155d012a29abcd8dd8de5dd3e2aa9ed713e8,2002-05-20
aa2e1fe8b4a40752dfdc5c9509a6789ec1d7bcf7,2002-05-20
9c8ee8fc8a5d61e780f3b37a449bc570e2a9f800,2002-05-20
4dc24c26f68a2d04a3ca447eccae0d89ceec74b6,2002-05-20
2b9d080ff7e9d2348523c95b32ac95dbeb7db380,2002-05-21
1011245db0f81af8e74a6969a9afee20895f683f,2002-05-21
83d28763e06598811ff058d794e2cc29d1a0bd0f,2002-05-21
54d1889e03bc19725fc6c41520165ec86ed896a9,2002-05-21
9118a4947e7174eec9261dbdec36a15a94660571,2002-05-21
9f899f43ad2f455507f4c7bc6013b6f5db356b9b,2002-05-21
e4087e64e3e0cedfc5aeb3f245f0e0301fde8353,2002-05-26
6c69aca78d497d15bfc6b181bef0474ba75a59ef,2002-05-26
9488b69db01b181695d6c2944f594f62e06db3bd,2002-05-26
a241229d687be31e64b0998ce85bc4ccd1005660,2002-05-26
c6be9c105f82ca1a0a28734f0e7873c2b847d508,2002-05-26
69bf43b4ab750abfd89036ef1c743b5ba602b7ba,2002-05-26
f47456b52a0254ae62efcb4a04d6887f9e015297,2002-05-27
b67c7aa2356f1fdc283cf976ae07752a807406f3,2002-05-27
9e58c4a6a47f79e7c6486c48b352e505410e1900,2002-05-28
277ce703fd3deb5b0df2872aaaceb2216cb4ec69,2002-05-28
ddd80639a46c9998b25b99f027be0ed290003a9d,2002-05-28
43d75d341f2cbc1e0300bd3759ed6dce85ddfd06,2002-05-28
4e39b9383651362443f710f6c6f6fe38d7ae3f8f,2002-05-29
5d8d425392e910c3650f49015329dee1682a5d23,2002-05-29
ba1d9feeb3ee0fba6546b89b6d6045568618f8f6,2002-05-29
9c52a0b4cd12f9ddf19dc21b45cb05cad96aba6d,2002-05-29
b844b2ca64aa0653d5d4d335f92a472262dfb17f,2002-05-31
0a42aad66b0c4b451028e5bb06e7ce4e82eb0dfc,2002-05-31
8ea5830a2456a24c666a47dc4b4ba8d59d7037ef,2002-05-31
6525faeb99b1305ff944df8948908fca03424151,2002-05-31
d7c168a2201a42a15d960a9243adb4e158e9b3ce,2002-06-01
f7f20dcee5e64bd7247843ca0f8023582e29a99a,2002-06-01
bb7c9bf04c50b94fc77e0744309e3145b089f6e9,2002-06-01
8b104c7aaf5dd8d8be6d3522102b0276b337de25,2002-06-01
3892a170bfdf4ca4c35de08b442d0f7e2d9e17e5,2002-06-01
0a1677dd7a03ae5ff31620edbebba2252387eab4,2002-06-01
c80ab95b2c1c50c1fbff358622221ac2995f2913,2002-06-02
522e3c9afc6d95dae1b67bf1aadb68206fc0073d,2002-06-02
1930ef2ef4dc3ce1b843a16ea888836411654df7,2002-06-02
1019308414f1fa4395c02a6d5847dfc5718a4e2e,2002-06-02
3cbb23f7d64c67766efad55988a37f8700c79336,2002-06-02
4c8dd85de0138d30d553f50a05f7953bfe4bd18d,2002-06-02
d5f20da6b3d878ed050bce3e94b581bbb31aec62,2002-06-03
c7eb66d7e3f17fc96b893d6d4cc947c7460d1dd4,2002-06-03
0defe1bec40d8b06763c279e8d9609119b6948b8,2002-06-04
89db4f5cfa10f473efd9967ba271751252444076,2002-06-04
92dd39de65dbc828b70ad4cf0aed6638bf4dd19a,2002-06-05
5fcd6f99f986017e682755dbffe133c5c1bb3064,2002-06-05
f9f8e3c687f714f04b073c7ec38611306ddd7f9f,2002-06-05
9b69587727c0be458874ef1ef8e5527ab62dff3e,2002-06-05
65f4867c0f38c1ac2f73d430d16d0740dbcfce23,2002-06-06
b4ed0148c53dc83fe85381cd5565bd2837df3da0,2002-06-06
ce09ac831e13e5881fd83273d8d987e31a23e4bd,2002-06-06
4164fa5a8537015588dd0fad9232eb27ce47b689,2002-06-06
0e9bd59ae5e88f67de3dc74b6660a656400791c7,2002-06-14
cea4e7d781b0e3d8714bdb269ab12ef04d4cc3e5,2002-06-14
c3b66e89e288c1e331c8ba977164b3965cc91035,2002-06-14
ea86d584b7438ccf46936ee8c418b8d15ab887f0,2002-06-14
b1e78d9c53818af20f81e652c6abc328badbee3b,2002-06-14
5eb5e2e01a2a3b616a160ea688af28a909b1a7f3,2002-06-14
e35769c2ae19ea56c036e3c5b44a835235059ee6,2002-06-16
e4a886335b433256829171b37b11a6b0874ae0c3,2002-06-16
d48a7acb6f199b8bc808b56cd2d3524b9d5ae926,2002-06-17
a6963a6c1b1c2ba55fdc85e98ea6c9408f00aa8a,2002-06-17
4b8b17f78e49454af7636a1ae097e3c63f252f05,2002-06-18
e2ab27f42307af199c236a12d6a29276a2d3adbc,2002-06-18
4a5248c69a7439322f356c83332d549b30e001d8,2002-06-18
4840713ae56b33335ef65ab2335fc9e07fa02f17,2002-06-18
724b66cdc8b3302eccf71a4d948e5633298ab74f,2002-06-19
a7f5f6b3f25792d5201f757ea00e69e39efce719,2002-06-19
e97e1c98a5ace08b946dfd40abb0ac1b73193947,2002-06-22
0b872455185c4686034665af060306df2f379a9d,2002-06-22
556cde7e6d92fe8b1ff9138c4b8c0db66f262e8e,2002-06-23
afd12e94f578dc7dfa6666231ba2d87f4b4e0f52,2002-06-23
3d23ccc8987f336710f6cf6071ce4b0f28b6afdc,2002-06-23
cd4c3d6cc6ca2b785cb322aea40d0a0a8800e21b,2002-06-23
f7505d7a1d744a60b1dfc2d4340d82721457f003,2002-08-02
f49102c6b1dda1e9da8cfdf83ad9c64c1a76ef54,2002-08-02
936533138b5d765dada24199afbebb2337572843,2002-08-10
0840e6a499513318c43fb6d4d2988a00bb9a9766,2002-08-10
6b267cd7b238c56cd8b976828c555ec0cf770474,2002-08-11
8811e3e616cc4e3918e76d7dedf4ddfca6808eb0,2002-08-11
a6788a112c275a4a2c1b78d9ee0e22ae9f4ba45d,2002-08-12
45bbe08b90e091f7374c91c2d8cb0a4ea3025af9,2002-08-12
71f3760b5926e2ffda23530a760006709df296b5,2002-08-13
61e67aca54444cb21454b21748952fa82ea42a03,2002-08-13
5dab27e72753051d890b3dc6ada5ed7a46a7400d,2002-08-13
1c735f20daf7908be689f0db7e285b4dee7f18e2,2002-08-13
686691e82d39a4b460d4e04bc221b7147aa6e142,2002-08-14
dac6bca0494ea37945a4f6be11af18195e00f282,2002-08-14
10414f7081d435b1859700b47d916e649484bd16,2002-08-14
97fc4a3756200a57f0cd39dc60d8ba440b8fc9db,2002-08-14
d77ad3d2c72744b7d40019aa2eeef1d9d1eb001a,2002-08-16
1b3d2f67e67539cdb53ec0031e0c992da1ca34e8,2002-08-16
905f00fe4759918a274429638ec78603dae02f82,2002-08-20
c75dd282c240426dfb50eaf5b52568b8dfed06d7,2002-08-20
42bba7351dadd201dea2e3e1880238462a4c267b,2002-08-28
63a2844778cc07170995c49763ce8b249e736d1f,2002-08-28
8f0b4bbecc589da169fb286662089d431a4253c3,2002-09-03
7ee2427cde16762cae1f87890dafb10cbfd56017,2002-09-03
a6cd4d158c74084e58f069a26944f9933170413a,2002-09-09
a2ba5193308c05c66897b2fa233cf164388315ff,2002-09-09
f3a82eecd0bfaa8651f050f993767c0aa337a992,2002-09-23
1bed6f7115a443d468fb53394ca1286a24e8d751,2002-09-23
d852542034bc97b50cf370bc1e8ec78b5aa5dfdb,2002-10-01
ce7bbc3639653ec8c9b507823e0ca0735817a55b,2002-10-01
0d3a329ded2c35f2f6031752fc47f8bfcfb91bed,2002-10-08
3bb6913b93e65e661a92c26f1a726362ac97597f,2002-10-08
b8df881cee06086c920e7079a68cb7dee0575e5a,2002-10-16
fe3f258249b572f5cd30452c7031602926c7128d,2002-10-16
da4b4f21efe4ade0a6c2b69d6c09a86d54f0f28c,2002-10-17
af0ade9221e5bd23fe072673e3238704de7d69e2,2002-10-17
06c0d459a81de6378e9210a5d916cc61ed517dc0,2002-10-21
700fcb5a80c863201aa294dfa2b2a8759560306f,2002-10-21
c96f65c7ec24ed6cb5b42e3378eca4311f22ae35,2002-10-22
dc8f3b2ecf891c2066a87766425f19b59c4b5082,2002-10-22
9cc46286e9efaaadf924ba99cebb3c3862941a4f,2002-10-23
5922ee3f31bbe0272d94cd57ca9f64aac55b4099,2002-10-23
64a845dd685c0636702989df0a0d7d72ec697b87,2002-10-24
4010f8dfc144bb36b0aea1179e2a4992d9350911,2002-10-24
c1fa53af43e874d73fc927437c6f349185b44cb8,2002-11-01
ea1a86e2e43731565435c2247d66c3111a0110a8,2002-11-01
435c784469c17a481a4503d823f939df71b1db16,2002-11-08
742b3924e0c1fde44e9496dd21c629004658239b,2002-11-08
78c57337d5803490b90cbf04c73aae53d767e2b7,2002-11-21
0444a0fc96344dca2032ad98b5d2be06917bcddf,2002-11-21
6ca1252ca577c906669f1b3e29b867f737454538,2002-12-02
9b27c8cb80507b97936c4592c5c14944bf6b59bf,2002-12-02
7debcd89b2e0be0b46e222f793d2bfe3783f4077,2002-12-11
aa68bf8ebd1f920b7bf1da46ba87f396ecb55c49,2002-12-11
62e048aa61667fec4f41be7ada46c2d4c1ce65b7,2002-12-15
5c7e6c3d3cdd7eba4e6a53565a17e3f0395ddd91,2002-12-15
1e148cce8a0211d4ad8ef9b7cc98fee3af7a537d,2002-12-17
a3360522e69f6b28b14fc907b20b83ce49abf00e,2002-12-17
541e69cba3527225f5bb5c698316399e3b3064ba,2002-12-18
a1626c3a72564a8d172a782d1a53b9e7d16bd9e6,2002-12-18
007d95e612744e2df9a1dc6d0ba4b757d7f0926f,2002-12-24
de275325b809a463e2b0c39fc2edbb6fad3b1c7e,2002-12-24
f25a2d2badab7d6210ac3ac5c2d127b60c638639,2002-12-25
13d921296bc78c2d40a1a438d2df150546a20cde,2002-12-25
c8d96b7edbc6c446f0f4a38793f8626bb81ee846,2002-12-27
d40da7e5f2bed8685f340e6dfa3ac6a4a6fd67cc,2002-12-27
93effd567200386e4c4ff4eb2470ebdbabfbf79f,2002-12-28
6c859b289549bbede1fcd6ab9374f54e8a7ae69d,2002-12-28
6c5ff9eb451f8012b9e9d6ae6ef32f7e64cc5395,2002-12-31
d12acf9d804078f7e431ea66360c2217f307df92,2002-12-31
cace0dcaec77240ae1812726f16d42e83b298484,2003-01-02
69dc338b1318cdd05c60b293770b304f1186835e,2003-01-02
251665555a75f11a365454b55f7ee89008e3142f,2003-01-06
d0d47e84f90bc92f70f178548fa2ccc537d03562,2003-01-06
43f97f4d0559475e4d92f70191d5374d508d1742,2003-01-08
0ba4ff5c2ebd61af7faa4579467c27d6978d2359,2003-01-08
e9ba42e5b69171bda812651429c674cfec784803,2003-01-08
14845284fa74754625a6bd6363f68248c2127522,2003-01-08
f620635cab381eaea9d519a54980503530750dac,2003-01-10
7166f379c027689b1a9b5f5c1ee9c76301430eae,2003-01-10
e40c47593a25f133eab20d038b0581a191c8646d,2003-01-13
b55aaaf8b9eb9671dd41521a6be7935bf66b0a46,2003-01-13
40a9118154cf55aaac5ac77af4a11cacb0adeec0,2003-01-14
664845e171b76698e6e9cba36f0aede20f47e9bc,2003-01-14
41720fcf58e6a6f8787bcb39e0f7336303f153f8,2003-01-14
86b2b7cf7b557652f8fd8f6e0d4fc8a7dc687abc,2003-01-14
df5206bb81d06da80fae3606baebba22a84dbc02,2003-01-20
c88be75fe60b687d60d7a986b76d59ca478567c7,2003-01-20
b392e2fde7818977644097b4b4d1bfebd442fa91,2003-01-20
75dcacf10609d726c6910dfc6adc3c3558996803,2003-01-20
e23bf643326a66260ff115dc7114a19ab7e4c2ae,2003-02-05
8aa8512178ef5aaa423118affcfcc055adc73113,2003-02-05
c1bcd39dcce51c291d48b08f2695da0a539a4d1f,2003-02-15
5a8840bb03c219d5f895c25993619827dc7f3801,2003-02-15
7e0ec28cf31faaf22a2b42ebe5d64d4b05e8384c,2003-02-15
6d57725eb9387c089980f307a3acfe7318c8e9a1,2003-02-15
cae8107a35002e608711168cfbed288693888e0d,2003-02-20
e896c69b522079ffc466dd31c25458f544d9b285,2003-02-20
46abeaa9ddf6cc4065303806a70dcb36c8a6c192,2003-03-09
2f4b91772810ed48d879d705345919a6d160131e,2003-03-09
ac6922fa4d9b7550092d930b1b529c2a8976be83,2003-03-10
6b5c2c849de0b07920b7c43e4b8dcf9d214f4867,2003-03-10
b90cbe8f44b7c17ef28523002fae7b3d202ac79f,2003-03-10
acbd2483fbaf8cfc6f9b6b1b5686cb5a6b702abb,2003-03-10
0dad0f543d8adcac3ce0e3414aa47dd627f2b3b4,2003-03-10
269b6e023b5d34680345fbf1790362801cedccc4,2003-03-10
e838e6f35ad6f4a9fa14d941a69a1913e6340584,2003-03-11
17fe5fbef3ccfe85028c531d88fd270e06d8a80a,2003-03-11
25dc288a6856fc2f885e7c19aa36ac70306ec63c,2003-03-11
086cf3c20cde9be55f3b27764ad8dc7e9fbc93b6,2003-03-11
0d9301a25229c0edd1f0437c0b2fc0b9cfb4a904,2003-03-11
77b76f38f9e18c8fbb83ecd64817651fa872a8e3,2003-03-11
98b8c5d4d76566a777d83a76c7ac8684c5e68031,2003-03-11
028bfc03e07fbbc8af1411dac30dd19931433899,2003-03-11
a754e5fc407b6f5f05b2766e1b99b3c0504c62e3,2003-03-13
cb191ef4b5ea04da8b161b5cb4014851fc78a388,2003-03-13
bf7146341a7051085ef80a4dc652febd8ebc4ef7,2003-03-14
eb1117158a1b0eaa30710e7c566b89e49ec2b095,2003-03-14
4a8e91f6bb3ddbec955f6f05919cdd2110dd8b91,2003-03-15
dd969e20ed5e43f1623bd3d3250aef7b42e7b4af,2003-03-15
6e45f26f3b8dbe1d6c487592fcddf53ce8aede8a,2003-03-15
25ef453e1f9db6eec88805bb3173d64a23d3149b,2003-03-15
1321f8410c2eac1a53553ffbfeb932a0a4eb5b8f,2003-03-15
6696540bb2073b56c0ac9e566c1723a6f4f8acec,2003-03-15
ec2297ba9b80b240edea3239f591bae09a1be35c,2003-03-16
f0edfdc8c167ffde6975d279bd51b9bb056d24fc,2003-03-16
0a2d420d51783df8392b5f05f91cf8e9f82b8d3b,2003-03-16
0ae662ae801dd032cbb6f9f2a7184aa21db4d404,2003-03-16
e5237554456960022f4698dddf025fe29ddd3287,2003-03-17
ee175c369f06034c3841b4cea3b851e3c54ec2af,2003-03-17
2cf8ef5737ee3b5377c253f2e44a6ef8b05b8ce7,2003-03-17
d7b5a46bb6917611e86a3512e5a0777537c15627,2003-03-17
fec6c72ec812aacd06b7fd0ed198f9321ed03f8a,2003-03-18
da8c67f9ca83bb0bbba3947e7a772cb8512f2caa,2003-03-18
85e0fc881405ff9c1bfcc278b7abff00ed84cf35,2003-03-22
bbb61159a61e7d8bc106053739fedfa63813f363,2003-03-22
1d2595deb4fb74a7a4170c24d92834bd833e2796,2003-03-22
5b1869a3bf66dda79d2537d291f14e34b255701c,2003-03-22
59edc8b0d493365f7ae0fc7893e5ad2aaa777be2,2003-03-23
2f9be42dfc42452d0c817bbe38121272acc234a9,2003-03-23
350c0463900e0c5fbae7c90ea9383e461111b44a,2003-03-23
f52f747b02b40b7ef181068ff90b43e5eafb80c2,2003-03-23
62d3e180a8175d3b3971a5337cd4fa155f779a55,2003-03-23
980a28eac1fe0d818520aac655cf6ee9e6abe9a1,2003-03-23
1eb9934882f75828f45387595529f15d8a1495f7,2003-03-23
cb78de14f0b836e085aa1a87e440b9ae31aead39,2003-03-23
2f0d2122b25917a3bd172a67d5337420eee7ffba,2003-03-24
23ac3723bd4c6a599f91cfb3b1e3919454e32c67,2003-03-24
0a6aa28127cb011f30064f076cc82c589258cea8,2003-03-27
cbbfd69e49d2f19b19e7b569eba2dfac0ae940f9,2003-03-27
93d33bbb75003c160342d20667648c2aabda352f,2003-03-28
89928b682a56150f8f3aaee1fcd449d78b4396eb,2003-03-28
01a235d4eb6092bf8329117b21402e3052903639,2003-03-28
127ef8de603f2bc0bacd1aff9c6846369b63da8d,2003-03-28
72d73636fb815a8dad6ffd5f8f507a587ca08f22,2003-03-31
278235d27ebf6e3df081b57fce237c40edd8cf90,2003-03-31
ce7ce31c536cffb7d7fab05a8341074e69f4db66,2003-03-31
9ba98dbf33cdd22adddebb172494ebcf54aa4806,2003-03-31
de2ac54d98e526a6001f898d16640af7df3bd2fa,2003-04-02
6eae3b82fc8820c9e20204336d92adaf785eab83,2003-04-02
5ae200369a285f367c2cf159ce0611919e48cd44,2003-04-02
f13e4f8c790deb1a39f1bc4b957a3d7552d4a751,2003-04-02
5e91398b31582ee35ce816e4b9a8a09a312a61aa,2003-04-03
88dae5436e3723e01219d070638f72e9c6a81c32,2003-04-03
88e4fc4a04e6e6bda719532a88008623b123efa4,2003-04-03
b61b8f26024d1acd7a19b340db62403a15169791,2003-04-03
663131a7dff8fe2e9f01cf279124bc033e221e88,2003-04-09
1215d81be7abf6e109a6b98d7578c57d324bc8ca,2003-04-09
a9654b9a41e984ddc37e67f1a057ef03bc063e93,2003-04-11
89fd1769fadd592c6c26e690265f3ae0c391c7ac,2003-04-11
4145b325ac7e63ca08c0a7a650de283ab97a7fb2,2003-04-11
5a7e2dea9037f9bcf37972b4eb8285bee77cce4d,2003-04-11
cd1499a6b0112707dd19faaf3e54d2640591d3ac,2003-04-13
e547d4cb43ef932a940bc1dae9e7bbb461bbbaa3,2003-04-13
3b19985c841c46b5cff7a2666b80128ce98adb4b,2003-04-14
4fd9d9d9f3e754d1f8f9f76e237ec9d09c8836b4,2003-04-14
930a9b8309b82057b0cdeeacc04e1d2fddb686d3,2003-04-15
0f92dffca7eb4dc15075b0a0946981d470220ece,2003-04-15
f26e2c5a49a88dbcb001b139c42d68b7345505c9,2003-04-16
760839bbaa23fd3fc50213a7fa4927c553473ba7,2003-04-16
ff61d8a248c452e6467fe000a7cf45b0dacc1c4d,2003-04-17
cd30b566e42fca87b888ea5f683a1e51fe798a00,2003-04-17
7d4ef345857a06bd34840fe01d522f6ef3fb5478,2003-04-21
022aa12f2a55357b7ab63ae90e8a259669d4a400,2003-04-21
ecaa73df2276e30553be6958920ce2035016ebb3,2003-04-21
1ee427d168b4e430320111f2e1b091959e55cc7b,2003-04-21
b348d5d9c228310d2fc4c399ca8541cff6e454be,2003-04-22
66bd09d7181efb8c2c1fdbba543620cf54e5750c,2003-04-22
4016d6078f8f69368ab899c1dff525a662d5b24d,2003-04-22
1751d3e635ca159863b7d9ee86410b524cb2778e,2003-04-22
384687d1804be03d94178be72c7115e066f34e20,2003-04-22
19e97c40ac4650f163725fadd5645a8e5f304e52,2003-04-22
1c17c598a4f7265f42cc69962cdd7e6423adcdeb,2003-04-22
449eafc7f14e6e34ff09fb68545060e91623fc88,2003-04-22
7ca63093ec240d09a20ed4fc0d827611db9e53b4,2003-04-22
87fbd4e49cb487fc49e3ff8c0b67f4d775f0d1e9,2003-04-22
3b55b1c06f746443838c62fa3575de96110883f7,2003-04-23
5b9a060b2ab3b90439b5a02a4cc2084ae8a04b9c,2003-04-23
9817447592ee2e740c5f3aaaa1deec7873c19b57,2003-04-23
e30274f90458c75c29c61f165e2b1c0bb32c8ff5,2003-04-23
dbc3c7cfe165907d5711ec7a7825351664bc78f3,2003-04-24
574784810db33afe2d6b9b4b6e62471f63bafc1e,2003-04-24
25b474b35c445c25dd56b15de4916a9003efe53c,2003-04-25
eaf1161a6471103bcd5b653922f9c812307d19dd,2003-04-25
d9fd67f978911e78aabb8733efde5515acead8bf,2003-04-26
b8b7d94b027bf9eb8da229ffda821414550a91b6,2003-04-26
be5605a198adfa568605b5915c35c10e41a3a324,2003-04-26
d5f5924788787cd04d5050116925cff4e0d78d2a,2003-04-26
0d41ceeff4efaba5a0e748467b4f91d39aac505f,2003-04-28
23d7520df2f2ec327bb989e78a48973a3fb5ba28,2003-04-28
9190e708b75ed139d34ab257e967419f039b7eba,2003-04-29
31b35950bff5306e967bbacf1bdfec61fab669fb,2003-04-29
1a06cd7c2423345b5fdfd57921d521f0afb78b27,2003-04-30
28f328d3b52561c73b14e897947320e7946206aa,2003-04-30
32b4febd19546a611e03425dafdd6f5d3eff0856,2003-04-30
d142cd4e82ad5b3860f9f864ea0703ac1c793f49,2003-04-30
2fc97854f25710c6211eab127283b542853dc702,2003-05-01
52a4689748a0c907d250e372cfd52c775d6cb893,2003-05-01
42ba576497effccdffa4117d5fb7f0813dc8792b,2003-05-01
9ae96ad04b48db93a852702fa7a63f3f9c620354,2003-05-01
12a8cbcde68cf07e11de0ec1276d1725621c6299,2003-05-01
c41ab5e632014207a6d852e7c02e02ad3190979e,2003-05-01
876c9cb7589bb6ea13ee04254dfd5414e294d690,2003-05-02
5ae6d1fcb81d4f225f3faf364c7a460d2271d46a,2003-05-02
93a822546806109cae3b2fcb9d854550c1ee58a1,2003-05-03
648537cedff89270be111351a26afe2984456254,2003-05-03
2a34cc415e02350cb8e4f8e8a824976478b68521,2003-05-06
ba8b3eff50cde0bc25e8a205ef1e44ee51e8e888,2003-05-06
5024b36fbdbb5bf2ba0d9610cfe481ebde518ef3,2003-05-06
a027d5837a6f66d8efd9a98e0cc893f03aeb08fe,2003-05-06
c21ad38a066aadac837a4e39041e8c37516e4a19,2003-05-06
838c7e8a31d52f187558fe1e192b65e1c2c6bcf1,2003-05-06
7641fcb0769a27dabc0429281a861d2e4c10c5c1,2003-05-07
962d7dea3d9a8c66c072a395616f25f066fb5809,2003-05-07
cf575a0434d4f4b27c2efb30e967ce84472ab142,2003-05-10
5334a0965b3a01c821e719bb7fea486d34d42aef,2003-05-10
ecb79120b2b339b6ef686f5bbbf7ea9ac33f61b8,2003-05-10
86ac71918992402e5eda2276b3bd37a1a277da2e,2003-05-10
5cd00f616e284ff13be3cbe5ab5138ea61a53c03,2003-05-10
6c2ecb0cd1113612e18c79bd3b5129f57edb7a88,2003-05-10
8f21755a340928d3d63cce421851b1d444d0c56d,2003-05-10
a721a4d983e550ee967927886e294985991c61c8,2003-05-10
172702eb1c6253a93fb479e44047254bd3bdde25,2003-05-12
4ea92f00f52854951553cca02258a49d4bb99767,2003-05-12
0ba50d073517c933dcce3a2217dbe2c27d9612bf,2003-05-12
b505875f0ab540a7bf9fd8d8c6cc33ae898ffa4c,2003-05-12
cb19430449cfc564bf6ead4f74e89387768fd3c1,2003-05-13
1eec29be1fdd357248907dd7905aa0fa83876868,2003-05-13
eacd28a39bb08f9ca6ed05de97f2d55fb6fa7a52,2003-05-14
486b8f8ddd766b011394ce1f60799f548a7533f9,2003-05-14
cfe8565adba45fbe31b0ce459667f5c0e8632c51,2003-05-14
1ad697e628de8e82276c21d8536eafbe9d91e159,2003-05-14
7fc2b01af6c85031b05b516372d66ac608ee62f8,2003-05-14
f11a8895a7a22739c046e91d908ae6992af91557,2003-05-14
8e7863aaa388f20bc8d7d0f23e624005e4a83446,2003-05-16
e50ce4a11381d4b59ab1c6e609a0382cc48b893c,2003-05-16
763819a51cb6b41797e9d532679014532dff62c9,2003-05-17
947ef1a4fc3b8a932f9ef823a870d435f574ecac,2003-05-17
bf729d7a6415dddde8ae3ba10ee22c88ea0b37f9,2003-05-22
39f74e1f2f028224dee4a670a3467be2df10ba81,2003-05-22
32e29ae76a720c99d69cbe6ef3dde796f01d5c00,2003-05-24
20c82d6fd70cc970c85304e012860afbf2b7cb26,2003-05-24
9eaaeecb2ae3feb1d0bde5549d760fd61f683eb5,2003-05-25
0011bcc63827306054737fdb8332852e9f899a03,2003-05-25
3b24723fd9c1b5a1daa1dff1d013cbb5fa65b36c,2003-05-28
3ed8df03d308f3677300c550adb19d2b775ad202,2003-05-28
a9a3614cb38d63921bfac6883e6951d622eb7d59,2003-05-29
16e297a4af3749412a0f0062348ffc8e0ec2f246,2003-05-29
186f6253242a7b497e59bceeca2282bd3faa319d,2003-05-29
bfe78d6bcca32e7fe4b78a0f87677e41299f6151,2003-05-29
e6ab800aadad445225cab9a4e8cdf104fbf43cd0,2003-05-29
94c70a98f9703d3ec2807714307acf24aab0659e,2003-05-29
e4d1877bfe7bb1ed452b735f1fc5a6ee31e0dc14,2003-05-30
6bf1bcb2fb735f0a5c1642df69194cc82100ec12,2003-05-30
e11965ad1c786c9c4699dcfa363626f915179a19,2003-06-04
ca5236ce8b11b9ff468be35a7354d39087b90987,2003-06-04
2d55ce469744ca8daa34fc72178c7367fc86ba29,2003-06-04
388cbd4eeea940f87e345071d807ce76973c8dda,2003-06-04
3eb7528ba5036a4f1ca6c4769f63de1bf174cc92,2003-06-05
f24af21aabf4a8d0d3e3d03769f7e524b6fdff52,2003-06-05
2c7c3b59404dc4637355f4b128d3213d7e771619,2003-06-06
3b6399de7f3dee9a14d125125cfc304933959615,2003-06-06
27db04321dabe187f8286d8af712d8488c21c00d,2003-06-08
a420e0f76153c652ade8840890e45ebbd6347863,2003-06-08
c3beac919fa7a1652a99fb2d094672f2ce32a805,2003-06-09
848143de3a4cb9b16db772db911cf99af80712c1,2003-06-09
bfa5e22f672d881836251030d027611c0d27f015,2003-06-11
898ceb6ec60284995681ec8da431c2a32b9d5ff2,2003-06-11
4a904179450b2fcd076e5a0fa126ef7a31702593,2003-06-16
e6fd64c34831c98c5d2fe4c3a84d4b7cb3c89cbe,2003-06-16
c1e2db798b323c3ef72c25f0ebd4d81801247acd,2003-06-16
549c2b72f406e30e4558f48e2d56a9e15d72d9d8,2003-06-16
5b9072d42e98f446b4ee8ef735a58ea74c5cf583,2003-06-16
e167d289fbf4dc3bcf7029a9a8cf64203d3241d8,2003-06-16
972779420b729facdd781567c283d15d840b48c7,2003-06-17
0beec06c33f374f29b0902de3f7adf3a195982d1,2003-06-17
c70a3f64359ef0f7b71f833094cfe64cf88fcfb7,2003-06-19
526f4ede8384c2e3bf23175d52c61afea9098589,2003-06-19
4dd3e3b404a1c29755b79af248ab3f289b0cdf5e,2003-06-19
08a9757a7eacf7db261f61da58910db8690a167c,2003-06-19
38a0e428a0aaf89f14b17e41ac72cfdc484d8ddb,2003-06-22
ad5f9938af05e7506277f83f4ba192132c8effc4,2003-06-22
d45fe4bf1c366df2c9f8ccb8136ce40059faa041,2003-06-22
877b72134573327b7fbf13d09b4644139376cb1c,2003-06-22
bef87bacf54976bdef08c274034097f492de5a63,2003-06-23
d1ab9c728a82c55ce8ff91fb963780f6165aef45,2003-06-23
fc06ef75001e0f8e0de7584069fa4a601d28c2c7,2003-06-25
a684304a32e19adb4de8eff11f49526682529dec,2003-06-25
4701bcb1e3acfb21ffe0ffd40333e9c3e56b7488,2003-06-27
8407163260c05ee421e73f194d15d80817a6b09a,2003-06-27
a4e2a8655928bdd8b4fd7a5adf4ad65d0d987fe4,2003-07-02
620d165a41178b502b3daf1e391165649d1783a9,2003-07-02
30123ca0c71d860f04a77a73aba009c8dcf669f2,2003-07-10
01bab8d6f1fad78ee274ac974e75bfa975468f77,2003-07-10
3d71046665c284f18e07035758f9b956e589ccb7,2003-07-15
d9367c8e9aaddc872690fb74a136c80de59c5b91,2003-07-15
b55a8651e19b383f153be24aca7f3a96c0b4d3ac,2003-07-15
af60402269de5af5d8372ee7fc19e92f87d41b45,2003-07-15
b731540109f7890d22fa296430e04dd40110a626,2003-07-17
299c7bdbd44e197e5a124c7c0bf7f06b64b5be40,2003-07-17
c29dcfb5b2a32942197e073bc27b61dcdc1fa4ef,2003-07-18
f9b5cc0492ddd7aec18470f29594c23cf61d5adb,2003-07-18
6d46bef04f451cfbc45f41211410b2bb76dd2dee,2003-07-23
8e412f623181e81aafdfeb38df2c13afd3ff1c51,2003-07-23
2db4ab9a8765001b9556bebb7f583a2200815453,2003-07-24
794ebb233a0e46144afa8ff646fed368bdb5acc3,2003-07-24
884889fdae7d9cd28c2450eeead0af99ac8056a0,2003-07-24
02c6c287774730527d78c000ad56b381d0d53c28,2003-07-24
26b67044a96c9a1ed4f5935df2bd6bcbe4714bab,2003-07-25
16635889e14b764ced23d7e6ce6a97c9aeb8cca3,2003-07-25
0110da16da7abad5cbbd9d8e295b21786ff1162f,2003-07-28
5917ac9906cd0b1d4aacc7207cb48699624273be,2003-07-28
1478bc2eeb4aa5072a4b68de66965c541ec44df6,2003-07-29
5773a7c732800657bd6ab007995674247e4080c1,2003-07-29
3855f9f43cf6c64886010ff81b60b768d4d8e8c5,2003-08-10
54743e93660d116361b25a102fff44d80d670634,2003-08-10
01aeade41106a58b560b1f1d6a1dcb82abc89cbf,2003-08-12
9f7987b953f4474935d26b8561de80eb286862bb,2003-08-12
dbc17faf4e8ced3fd13778b954dbd8d5dc73aaab,2003-08-12
4baf4f0e489ec521432c164a68283477f58c8e72,2003-08-12
c85b130788135e0f5fbe4b6892bb9a51bf9d2374,2003-08-15
7a7f640d1e99f151c723b20966b44d92dcb5de07,2003-08-15
d8e7293f96d0d5a4e8f0b7dcd597ea09aa12c438,2003-08-20
303e65f437285cb191b7616c9f0ba2a35d0a80dc,2003-08-20
20af81a7c735ddd7b5afbfeb9ab961e5c39759e5,2003-08-22
80c9ba9e33407ad9ec44b6236e6311a9cb1af7d0,2003-08-22
df87abd801e0b3037ea2fc2bc9465f47757c4706,2003-08-22
b7a55eee4b8a7274741b89df7699eda9d3c9f541,2003-08-22
a337954bcc7a572a587078feae1f3d0a34d7270e,2003-08-22
7729cb7780a60a6c4327816984ba4ed1d1f1d23d,2003-08-22
56c577d1f0674db00007103e1c6fdc35bf77c3ce,2003-08-25
0b23230f79c0a32d95f84286374a81a0e52e14b8,2003-08-25
f3acb0ec1920eafa566febe7fe11d714192cdfb7,2003-08-29
3cd0de181249113b823366f3605af0f1950e77d9,2003-08-29
fd4fd77623acb89e47915138061220f41e758289,2003-08-29
f7ddfce4e72c11d1de615b15744a924214e411e2,2003-08-29
c9cf98c726ce30b9d367ecd6bed8c788f32cc87d,2003-09-03
97568ed64895d87d21bab5a866e2f226c886aa94,2003-09-03
99d86fb86498ce4b5d027d30ee3084343da29a2d,2003-09-08
282287ea1837915161f92198ae6b5acc6d7390ff,2003-09-08
34c8ac64b6726786c61e41363131c429ce82b592,2003-09-10
9f8a6b798c5dd265ce1a73f0ebcf6394c13fb26c,2003-09-10
a96bc498aa07361feed28e3c33c8733a90b31b51,2003-09-10
6fb3a7f1727daf93e7dcad469310d07cfd128120,2003-09-10
3637d38abd2ebc5e927be40991748473718d796c,2003-09-21
469eeb85abe4d93d91fe4279f1047ee8cd8be6fc,2003-09-21
b03461bfe10276b673e66539e2dcb49064b7267b,2003-09-22
48f03a90c4cccacdb02d9ed8b65cf06a4883081d,2003-09-22
630ecbd26b84784c6b3ebbad0dee76ba38e302c3,2003-09-23
18140c5422e961ce31aa5d57983414a4753bcbc4,2003-09-23
3a500e270efdec1c9801f25b0d1b2bf652f7cc40,2003-10-09
c2b433452210c2dfdb5a757c193b54497e8e17fa,2003-10-09
32a29d7fa3b15767545353877e94d43456a4720c,2003-10-11
c199df39c3d040665841d79343ae3eae4c134196,2003-10-11
be0904ea2aed1cb48c142c947a6bee53f27cebf0,2003-10-22
d9b8d7ed412442d1c74de4ba538f156b9691e2a8,2003-10-22
3c21b259ae5cf21b3c799cd9a4b7ff514ec70368,2003-10-26
b3eb7df8ce4d93fa9490eba52ea109dea5043b0a,2003-10-26
6d95dad1171a43d79068c718be3c27782b01c161,2003-10-26
b4ef9ca2c6d4bde94a2da4cdf0cce4952874d44a,2003-10-26
83eee7af995ff70e33b223df4f7827182c03dcd2,2003-11-02
dee7badfc95965f7c77dac6b66d49ca1ea66a994,2003-11-02
f04d508eb5128e47ade6df90bb432b8694481bd2,2003-11-06
583079f147a12ec9d1ffafc354dc19529c525126,2003-11-06
7bdb42d1dd96e507d072cc8e297a2428e34c0a1e,2003-11-07
6182d10b84d291fbea7f65aa39c22eb7b7d5511d,2003-11-07
7ef2135d9d328e7f3d7ede5c973581680ba7f203,2003-11-12
c5e88ee21fa862f20eeabd4093ebb2e944572384,2003-11-12
37c21db5835f044c8ad4f62a04c5b56b52c54f84,2003-11-16
d4157abd0c50344a5fbf37cfeb63b86e6d7fa058,2003-11-16
3040d22a9e6caef4e30e3057f1b6861550ec701d,2003-11-17
7043a42c364ef9f5fb63e82a47784e956219bde6,2003-11-17
0c8ad5d64890b0888315ba0bf298eb76d8c7346b,2003-11-18
7bad83a4b546d1ccff08b28ce85636690ad1c5c9,2003-11-18
98bf075fdf1f7db64112c484a2fefbf475e5e689,2003-11-19
ca7bdf500147c27e3b75a2cf4a7c2263d7871259,2003-11-19
fb648b14122c9ee6398037207585cfe56861b59d,2003-11-22
3b11bead455e6aaff48150bd957ad439f3c8adfc,2003-11-22
e1b62a96225fecd4c1e3b168dfcca96421ef1d35,2003-11-26
0eec2d2e218c996b3787fe234cdb4bab8c2ab17d,2003-11-26
1a745285ca65cbac99db56872aedd59c671caf96,2003-12-15
cfd62ea7306a2e8b202c8143e712ec97bb057471,2003-12-15
3b24b4208bb01e5fb8c0748adaac56bf9239792b,2003-12-22
f7d0c905a64f6dba2094b5e8e1a0c5fe5c50d6d8,2003-12-22
e8fd33fb1fa3f5cb1bb746154d805ddf9cbd2515,2003-12-27
8570ee39736136d0ff02140a0dc3cc769f7d3714,2003-12-27
8d1d94dc7d801fd02a0ea99b87d0a51dcf4f6414,2003-12-28
e7980cfdeb0792341f661a16c02168142169771e,2003-12-28
bff2cac6e5c5931b495002bafb5ebf1809a5c5a6,2004-01-25
7702061730ad1cd51d2df0e1db96cded9505c116,2004-01-25
c966f1d72f3454e1cb902bd5de285ac26fc4cd14,2004-01-25
867a48119b090ac11e4d0220d9f2a7eac7570735,2004-01-25
93d78bf7afd306357565685750b8f17f8f90e8e6,2004-01-30
166e364e0f79f679b7f112630646f6f72c6cbc42,2004-01-30
38fead342d5bc8181ab0ec50c8cb711fdb63a3fe,2004-02-22
e65611fae074e246f9b0869ff447030704cdedb2,2004-02-22
913b5346abc611b83ce519fe4bcd455f4900edb9,2004-03-06
f3c8cf060e62600b78f5e54e10e1ab5cdc701514,2004-03-06
73e8435f9e86ffd1b3588ae693f53c6b98bd523e,2004-03-19
90d72a61463ef6fdb822be4e6617906030dc98e9,2004-03-19
37479d3e1e6774ec24530e30ad4c991e661f49ce,2004-03-20
455e89f947f90a50b544465d6b5768c5e5d24cac,2004-03-20
6f52074c0ecf0f9d3654e6327eac8c503e24e2b6,2004-03-28
29e83bae0b451a6a95206549788b84cc8aaad9d2,2004-03-28
50924bbcc96a1898ba2f68bcec4296fa263d87c6,2004-04-05
ea9520d6860f8cdaa3f681f5631ba953fe021be2,2004-04-05
63a3685b657f0e6a6b8c49eafa3dc80a6e73f046,2004-04-06
b4551fcac4ada66006ac915d99df361c354d2dfb,2004-04-06
3f235e2985ac9c9955fbf4806d1f77d6ded8be11,2004-04-06
78e8d3ec50bbe630664c8cd2bcc379a33fb60a5c,2004-04-06
c32324736bf82c4e5bd98428168ea4ae354b37ab,2004-04-06
6bd3c6783545e8545bbc7596b4745e221453519e,2004-04-06
ea324b85ac0a0a926c49cd0ba6e9c7522c0d1f71,2004-04-19
4f2e923f4328f51f6948c7ba052c7d0289925560,2004-04-19
5cda71a24b32f512f72ca3f7c214c00b042a7330,2004-05-10
3516df13a0584d94e4b7583719b43cba40dba39c,2004-05-10
6d2de41bf61c0e5c6e8c6f4397da40fa2f0b32ee,2004-05-12
f3ebee06bde7fab9318b74251194eaa0347a234f,2004-05-12
afa147904de8d9cf5593539171565e2b36a31e8e,2004-05-28
6b58ad6e19ccf2f86c84a0fb693efbc4f6f43cf8,2004-05-28
5f7d434d83cb60bc7a8d2d692c488bcfd472296f,2004-06-08
bb218a79f382f1000469f771630fee38187f900e,2004-06-08
03fe74f0110f0259cb434c6174b5f5823a589a61,2004-07-17
595a21741c758d3f5c7c11af883fe9f368f10ba1,2004-07-17
1759af3277243299537dc7fccd42462cceada5d7,2004-07-17
71a7c9b397a0b3606b4a08f708a327757d38feaa,2004-07-17
144cfe9a7194e4f803fc9ba586296b9646b1621b,2004-08-28
6501fd150ba4dcaa67e93a485423aa7cc0267285,2004-08-28
1d82f2d7f2cf381eec4d6bc5957782a7074b826e,2004-09-02
724dca6e94f1d7fbc5375b30dae123961e8966c8,2004-09-02
4c5c3704e1cb986b920043b9d5d0012444b5b809,2004-09-02
7cc40fd7d04a3d562714afca368881eb29f12e67,2004-09-02
e565f441e81dffdb9824900499dff099f24bc2a4,2004-09-02
127775b7206ea263147276800c39b87ced70eefb,2004-09-02
2f3e3d5c38b1972f5b01cb49512f1a25ac102422,2004-09-02
748fa32d76173bc884fd67f54645b95360e084cd,2004-09-02
73fbfd47426ce94d01da3e4c6c7e75f829ced8a2,2004-09-04
a3468973d28c5866e04487983a5c903080e472de,2004-09-04
d37811fff861de3977503b5b7fb829a373899224,2004-09-04
3d4268df3db95b9326af7a31c30232bba02802dc,2004-09-04
c154a03a8b77e4274ac59dea5c7c07619e7a2bf3,2004-09-05
e9e713b72b5a99efecaee8431d2e7e73a56d5d4a,2004-09-05
17de4694de91cb247a4d60338818860fb0d793e5,2004-09-13
42d6c25680cce610449eb7c7f420c1f0e436cde7,2004-09-13
f5d190921ff86512a3eae80f06d7c8195a42a3fe,2004-10-17
2aae3a9563e8d73cf454288d5aeccd9ad7224d21,2004-10-17
bb5a6b935fff95a478af8ecea4fd340b467a4a70,2004-10-23
bca5f353d1a55784c5a15069e476a990d4ccc5fb,2004-10-23
43b1080733c14a46623cf90b634d891860b349e8,2004-10-30
630e368af070eec6a928e267d57f8da332d28788,2004-10-30
2b72a8e0d3b043476ec3d2eb686aee7bfb094e6d,2004-11-08
1177c703b503caa459fd58221f665c8efcf2f370,2004-11-08
bfd36ea47463bf6fef9f98e36aacfeb6fb07ec6a,2004-11-22
40c228020d79ff6ee2df63f00ecb7ac9b1643bc0,2004-11-22
67a5b3d7c896a2bdc2c19aa0d5c1557b03c7337d,2004-12-05
3e7290547acb8c119cd72035adbcc1f9fc527340,2004-12-05
418fc59b93d038ef4ef93d0e35872327d347c4bf,2004-12-15
919d1dfa01a78203fddd7cf2fede648bef07f3a9,2004-12-15
b5a7427a11af3f9c74980f840a3494e4bcdb9d5f,2004-12-23
5711946d9ed1ea0710c0401b69388a28903aa8e9,2004-12-23
f67e815dc4b6e28349b83fe978678c18c868f711,2004-12-31
1c89e684c4f4ceaf7cc2162c5b3f4508187ba5a6,2004-12-31
927e99d8c28a414a1e3a1f8e0af85f78b45329d8,2004-12-31
c161df9bdfd91377cbde758ce1bacb921a44233e,2004-12-31
21ef0cb2c90c82795cca807f9e3bce14b22aeab4,2005-01-09
228e39b1bd28d9b29fa861fa0923c5b84387055c,2005-01-09
ce1da3e22844b7dfd13895cac3e367f875361c47,2005-01-09
2b813474b62996cb96eb4f4ce20e8f6f8862cc60,2005-01-09
862207624354f747d948f0c25cb7dcd727445ea3,2005-01-15
d5dedc180508e3b6674fde6487a1b6a469776758,2005-01-15
44fd362ef5444a91f74666d09b013a31ec42139d,2005-01-18
44836e09bea61133034c8b457e346441a0778e75,2005-01-18
a026b7e4e5b10a20c88854c2bd2c2ada94229a4f,2005-01-20
d2b7a7e91bf52d7abb908a51bafe4f4dca77d202,2005-01-20
f5f4260bbe57a65746bbbe5f7394ed0f97db8d22,2005-01-20
bd79a9068b5266528823c7da4549d6cc71923621,2005-01-20
5a407a450b3d0c3fbec2a51fa90a3f5b265b6d45,2005-01-21
2be6bb72a90c4fbc710acc49c05bb6e92bd582fe,2005-01-21
5670750f5969628b688ca59d76778ad6f0b4d52b,2005-01-29
dea37564fb36b13e31bfeb6b3c56eeaf556b8ef6,2005-01-29
f299c0fadd884fd9242db671defae662b1d80ed1,2005-02-05
5bda0ae1e03d69332c2bcb8f0f4228dbb3551d97,2005-02-05
c2b4838370546d65559243520120ac144ae8837a,2005-02-11
3f133bf4a93fa282c71511a41ad94cd86e066fff,2005-02-11
572dc995ca2d422214b6d645a53ab8e33154236d,2005-02-13
c615ebf9ae8a4f89e920198b871c6c1937fe3e30,2005-02-13
1ae0af428b45d0ec45ba57fd30904138aad56c2a,2005-02-14
10caa3076edf8631b17c5a378a7e2edf7f65821e,2005-02-14
a2975b7a9b44bfd365e431e76b938d39f2434942,2005-02-14
bb640a52797f1bf116b51a04deb3907c0c2dc73e,2005-02-14
5fa804d5103e225469e36775726738a08f335079,2005-02-21
0b84dcfe149a882f23da1e3b6e89f89428067a57,2005-02-21
f89b60e9b4f0d2cd3dafeba0ff542574e2b9f29f,2005-02-21
7e6c24e3551ef7810a093da1406e779c1cfce01e,2005-02-21
7146309e00729e10c443afeb61a0a02a9f5667a5,2005-03-10
d1897084ccc302878027e4786b31b5d45d2c9318,2005-03-10
da4d3af9fa55ca31269c989c90458fda1c5d0273,2005-03-10
fe21ee956d86b3c46665f51da3f9b2a327a4b503,2005-03-10
fbf5e74564074e6a965bf7bd68171c4b978025af,2005-03-10
8e4f6217b6f86a92cfb90fdccfbb37b6e62012ce,2005-03-10
d314d5c37177948bacd03df4f10ff2aa1b6475cf,2005-04-11
27bc5b0c14cb5a168e6e28774eb4d2f3bfa1022e,2005-04-11
59e564ee20da2c05835dba9f59cbfabaaf107301,2005-04-21
9b510dfdab77f4d60d5c2ef36579c124f5401b64,2005-04-21
32dc28b599874997f62e08394b7ea08a95d6e9f5,2005-04-23
d41c2abb58172edf27f3f7d6a0282d8d7092f9c7,2005-04-23
c597c75349f444faefc4919b54311195f378baff,2005-05-13
a2dcfec277606580153083a35f5721141b581c2c,2005-05-13
318aecf83faaccd379469867e3b86ba61ff93d38,2005-05-21
665b4e99305f1bcac3b529cf18cbb354dbd59cd5,2005-05-21
85f90cd790b6329c795345c52e99f3811da2474f,2005-07-04
e43888ac678cd440e3744cac20e283d9c11096f2,2005-07-04
e082c19af3e576c662a39cd6f87923c1521844f0,2005-07-13
820eb8853c47bcd07db682aabbb86cf67bbcfbc2,2005-07-13
5c29ffbba11ac914417343d44d9afc11beb5b049,2005-07-28
c0deb23327087c3793e3994f48ff25abfebc2d5a,2005-07-28
44bab0293e17873c014bcea827e37e3b36323ab1,2005-08-02
4e3dfc4567303867f683a9f1d9e84447040856ac,2005-08-02
20a9f8a69033b9ddb83b66c962b9a0dd3930392f,2005-08-04
98c49e1340cf2bf7db4226fcbaa0526afb99185d,2005-08-04
94aeb882188d28a809ef2f7de8cf06a13a16ff5d,2005-08-06
7856e8621bc29f0989b1c7d5e4f747699d45ec40,2005-08-06
6a7d3a22e5815109e951f31ff98f3a533791ec6e,2005-10-06
05422cd0f4fed7fb2b3d3a213ac7695e4011e793,2005-10-06
3664049ab082f25202bee27d6ea0a68dcea8f0c0,2005-12-15
5ba11840f8dc151889dd3aacd34a06cc67b2eabb,2005-12-15
3af628cdb3102ca3541e7e3076e587f866cf4e02,2005-12-16
759ca0da9d0ec4c16e45baac7ec7cc202d78d5e3,2005-12-16
5c995ced9020a2d582ef8cfd5b2ef97d59f16edd,2005-12-19
f9b6ee26bd3167224b8486503d5f22f7f151c0f0,2005-12-19
18290ccba0b4b9582d0d5d494009c777ccd2c2b8,2006-01-24
4270c6b375202aad0da3e088a543ac8b78e36ccb,2006-01-24
9b0e61eec3e4f9200877bdea9729f0d2871e024a,2006-02-25
d0e95550f1784649f059cee216ac8bebce81dbc5,2006-02-25
9aa189d8090a4305bf2a5026e15edde36752f5fe,2006-02-25
d74573a7f47b345ff4b20f5a37269c6d0cf64bc3,2006-02-25
908f7789074e305c4b15ca9276df0a19363331dc,2006-02-25
c495364210f67c1405047c8f47fd6b0da8c5aa95,2006-02-25
560fa08f8dd84fe0e5964e808b86bfcb6de77341,2006-03-14
f5cf0a0bc328fa83fcc750798208f72b8376d5c5,2006-03-14
32c6b0c6c1e4c41a5514e2051770fa0deff52655,2006-05-16
dae6b2e613f7ca56557fbb4283262d61da2dcddf,2006-05-16
f056577aa71a1a038686c8a7e04017059a079892,2006-05-16
4cfb81e096a087367495752d114bbf4f3f8a95f5,2006-05-16
5e3fae8504efb572d718f43d025652c3fd4d97d3,2006-05-20
670835cd636f0ae8d2dc402938b6e8a2625db973,2006-05-20
9860bd5202ffa903c4e9470644c1148e48fc06fe,2006-05-23
b9b95043de2de83f09eb0e1bbfd10159871e436e,2006-05-23
480a2a8b7317a083754ff04f36369e325fc14e70,2006-05-24
52391bd767b9157e0cd31fd3cc4578f8b25fd77b,2006-05-24
9fafba3bae09b57251608211a2c31c7885f6a13c,2006-05-24
a62e657a81f144b5fa50f1e0988d22b11859e620,2006-05-24
f900ef5b8a34a65fbf07abc615dbed28f0edd88f,2006-05-24
3184c903ec25b027c923e4e1ae448ff83048ce5a,2006-05-24
cfdf291bab0bff7f6b037b4206798bf16a9cb95b,2006-06-04
9c23d616a8d2e08f94035bc8f3f1c9934eb253f1,2006-06-04
b20001b598af3e9dd3b19b066bb835cfa86848f9,2006-06-18
b14929ee33c06382f061bb18195af325d264ed87,2006-06-18
6a61666304c2ad35ae8be3c8d0a8b40807051c2c,2006-06-19
6cbae43666037f771d61b2809150c83cf7ea82fc,2006-06-19
fa6a6ce3465b87fc3a52a603531b3f3bf810476c,2006-06-23
8649f39c742f0b09099150b5a27581e12118a130,2006-06-23
affff7a65a9334545a078c00fba2ed8232d9d0f9,2006-06-24
75070023e931df4257bf1e397cedab869fedc688,2006-06-24
cf9407c032753d555b5d421bdbe2c6d71103ad4b,2006-06-24
0f7fffadd9a55e37bb310a56f6518a23a8b739f1,2006-06-24
7bc135446d2a5e4def65257fd072f9d58a4d47e2,2006-06-27
513f2868070ed01b375447508c6be3837c07c7d4,2006-06-27
fe5079c7b2594447f9475e60db9f411727e90bb0,2006-07-03
f9d0fc0e49aa86f80df43ecc6c0c45051005bc43,2006-07-03
88b503efd6e3627e7ad5757c3434e2e8c65cd603,2006-07-03
d8a49aac2ca6265436275fe9e1d9829022a51d61,2006-07-03
29c6588959bd6b41da0b880fd389f504713e7a0d,2006-07-05
a3668b20ffeb1a42e917206cc0e62b3d74d1741f,2006-07-05
09d649082e08acb7f435ffdd26495a75dcce1434,2006-07-06
f54a3983a3fba7bd3b2a493f1d4ed51649c39d65,2006-07-06
9ee4850eb014e63a789e2c1025a14aa8398cd31d,2006-07-08
967a5d24a497e0e2308b0cc62ebb2da2d645d1a8,2006-07-08
dc189025364ba9f4b0a77100c9491285c2a92f70,2006-07-08
9c67cd0c4b1478c394b666292a2a728f9ce7e10d,2006-07-08
25b76c72886ea42a61d62abadf67ce173879ad15,2006-07-10
8172ca180964147e5a69317b0bc08a3260f64683,2006-07-10
82922de742287bef5fceb6e8fa4b2fd4bcdf3ca6,2006-07-11
9606015a2754d720be6bd8c1bdf7badbb1dfdced,2006-07-11
b5eb4538c37ba81a32b836bb6bdec0f0a1c21be2,2006-07-13
a3c24dc97d842cb4c8cfc776b286c0b3eb68a136,2006-07-13
2869b2b8eb52504eae114a8f09f951cc2357c6ec,2006-07-13
ff98fa98c8f20b2f71565c4c8933e566003a3bc5,2006-07-13
ff91e1bfbf629707fe9b634737ce54c41f5e1934,2006-07-13
320b10e2c9ecea2ae785e9b57ccb713771b5a8a0,2006-07-13
000a578f3cd70a3fb8a6b940deb66fc3df3c0344,2006-07-13
d056d1ef2f7aaf8ddeeeb5056c655536e93dce63,2006-07-13
04e3aa09a65fad8d30d2a97e10e2774e4f805211,2006-07-16
7bc077b04e614ea1fdd41576063b469bc7d551ab,2006-07-16
9752828d9dedcb2bd9d7def4dff2b7261ba2d7f5,2006-07-16
ed7d4f96a9eaa4b1f79adae51477f49434c2a1fc,2006-07-16
ba6c9d2baf032ab400a493d9e6b18dfed8c58d57,2006-07-18
b66550f669f6f0710499bcbe31617762c358bc61,2006-07-18
84ea3f11fc8cb396201911e76ec7d4b8477e123f,2006-07-30
ef798e3d130cdd5b63b64aa280608b057706c138,2006-08-03
0dc7c29dc046db421fe61262488b6d07fb93d7d1,2006-08-11
f8e8fcb79f4f1aba0068d4aec6bf74e9401bbf84,2006-08-25
1e7ab5466d1f63551474d03cc43d3fe2ef8edb55,2006-08-27
234575331bdd55d93f2fc0416be987e3eb9e9b15,2006-08-28
2df77815ecb7c5baef581184cf4bd34566da6a68,2006-08-28
86bd409b13d433d78cfbd377cd887c1b2f644969,2006-09-04
05e982561e5f300d5d8c3693f04b9b3fe57ae430,2006-09-06
52d022c89c37c417fc120de533555ddc3445a8e8,2006-09-08
14fc968801ec303f2453c8d75b243bf42a58be43,2006-09-14
2c26b2f3bae6460fa2d02f44773cedebc1d343fd,2006-09-14
7446c86a47ffa3839ff6b031c554e571efe0915a,2006-09-18
67b12ddeddabb40d8bcb32e89427c5d5c1121c4d,2006-09-20
b7e8dd5eeb970285db1f9d4554c47429cc85bdb1,2006-09-20
f4fa342028cf79cb681dc20ee263eeed6358d7b6,2006-09-21
15f0d33e0bab28fbad4206b608f7b1113dcdc836,2006-09-21
943f19828871c9dd10cf21cbc8f90fdfa4f248a0,2006-09-21
f038910bd9dc510ecfdba5bcb24aa3167d00d647,2006-09-24
64d16d4274aad057fc433870f085643ead03d4a7,2006-09-25
74ea815949aa9169674d12446eca96784371d1b3,2006-09-25
f1f290ae99a352f30a169089c0e3b08f41533afd,2006-09-26
fe6045e2b418161d04e262c828c7ed8b3c7828f7,2006-09-27
63451a483716a54eae643067987e7b64c76886bc,2006-09-29
5e83f6c2850add9a94de5531a641a2699fdfdda8,2006-09-29
8ab5b8f3adb2d048e0065fafacb48d5066272371,2006-09-30
ed1c807d6b00b9ec97055b1f8bdb3543f5218fae,2006-10-03
6f3ed25c032646fd63b4f0f19572cb47e72bc98d,2006-10-03
2e6354928ecca6191cad4aa37e3a150ab5f8e4a4,2006-10-05
fef9ba7f0353ab47aa38b5d263e49173267d0f2d,2006-10-07
8a91ce24eee202835dafe2844cb4f42ca8306050,2006-10-08
3be40a11645dc736f8d0a51589d5cd0295de6674,2006-10-09
47598923ae4bf1a3f8922030c4fc37a20bf8fba1,2006-10-09
10bb6b027f293165c499cf8c7b308430e9d2fbc6,2006-10-10
f7ba3e85331c8e361ff79e2b0017a96e1bdf6adc,2006-10-19
2b8aa6595c10c61f3a5dac452c732718f426ee0a,2006-10-20
379aa8f2d8c38a2d7ed010f1b8637d41c5e67deb,2006-10-22
6f50915d71afeadea7b3d93ab325d1001e026a08,2006-11-09
a195a1c10aa3ab1df787165e45d16ef8088099f2,2006-11-13
26f16b5218e09277f03d3b2f69a329ea073c514f,2006-11-17
99c30789b63593ebf86fe20eeae3a3fe1a1efda6,2006-11-21
814c0e1bb50e85f491cb8e08a75aaaeb07204591,2006-11-24
fb709bd30bc510a29b8271845ce43006c5592d21,2006-11-25
0c5ba222a58318dbcc9ccc74cafbd14fd4f62aca,2006-12-05
ac2b1b8c905c205ef8ef58a56363c8c9212804ea,2006-12-06
0cf53f7f3f1952294d559916a03a42a6a3e1d724,2006-12-06
31b000c9f20fd272965fbcd45e5add6245c51b24,2006-12-11
409122976aab6e2d80bd8bb0f106623e9d44d1bf,2006-12-18
f3bc560fe7447e84978727f77c0ef8eb6f4e8000,2006-12-27
80c59dc8ad655de2d142a8207aecef5c954e75e7,2006-12-30
a22892ff401adfd1f209857e2e9f5517da70380b,2007-01-02
c0ea3e8fb51726d5c92af2104de6bc40b031c304,2007-01-13
8d215267048b47a24fee6e873e4a3482ff6c2dda,2007-01-17
2e827abe4fa873e4f602c7f27df0906d28a42c70,2007-01-22
d4cda20f177acfd7cdc38561d53344940f20d44c,2007-01-22
be56753c33b9cbbac62cb7be285b3fa4c4c0d5e3,2007-01-26
d427b2265613251d4ec5dbe33a0f4a2267a70867,2007-01-30
bcb42d7b32b9e2f213470a13f34d15e69947dc52,2007-02-01
e358a860601f8fce11cd0a34939858955b8fdbd1,2007-02-12
a0e62d4b1dd19e6cce6ce22b648c4d1345ed3af4,2007-02-22
d9fb65115a3cf96ce3fd497022333183f1145efb,2007-02-23
03b2b3abd99a918d11f52e64445ebebb6c07eefe,2007-02-25
f6b6f88a8204c683459cba9de1fa3db70a038513,2007-02-26
63fabe2ab069fb8aeab90ee343f044686dfd0583,2007-02-27
9a20379d463efbed7947d21ae8490958b7114180,2007-03-01
6f4c63fe1e9f761c17848e9e6d6044939802c3ec,2007-03-02
c46748e0ac3fca491740a8f48b03bba3eac3dfc8,2007-03-02
cde26e7658fc59ee3b0db4d3db3cc038118a4d5c,2007-03-02
f00095785cb45aefdfd1a14c509110d999f18c4e,2007-03-06
38df95b1666e6d84d3c1111f9f17a496f6d14cf8,2007-03-07
41591249770915eb40f7104670afd87344fa7021,2007-03-08
8d3df4d8c212f743cf1d20ce5ac114be231d41ab,2007-03-08
128047e1f406d67cb0838a5228f18ae9606518c4,2007-03-10
de42403913e30bfb269b21eca3036c1fa4a93970,2007-03-22
9aa6fdfa4d5ad0618a998485355fc7994e67bd26,2007-03-29
34383bea0c4d5f4e05f1acec6e5b21bc849359f3,2007-03-29
a3e9479decca232c3d7f1692ff9accd645ca4289,2007-04-18
643b85641c78187da83e2279e856d7033303492a,2007-05-02
760bcbbea9e20bcee1dc91a9339ed908625b6e90,2007-05-10
572082eb6c48f3ba05979f6e1c8e139d2abfcfb0,2007-06-09
6f5c66cf064582fc612b6f9f9b57e46b2f559a01,2007-06-12
d1aff824c44c0e5448e9a768f39c180bf0eadc99,2007-06-17
6481c8c6888269755bb2cebbe57c78af196dbb23,2007-06-30
c9ea42e218d330c88a839a04fefdcc5b609077b1,2007-07-02
78771945eda6a6ce13d42b98d1af58b41b8c5774,2007-07-04
4b3ba4b35fe6e6613f618e26530953943fc3982e,2007-07-04
7c28f8b795a8269b69f166b4210711b499a5eafa,2007-07-07
f2aea1dcff9460955194c5800fc51eea8db67083,2007-07-08
f79e51cd7467a72d15d145e4ddcd32e467da02ee,2007-07-09
f4c44925a796a601afb8952a10a46c2ba92a5e74,2007-07-11
1b0ec57dcd9749798ebabb6e0171f7e57c01ef33,2007-07-11
20d439b4e289325a93476c6b572304830d626336,2007-07-11
0a225222d27fbbb17246334dea59662944351489,2007-07-12
a5f416a39c8c88f70d2f2f9b27aaee17a9124394,2007-08-02
7c343f05871ecc96cc7edc09c60668b35ec4a476,2007-09-03
18c16b674221bf6664ec7ee0098677debf74fd37,2007-09-05
4b823117f4e45077e78015601d1e48ebf2ba5f3f,2007-09-06
e66ce342d877145b7174f535de9a212d25022042,2007-09-07
c0979d6e4d56046b321efb15a37e75d0db7f2241,2007-09-14
9c3f6cbecc4a93bb627c53c48ffeafef56f339a1,2007-09-21
6a694f215764a3c4c1d6269e2ac77361b7e5731a,2007-09-21
1250abe9b69dc1d9f83e676bc3fc4001462f828d,2007-09-22
6eacb9cfc83b7a17acee6b6655a5925423695273,2007-09-24
0140f47a86fa845e950ddd2e5c8d5aa7f5aee78d,2007-09-24
13f7eeef353ff57e594a88daaa903e14996555f1,2007-09-25
df19138dc016dfd6f94b145859f2e35a55c8fa30,2007-10-04
82b80411f3ecf3d43a00dbce1c3524cbb27232de,2007-10-04
0ea8f900afd7febbd4d403e5ef715f4d2f6adcdf,2007-10-05
21746522df50d69e0655ab2e5768264f9a8c0007,2007-10-06
8d38ceecb0474f5c6fb04b272e11e42311b36a04,2007-10-07
27fdddf435c5fac8161c6923feaa9d9adacfed80,2007-10-07
117035c9e6edaab32464a8972f0ba0591ccbc5ec,2007-10-08
ead755e14454f1b14386e320963ec73ba947b256,2007-10-08
c5956ea58b51662c743ea8c759cc25990e706972,2007-10-18
06465fd162d5305f6d6a9c02ca685bb88f5dc53b,2007-10-29
ab5816cb7f8d427662426416b93650b0e381582c,2007-10-29
45118ce6d24bc3f69738679a7fa75943b9ea49d2,2007-10-29
d43eaad0efe446f7304eaf247c2fd2bdaf73b2a3,2007-11-07
93bc8336689546fa422159d340aac79e02583c17,2007-11-07
ef02baf07187e1538755561ed628c93e55ce8bb3,2007-11-16
f4543e4a2e1d221f7da214e375c0fb0cdf8acaf3,2007-12-01
7089902d188f9c54648a45c9c4f57ed008bc6627,2007-12-01
4f95b19bfc40bd30101ce2246c98c4f5eea5339d,2007-12-09
c013bd987f8802b343dcc68a49756df45bbd801c,2007-12-12
b6395c9d7f74e42450a8d20ec34825ec85195156,2007-12-12
bd5cbfae4b2019bad9d3d20f0ee389497b8c2a0d,2007-12-17
be6aef09e124966d125db6864adbb424e32002d0,2007-12-19
3bcb83c6f119d477482c1d80467e7a8b34a288fb,2007-12-22
04f0a6dfa032470763c91bd2c829661113eac8b4,2007-12-28
905ac3ea0d305239b1ffb0ad7d62f510dd85c85e,2007-12-28
6344af47fe84bfb3d0cd72e9e4661733e3af6b53,2007-12-30
c96047dd63d86ea4354c4d61f2ddc2549cafb6d1,2007-12-30
0cd6cf2965827ddf5f46244c10b01605ceef7b94,2007-12-30
add69da8105e613ea62e6d5228f61dcc3e5396b0,2008-02-11
65f14a5a935d569c25fa8df91cefdd68281aa6e8,2008-02-16
d9aa3d3db565149f67bcb15c8ca1e82111cae530,2008-03-01
159e79f21ac94f3c3eee4af95732d92ed4c89075,2008-03-25
d1f8b07eca936da7ba2b10ff7b880ccc6ac51763,2008-04-01
2ba14c15ca0c3b979fe8c865653d8246c4a8d442,2008-04-08
c78639c457e340ae27d7ac97183d4bbbbd864c92,2008-04-10
6d944e3df35686a93d3172678ea104e9829a6119,2008-04-21
0fb699161a00cc6d518a6ddb294071d150544ea6,2008-05-01
01643981aa333abf23b55ce77a38e5de5fa64561,2008-05-01
404813540e22cce9a81a84118e1260290a7b91ef,2008-05-02
9716ed8198c91f441c5313c4e39335b5a3c0dd20,2008-05-04
432e379e18d31f09083e49c0c76072566c608875,2008-05-04
19a86ac3b710314b29ec876703f19360e3121ac8,2008-05-06
35b4cede09e084ff85720123d7a6facc0074c774,2008-05-09
a47a5e25fa9ff6b181a6626f8b469c147e6cef1e,2008-05-11
de4930de266055e160a8d18363adfc53a75ce34b,2008-05-12
1d54b63a1ae7d03e31f188703067edd24d862447,2008-05-14
39ea1de9002485942e527e40a7adc42ca6f62a81,2008-05-14
154ed0971f96a06fb34412d9cc7c6d2510c7cfab,2008-05-17
f5ba359031258693a97834eaeae8d909fd50884a,2008-05-23
f187af57e9bbbfdb067fdfd2823a75f0879e0110,2008-05-29
1ca3457aa2685b1c261a92eb7e72f11fdaf92129,2008-05-31
c09c7166f82921b566f818bb13a587a2827c411e,2008-06-04
ad5d509448a8f6ac89b88e10752df5925e087785,2008-06-09
aa00c937a5b8dd20223cd0ff20d0ba13afa9a661,2008-06-13
c4cb3f54b594f6c6c278dc4e29f0bdf69e13de8c,2008-06-23
7d8c0c7a3162d2c6273ac120dbb5e70d0afe1d27,2008-06-23
465efca11420d9de6b21554adf5cb3bbdf4228a0,2008-06-23
1d94be4052a770cf6e21ee8c0bbee544e304267b,2008-06-28
d9f9f42fb5e6c900a5befedd1cacfcbe492783a0,2008-06-29
eb046e58b3825807e6ec4d88064d19d2338ab6f9,2008-07-07
f8d7d12931bf95094a6ea82f0d64e567ae6f0f73,2008-07-07
02b3724b12203b4461f22abb52332f27ef7f61ea,2008-07-07
52c9490e9f56c1607573b5d8dd2106fbd777a7f6,2008-07-08
72fd904210ace73f0ee3d85488253c112376c827,2008-07-14
2371585fd00e1ee39c6a0d84cc17f12cfa37b5d4,2008-07-15
04cd31513d025abe5d38164fe7a68064124fd125,2008-07-23
4cc9e859d74306d1d37f30383c72436f170c2a3e,2008-07-30
0b839b975a908747e1156578a054fb5cae58cb18,2008-07-31
0cf45c42209590f2d3f32b11f378b1589280cd82,2008-08-02
f11a17b9863f2e27f2f1af098fd8d8c63799b589,2008-08-02
cf2020ec96423254dc0f16cba76a9fcdb9441d76,2008-08-05
6174fa2cb9f02071b593c7db98e7f45136db468f,2008-08-10
876258fa3f77aa5e50e0cc1953ea381f9d71be3e,2008-08-12
fbc89bdf692ec4b9abd211506bcdea6b2a0da9d4,2008-08-13
9de98a4e7fef9c918bf1808fc4b7c3a787e04160,2008-08-14
bbd392c485ec0821705ecf699f5ec8ebe2561a9a,2008-08-14
0fd99b521075eed3b6f247d4b9b7d7a6d8a69640,2008-08-16
f9419f87214398196c90d3770801b465d1d1f43d,2008-08-16
44df1f2918224bd7926c9680feab91e68d9178d5,2008-08-16
1cdcb4f947021ccca63fcaf903b5e7e3ac6fde4b,2008-08-23
97747b9a76951774e3c5f0f1f95337c0cb806ec9,2008-08-24
f9e91aeaee1442b43d212216317009b13b602152,2008-08-24
b497c6456dbb12cb35fb56d185c1d84e65fafacb,2008-08-27
f8bec2908a2a521e362a647da30dcd297bd61a2a,2008-08-28
b3249ee5e474775c968eb96125e8371bf978272a,2008-08-30
c6800972dee699e0e56eb0926221483dab0a08b5,2008-09-03
c737b79515b099e50ba602cb31582d25a3f9f67e,2008-09-05
845808cfa804b77597434e19067b268784f69fc3,2008-09-09
c91d83f3f4779ab6536db9e41b3b9f9c51c7c664,2008-09-12
dd9a127f895e3e41d86dff28a478b4249fd29ff8,2008-09-13
cc53bf8f77708c90bc8a3c880fcc5781d64579a8,2008-09-13
a57a16d1114d3c2687f6bb16358bb827e16a75e4,2008-09-13
fa97bf0aa0b00fbb1307ac4b6c494f7840bb85e3,2008-09-23
cf3941b83ade79572fec94201c5e956908e28049,2008-09-25
00293040b00aac6cf9e71757a5ff860ee28f2de8,2008-09-25
843fc7f7cd245f3928bd5745c65bbae2563343ac,2008-09-25
c75ed8c291f446e5677bcc645ffdef1e271f524c,2008-09-26
4ef550f207fd6150bdead37a6122ca670b4cfde7,2008-09-26
8ff75e391baf42e33b6f4495a448aff3fe1da9bb,2008-09-27
96ab126f36bb88c83209b2582db33a8e18698b1b,2008-09-28
1b6886e3093e09197fb761fcca15575133bfe48e,2008-10-11
f2e1cbda94bf931845817ed28d7ec66ae32394d0,2008-10-11
88070894650c05bfbddf26b04e1e5a94c679ae80,2008-10-16
e35ebf338d109dd50c0da7b69c4967ff036235b8,2008-10-18
2a8099a51ae182d46aa3877c3321000c994025bb,2008-10-28
6b05a10e84a291af5b96e65651ebc9e44de5c839,2008-11-01
d1c3d7809c2f608f58eec58d869426c02485c93b,2008-11-22
8b12dea3a900ccd76415a694ac6f69a2168b03e3,2008-11-23
3bbc86384c628c6b6e412bc28504aa916e6de292,2008-12-01
f2bfe656b99c91e9d10feadc21da75950f96988a,2008-12-01
12af46dc59a22ef12eb6b239b23d1e87c10e09ce,2008-12-16
4658e158c7605ffc6454a490658ae91fe7e6efcf,2008-12-18
7421adfb1c7ca1b082094dde5aa1346332ea0093,2008-12-26
99ea9f9d58ce806313dea09f476df673d14d4aef,2008-12-31
0ff061e146ec60679efef08531900ce4c95a9649,2009-01-05
568af982abd0482ed66e9f850058dea3c43a3537,2009-01-15
4d6e67ce9ac3154d9230309be165957c69e7b9a3,2009-01-24
9e47d695317e1ad650f6b2149a85448736a1681b,2009-01-25
9fbd0e74fe47a0a5e9d1a1459f81d535b333b4a4,2009-01-25
10c7a31fbb7037dc50e4b03ffa73bfee9e924df7,2009-01-26
dbc755ade238b1ddf91f6b875e31271a986eea10,2009-01-29
907f50e15f279c33acd3eb879cdaf72aa2350c61,2009-01-29
2c05b5b2c2d64f248e8b05deb11028142889376f,2009-02-04
5a22f1283904b7a51fdf6ae08dac8bbc59b716da,2009-02-06
d01267666feb87be9a4d94bf784976bacd3d4c99,2009-02-08
6d3ed78d7c0129fad9f15c95f74995f02c4152f9,2009-02-11
9b6ca606d1b8838d253b4e79fdc705d748fdf17a,2009-02-26
b45d3addbe42cdfd78ad47f8b643947d215008b2,2009-02-27
f209518ba8282d941d888bbdd246a7c9dc51b625,2009-03-22
c0b22cad405835f5c8726405f91951bfe17aa654,2009-04-23
484c1f32ba7ff93c77715cf74a6905486b60ad1f,2009-05-05
e982a35ba1720e79af2b9e85a1cfdc8c9a0011ab,2009-05-29
dcb7bf43880ef43eb203e43bbea019fc0fa90cf1,2009-06-26
3a3c3c4e04002afd731a4b28c8eaa3097657904d,2009-07-16
eb4c6a1e5091fa8f10280fd215dc85aac68ac086,2009-08-02
63a1118dba96c5ffc2dfb198ccfedb0583c78593,2009-08-08
27c311143498a1bbed056cc61cfef33da78f16a1,2009-08-22
40d377b6f8c13eaa3db0a7e1dbbaf9a0ffd44abf,2009-08-28
a9fbdf8fd6f121d131bfaeea477c8f45582a8b67,2009-08-31
ae47690f9e62392f3040d36ff2b6484fe9557638,2009-09-01
65f3df7a2106c060885b144e4a6cd827ba5ef31f,2009-09-17
b2d724309a13d168aa6389a506e2d2df0080277f,2009-10-22
318290f9872aa6ba5b3f9c28b16caa315e11d7b8,2009-11-12
5319b4744cc0ca3a8bc838bf0094647eac025d94,2009-11-17
0b0924aaa1ae74df2f224b99b90105e861c78f36,2009-12-18
e0f8b272e1941062c7393029da2354907177adfc,2009-12-25
7f47855242933fd9c3eab4a8e222cca0935e065e,2009-12-28
1596ffb4713f2f61fb6f35c67b8193422029ce47,2009-12-28
185febc11c13d026035e236d91ffa1f42369b17c,2010-01-01
6edb21dd357a8f9174e646d1c96318099c0259c0,2010-01-01
869086907d6c2eefbc4b7e4e30e2917f5af72f49,2010-01-03
6882ae07b01c47e7d22462e456bc32597265ec91,2010-01-07
371ceccce2a88ebdda16b5afba8c415052b1ba0c,2010-01-20
4a7ba35d3046f02946bef007fbe0c1996e06b410,2010-01-22
8951fde16e0786dfd43938ede8f460a64ffc3a4a,2010-01-30
68a008c16713a12e7398a3395f7e2e0004cd8736,2010-02-12
1c451b6fadbb43107cd02c65f0babae667c0bd76,2010-02-18
b5e181f29e648cbe9f4b2133c8b891f53c7351ac,2010-02-27
c090740a06557cea2fa802b46c2592b77467c1ed,2010-03-05
5b735bfc96d1c918f096ad4f1b356cf7570013a3,2010-03-07
c733723e3f95752986ec72774e0692c15b718346,2010-03-09
2fb215405f7a8ef9d0e13acdfc5880826fae5ead,2010-03-11
4a496e2c6ca2bfa98e6f7acc87a56aa590a6cf1b,2010-03-12
22f105f902da3fc404b54e44faee223c51425c85,2010-03-26
e3571e009b26fd318cac8b3c37bad1ff08d1e08a,2010-03-30
fac05076afef500bcecdd83ece8c23ca08e1e6a7,2010-04-09
b346c50300818fe5c516d8eade5cbd339313b661,2010-04-10
85ad9b8b888e779065b19cc0292e0a53cab8fd98,2010-04-28
6828f5e2bfd0ba1357ff9d481f932c5beeddc599,2010-05-02
e4b05cd6ae09d9e2656dc5bef82742dff929bfb8,2010-05-07
f115b70860e491e7b6cf9d0097cc1f5e53c8e264,2010-05-09
9be552601c01736d22dc1effb07c445e1d597047,2010-05-09
549bfcc1e5b20d85e55c697b6421c3d7b932ae34,2010-05-12
d8bfbe2fb42b8de14addcd6dd0c33706191215c3,2010-05-17
f7df20cea8aa58f62833701ac23dc436b4a4f8bd,2010-06-01
7f58b427cad7288c5afd6470c4cb54ae881dc256,2010-06-02
c17a17a78df0332834641348d2ee37383ac4fa7a,2010-06-03
ac2f76c8d15524c19e2a275e6045afe68636a28e,2010-06-03
56e4e3162cf0e95eeb0210b6ed5d67714d9b7cb9,2010-06-22
b9dad69d14c3040c78c40b71d9860f39f68450b8,2010-08-05
f09b3b0f1100a08ab9981bfc7f7009aacbbf689f,2010-08-10
7cef3c28e4edcf47d844240f74ff3ec154aedcd0,2010-08-13
dffb7dfcf2fa91fa7a02d8c4784ec83fe4fc1fa7,2010-08-16
994540c4b475f15a67eb496c572aebd6ad75a008,2010-09-14
1e541e9df76c0f5b1ddc9ce8b4deeecb01a2475f,2010-09-17
d1b158e1cc876f0bd8ca79cbac960bde1076ed78,2010-10-14
27a45224fac0fd07febd9ee510c30785f3f8685a,2010-10-21
6dd13c0f77a25d01d40e8d4ac2fd54008eba0770,2010-10-22
4513af81cbba8ff1820570417e269bfaa1cb7fe6,2010-11-04
cb8c323dd824752c0c8018aa2bc0b6a6daefe40b,2010-11-26
ec18987baf578e941a3f9289921393144640a2e5,2011-02-02
e740c209969645436d595d96c9b98226d0d63470,2011-03-01
5a3d82e522c0822e7aeb480107427fc699d8a2ca,2011-03-07
7628e28ef1c319ac6be408fdad03463557443b6f,2011-03-12
05f85940a6c7876afe14e47a359cfcd017146997,2011-03-25
942f7b4e8e7916ac6237f6a73ef5b6c0a2947fc5,2011-03-30
2840daec402634f5afbb5435048dacaecb78a4e3,2011-05-13
7bcd6451dc4f073bc90888ea1c275c8c4bc013f4,2011-06-17
02ac9a15096bd345144ec43dc26dc502cb04d002,2011-06-29
1fe35901d29238f87a30b14819ac1d1799e4ac02,2011-07-06
a4acafad2297b468e418cc2b050f59b7aabf1627,2011-07-07
c51b8d0029572c21a9015dec6d46aa104ab78a71,2011-07-07
39fb50c78c3fd67066373d4b96687690336e4175,2011-07-22
ab428ae5939c89c8edd00c18377e747dadc56d58,2011-07-26
27b4b96ec0fd32c6ac93f03fe5dcf6618dd00710,2011-08-01
d2a264815225cb04d998f742dc61b38f3f93770b,2011-08-01
73c1a67b36ef002db9ae511cc772c252258d6a29,2011-08-02
376d984273ebd521a448dc65969a17c74d4e6a43,2011-08-07
86fb4dc108cc2ac5d503c647981f30a7a4939868,2011-08-11
748c75f55ee0aa78d99e94878be08efa2eff0542,2011-08-22
f563d5eb592bfc953db0ea995ad3304d25974b8e,2011-08-29
7cf4d3adfc79bf989406917c5630e0939f99ae1b,2011-09-01
5715027babf48b49981a4b3db5946a52a44509e7,2011-09-03
9a1b74cf96c6b45527119cd28849b6ae2a1a7907,2011-09-10
8d68fc8df485b27bbfb009cc35d53758c48e3ee0,2011-09-18
0b285529a5642ec04bf8ca2ad908d95798893df7,2011-09-18
46df69d002654ef69de0dacfa5acefa74dbfec75,2011-10-17
f1a94e8fd6e84d7c1acb60185ae4df1b00317ff2,2011-10-26
5aaaeb34b251ef690698b188a36dbfc557de89c8,2011-10-27
d101ce76bf45f4976b2bca676ae699643ddda646,2011-10-29
1c237ead5fcdcc66e0ec07f74af3a4fa9415920d,2011-10-29
ba097c00c3062efae5e7e76d4441c6120a8072a6,2011-10-31
f8b0d2b7b1e73891d7e94509ad1886870f8bbaaa,2011-11-12
4bfd2552e20c6f67d2cfaa97ac6898547026ec31,2011-11-12
7740349522b1095b6a25857ae3d4ea8d9a643cb4,2011-11-12
0d51ec7680ba722c5747f84036443c775f3db666,2011-11-13
962545c6cb38105d711a90b1df096209dd749c56,2011-11-13
e87cddb349b313723014cc8fd9cffc6afc28d222,2011-11-13
e98056d78d46360d6e39f4b739ab7d0638e56903,2011-11-20
638cdebca89df8d8598a4cced37ed9a6999c90cc,2011-11-28
075333f1fe355d3f182f9f4fcf432cbf5f43d66c,2011-11-29
41c669a9596655203968701fcfb4621b8836ca9e,2011-12-07
8f3f6a89faca7105509311fc798626248d2f67fe,2011-12-09
9955e0f4f1538a5a158aa3ae62dfa3acffc4cadb,2011-12-09
d152b84f353ac76d50bc2c07b7285be7bdd7daba,2011-12-09
f1f45df2f168a0ccf03f15c6aee0d452fa82e2e8,2011-12-09
92a3cb806f481c21d125a6ab59704dc09669a64d,2011-12-11
10436b2019f516e81257fbd769e6edd439d52ec7,2011-12-12
d8d2d980f3b7284d26191b1d56024604a61d889d,2011-12-13
bcbc93f2207ce0f1aa36a1ed917b04468409d7e3,2011-12-25
ada4cb61f8253e3b23acc04d1cae1923f6be8386,2012-01-12
895c04175c3f0d4ba6051bd944a9731bc7465be9,2012-01-12
939ad105461916810562adbdbd4c36b846c0fbc8,2012-01-12
58d92fe8151cbc83c8178adc93eae7bae0b9cf8f,2012-01-13
3d23e3815dacbd107c4f9af7e18efa4543fbb940,2012-01-14
5e95816ac2b62dae7d37ed53f7da62e7e7ef7caf,2012-01-17
3ef10e0c03350177d72b4f6e940c73fc1429d525,2012-01-22
af341e1663162d6dd277827aae2c385b7c46481d,2012-01-24
eb2894db8146643b89bdc2db1edf24b268534cac,2012-01-30
73f61ba2237218329eb2a0920e1dcb24ae353a6b,2012-02-09
09a35e0a1498b9acdbe1fe602731925ffede9bc1,2012-02-11
96e195a1a7ff76b9438ea5d146465b735bf60454,2012-02-11
051371e800fe6bd9665099f816d0ce6291c600f1,2012-02-11
da2caa183d036f861a841c1997ab5c747667a9bb,2012-02-11
067293f56f17d64a87717d0ee0792168a27e100c,2012-02-14
5910473c112892c3cf6faf99ade17d7e87584221,2012-02-18
eed04eef0da59cb80d33602d0fe69daa4dcd5719,2012-02-20
d767eb4c35127bcf0bc0150538d98c4925ca1d24,2012-02-23
145e5eb7a000390056c772018bf746429b0462cb,2012-02-26
449c056ddd814dfccb276b43cdf7735053b33b88,2012-02-26
b697c9eadfd83798827b38325d8c0cd6ac912ebb,2012-02-26
7998a978d115aa135ab1193df0a01eaa211881dc,2012-02-26
4eb2649a786e2bae0a114633363db659a01474cb,2012-02-26
29895e285156afc1eec31c9988d63386def3d4ec,2012-02-26
c80885cda96b1c1573716f38859331688ea73e32,2012-03-02
45e8c52892e4e7cb726b521e9e108db8fade5c07,2012-03-11
2ace5950bbef6cc58f1bf0c54fcc1a13a93a52f7,2012-03-31
794d50337b819d2379a4980eb5e6664f804f6433,2012-04-22
04e30c4c2a6524f5e1b7b785b3af921cf0503511,2012-04-30
cdeae971c808bc6fbfccdf20bd3ea2d03b3c16a4,2012-05-05
900b2897b3454077dfb74dcf3f70c42b77450e9f,2012-05-05
7679dc23d5b80aedae0f026f5f8a982da35c4e44,2012-05-12
1d85506086b21e8e30e45c551bf4678be4911b3c,2012-05-15
5ab5fab197da919dd912b7c9b924099822d544d1,2012-05-19
3732ebba32c7657397d8e62b92a9ebf8698c7c0b,2012-05-27
0096856afcf7e507d76b0ae7f1f403b1fe8d07f6,2012-06-17
446c9339048b8556c50ded6cb9fd4a25db8dbb0c,2012-06-17
5f8ba1ad9f2062e6591e5a075d80d0ca34b42c5f,2012-06-27
df8e7db20929169e442866e082bc4e671d5e36f8,2012-06-27
a2b078706a6b16bb9ba35f049f0ec280bbf5d6cf,2012-07-02
e4d3e6b9ead78f4c0582f5684d558e5364075b8c,2012-07-02
d6323b6aab011dbf00c276acf16a97305eaefa5c,2012-07-03
990bf72de82eefadc1dc59cb707aed08beb31d8f,2012-07-18
039d1bf01c6aed89b66aec8f8b6906ce0d18279f,2012-07-31
2f2fc15e1c332b6e70d6f035f28bb3ecc280981a,2012-08-06
ad3463485a4c047306559cc712ee140409211acc,2012-08-18
4b0c351258b0cc056f9dd6f30345f644fa5bd794,2012-08-31
7a7119559178761296dad1b4f5f7c136eff8554b,2012-09-01
bf9be30c2f239792e14805f2781515ec8eba12ff,2012-09-01
4308ab6755930fcfef15891a5e154a5c24c6e9d6,2012-09-01
479cec74c26e9b3b315d1f5982115c2105c4eb9a,2012-09-04
c4b3ebd54cc1bf52dc430e1e9df68afb030bf39d,2012-09-05
a5208187e639cbbefef85d954be78facccf7034a,2012-09-28
e4b5fae5f3dae9c343f73bd324ee51c4213ef4c8,2012-09-28
ebe7a6238aec43c2c2db1ad8baa62b869548e451,2012-10-13
891a60f14cdc6358782a6f4cffccda4516e773c7,2012-10-29
ea1af665d0d993fc0e8dc125ef37067ade609f31,2013-01-12
7dcc6201104c671e149686674c535125e84e7213,2013-04-06
ee24f7051ac7ab146a04ba3498d3bff794652b0e,2013-04-23
c1653f5e809603fa65002beefede532b1ca7044a,2013-06-26
7d22cb79fad2cacf563b7a8955e05da988961c3b,2013-08-19
1978f6b70b94f6754e3e43fa7bb9fdb1e7b32b17,2013-09-27
cd013af4bffcb7983311b2a4e735dc50b72b1343,2013-09-29
9595efcdcfa66b2942d0501b0d7fc7109cee0d5a,2013-11-08
020c1e09a22fcd9c65fa9b83708ec8a4e7a298c8,2013-11-13
1dd88c59bf02d6e31101ea1ce713961e622fc0e6,2014-03-30
a400c74ff6e3b1d3062a33cef5d08e4078b50540,2014-04-01
de22872607545a2a030540c08edc2c374c5d2324,2014-04-06
da8310b71c19517091fa16adfcd7d0399a6ad5c5,2014-08-13
8f9a36aabd9ad04a17d1fb48c1834f3c37f1f8ba,2014-11-02
073835945b76267bb7c2ea3437d1ce90896a781e,2014-12-24
8f320d67b71bd764dd58c41bea26c57cc05b977c,2015-08-09
dcd7505f2f56f8da17957323d675bebebc8e6ecb,2015-08-10
2a5def2847015976d9ecebe0d28c83c1a2ba8c91,2015-08-12
00d396e5b0687b13088aa86ce2c605eaa324c95a,2015-08-12
89609d6b741bcc7b89b9f29f9d30b7a4e9a8e8d2,2015-08-25
d3f684042f18c72849bec05a714029ffee100c2e,2015-09-02
e37d3470d44d87fad13c024e848ed6ace7d91b4b,2015-09-03
4e698f0a2a31ca301e18b398d4ef22858e59240d,2015-09-07
a287db5a084cb39043ce235a193a81ae2d41d2a6,2015-09-15
9576a86827ba47969b3666ec0e64a90ee26276a5,2015-11-08
559036befeaa11c63a1755a71f871abc3c67370a,2015-12-12
01442bf5c3bb6ffb05e59a4893e5bb0851f2f9ce,2015-12-23
887c03042c721a7806fdeee27b785edf904c0412,2015-12-24
259cd97aa75201aa40139eedb1a3f0e14bb9f3d6,2015-12-25
4bfe50cff3254c4292b2ed9ba93cb8079b6d65aa,2016-03-28
438092fec5e83c6bc327adaa961bf422d1d70604,2016-05-15
d414ad224db7341761bb24999fabe62714d0f8cc,2016-06-19
db8f0aef7a3ff85e06ae41159bcba51055db35a4,2016-06-19
2d9ec4ef2346552f541e4ddf163afcc22b3ef53a,2016-06-19
093874e6105571b1d3ae551252dd1515d8900be9,2016-06-19
5187c3e2912eb4bd97a899418fe688c039464b16,2016-06-19
2c19c086cfc786314918d30f7e55a79f665ea3db,2016-06-23
44969ee04e9b16b1d1a1cafa6259490a8a391366,2016-06-23
9be28e5aacbdec8f4742f138165be2c7e52fc4a9,2016-07-18
2ae65868e9f1b2a6259931efe158961200c6cde2,2016-08-09
b1f4d34a8b42048d4bc4b384f1dae4f4925d96b8,2016-08-10
af70e7a5ea23f91128eaade2f58c6b6620a78adb,2016-08-12
ba11dd1ec9bb9aaf8d23fa77b2dce75a5b7d8049,2016-08-15
21c26c2ae30f0d01c3e2e017bb1ba5dee133d7dc,2016-08-15
a6bc68d843a99e14f1648f3650d13526a14ad812,2016-08-16
76f5076e5a0531639a526de992b07fdfabaa2819,2016-08-17
5a3a0e831206bcd5da88c4306dbb8c70b75fc7d9,2016-08-18
1680076f0ea6abc88f00f9e10e446cb17a91d10e,2016-08-18
341222a2f38b8c72ef8288a535e5b098e5d011d8,2016-08-24
665fe7da245b7c3e81b08890dda80a49ef8c50a1,2016-08-30
880f92d57d06a4ce1f37bacdbbc0c1df4e0aa5e3,2016-09-08
5f5e2dd447c2819a3628ddfa52c046b012401acd,2016-09-17
fb228d2bf6525037dce67575bf54a32a6328472e,2016-11-27
2a083bb3b7f788e3afc4c2c6be60d955e86c41ce,2017-05-14
340a3cc8a22038faa106caeba764e18f0c232b08,2017-05-30
18047dd2f4831bf8100815acabc1ef9c9331aed7,2017-05-31
0d07bfa5e2418a73929500b1cab61f97b54a2447,2017-06-06
2d92fc3b660365551d5b3a69242247f3bb5dae6f,2017-06-07
6cb56870a300d0c8c49a94c0035c64584f315297,2017-06-12
e5d4e501e3977e241671e546698ab0be14decb01,2017-06-13
13b84048b362e6e27f494b9cc7484508c0fdb311,2017-06-20
67257c5750ee4d3d9351d89801fa51a104864c5a,2017-07-14
a09a2b1aff7c611f70a56b80f3d0e84351a0e787,2017-07-21
df062925059d09311b0c8379affb16c071221d1c,2017-09-20
3ea44c18c15f9a43eff2765036c628749cadb0c2,2017-10-30
23ee1c9c0c932691a2a70d3c0efa9ccc9a7e0aeb,2018-03-04
0b860d2b1c3679bd076a2a9a2a7fe847fc6f84df,2018-08-30
