CommitId,Date
de48375b1b601c32daf718c70c62f7f4b80b58aa,2000-12-10
4b1869ebb8002e5d0b82ab55460f6126043c9ec4,2001-01-10
a8ec4efa178afdbc7844e94d08ab38b811c7409a,2001-01-11
bfc94ee739d62127c7477300b26127bd560765a1,2001-04-02
04f4f3197084ad9ad7c050ce1a40d6f4421662f4,2001-04-08
538187aac8c4858e9e366c4e4ee4e50cf40331c6,2001-05-21
8817825612894d11856312a777281b6c7cf81672,2001-10-21
1ebb01554a9ec2b5b2c83e7331efb80c7fda3222,2001-10-23
d01c8286f3e876157877f2cbdb9d0afd8b07c579,2001-10-24
f381b14b797ee0b9116221ec317b09acdf4e3ff3,2001-11-02
a1fef439624fe411d0bea8651324e28b134e8b4a,2001-11-12
0807a8cd01b6d63d54f9a3580540fa35b7fb292e,2002-03-29
86b71cb1b9784a9b87c86b4f3f12632ae6773d1f,2002-03-31
9a866f6c679298e64194fbfa5ef82262a792824d,2002-04-09
395b46b73966551369e58ae65ee75783df132fa9,2002-04-12
3944908ba2c55a76382f51f46d0693803a8dd3f4,2002-04-13
dd541a7c7b8feaaf966e55e6c91685ea071fb3c7,2002-04-27
2a57cc62edbc06b83c68d81dea87bbe43c46e20f,2002-06-22
ebe724e4b925fca5c9aeb6f7e282a5f0ae132232,2002-08-23
8c1784e4b026417ed381ac5f0a7e2dda9084d7b0,2002-08-30
5d0898b619950ecadbb2365d055ec20706352049,2002-08-31
c3c1b5edd8053bbce99d954d4abc2361ead06fd5,2004-02-11
3214326e44841a7bdd9139c343f4f0834d4b3c70,2004-10-11
168fe0844e104a224a5899b02dfd3e0fb07a32e3,2006-02-16
478f7f9217cf5da219a7ba298e3a87f405378194,2006-02-16
65d6b62dd60c434447544c5419ef4eeecb4c645d,2006-03-10
c73e37759ed5119900f1ddf3f50dac5bb3ae19be,2006-08-04
0cdf29715af64edd05229c400f214417fecdef89,2006-11-16
40cc52cf5f5dc1dd1ee513410536bdc11422307d,2006-11-21
890b7b977e42360aa8975c8535fc66bfd8d8cb3e,2006-12-27
88f0fe3ced24506ddf9791f7a088163f4e7b1f20,2006-12-28
3d7fee93ddc21a6e849c36d5ae58b37b3d189665,2007-01-24
071887a1353d6e34de306e93ef0a9818cf75fdea,2007-02-09
a9482d75217d0ae1ad8220515ed22a9245a822fc,2007-02-21
141a144b3d4aca9a1f39f92c1d697a249e991317,2007-02-21
7f08797ece011ff765e98635323d59811363df5b,2007-02-21
5751178d6c4485afb11f4b14b9804dc954faa5ee,2007-03-02
521fdb5aae536bd5055f6d0e4f09c5a7bdb5799f,2007-03-20
6acc164b4125da775cccd4035c1b99e9d404bacd,2007-07-02
ee235bc8c5cf5d4345a690f1bd7e3fd1967ef8ea,2007-07-12
7a2a3811a762d7988dc153d59c4222a6ab96bf82,2007-07-17
d322fe6d909c929be5e637b2adbd7da8f9264b3a,2007-07-19
79d696c81cb996e6a199b062c0ae1f53408d5ebd,2007-07-21
7ce9e33e556cf1817d94f769e09c9d22b8d2764d,2007-08-06
9a192ede27ad2936b0c4a31fe5d0180dfd556d8b,2007-08-15
787ed4e5bc2b68e8b5cdb6190ff1fc053f1a5b13,2007-09-04
679e5dd3e4af3115492fabed45ea8c48bfa9d9bf,2007-10-03
43b0fe352d5bced0c341640d0c630d23f2022a7e,2007-10-03
a58514aec7e843339be24980e92aeeb759327ffb,2007-10-05
57302f0df76fba83ba72a676bd660efeb5881af6,2007-10-05
4081076e513e84bb2376f889d4108e64e9a18653,2007-10-05
576377b9ad44028dc84c2f8487cfe8dbccb8c252,2007-10-08
44e7458b19d5cd1900a765a440c96e85b81d25fc,2007-10-09
6887479f1b64c5a18f5708ea6905bb59804a9a0f,2007-10-09
b333208ccfbef77c556a270bd4385586523dcafc,2007-10-09
4d9c88e37dfed614a1bd1ae2ca2ecc86122aa9f1,2007-10-09
bd8a96dbbfe93f134f75c768e5c1254cff8a9e9f,2007-10-10
f0ef837a40922ac08c608661385abf71732975d3,2007-10-10
0e1c92693e70e52ad9af23ee6180500c74fc9c95,2007-10-10
0dbe9eefa369da78ca67bf5487797a8de5b2d631,2007-10-12
de43b277b8f2e63051368a36e27a35c5ed0f0e0b,2007-10-12
59b1e2926cdebfd257c6c091ee2bd478d8aa04d2,2007-10-12
24a5aad1f49b4decf946f1df701e354a18544132,2007-10-31
0c5906ab0068de4852dc593ebe93356aeea639ca,2007-11-07
8bed6c9278517d9fb13f274bc5a6ade358a39745,2007-11-14
a6368e40e787e7a23c9f1e58d6a47bf9fa2d0a2c,2007-11-26
36beacd221a4837af2a6d684b3a4fb79775a5231,2007-12-05
a3e0b1c6cbd770405cb7fdd4291090afc8e49df7,2007-12-05
8226e3e64a7d4ace29eb08ab6c9fc9d4055f20c9,2007-12-07
2b56dbb49ba6595e54baa0285b76ddaae35f0c33,2007-12-07
9a5dfd996ab7007994fcf60752441835dbdbb5d0,2007-12-07
4dd7049a053dec125afbfd40ed05a5124d94aa9a,2007-12-07
a7c07de664a4562c3ff171102729f06a5f572d9b,2007-12-07
44fabd25eb7d8c5291094b033007c32b7a1b8da2,2007-12-07
0fa19baf003c5808831c59f8a839cc871586f30e,2007-12-07
42beed3ad166a9cceefc59f6c79a16844cae0d02,2007-12-10
9e4dcfe471791bb3aada80810bcbaf6c8b9cd068,2007-12-10
95bd62b2ffd80394d1a17e9078a4d79478423030,2007-12-13
9c8d59d9869280a698c3f3a119eb69f0e897c94b,2007-12-13
5af049cac0c976c586d955607fa459aacb778d3c,2007-12-13
b8008562db24f9189b90dd0e3864a381681d527f,2007-12-13
18299dc8f8aaae0e64345795b2884eb7f42ad460,2007-12-28
af9634a3656bcd9c3988692c32381d0772077584,2008-01-10
497ebf11c284bcc2b32eecc4a063589b4f17d250,2008-01-10
a916d4133c7e394130d7953da427aae9917ab92c,2008-01-10
c732aa178a822671d3de88e5ece05f9bf464172b,2008-01-10
9f52d1c93e0f8246ab5430007107e0c2599563dd,2008-01-16
4f405a49eba4822fbdda0c9415d2dc4fd82fb14b,2008-01-25
752727de89a6bab731f49597c7ec3858ebb3e0a3,2008-01-25
5042f695491027730cca2918616399d869de3973,2008-01-25
6ff2381af213bf699e62244315debec66b373d81,2008-02-14
67e3edf20613b1278f4be05353b31b5129e21882,2008-03-19
d9c908b9aab5f610e2f42aba1863ce25e36423f2,2008-04-07
d61e2885bfae9add429f42d9ce0d9bc8c3ef72b0,2008-05-06
b521f9fbcc141e0a0925eaf5a0fd7f5285fa527c,2008-05-07
ef32d036d0ff96328f622942514ca73b5f69556d,2008-05-13
5c61adf678d0f736846e95cf7062b9102a51afa9,2008-06-10
078e45bd31a9920e00633ad6ce658e22529304f2,2008-06-16
8c61443793e4c2e90a4056ee528c3880febb53d2,2008-06-26
96d7dd609920deb1336cf85dc6c9a3a0d5e30d15,2008-07-01
e2033a1894451c2b90ab4c43ff1eed0aad3f14ce,2008-07-10
8e3f361443ddf8bca21c3db661c75d374fe78dba,2008-07-16
c96215c5d025336d8ab1d7d2ab57daee20869cea,2008-07-22
a9815c0f1419e20b6282c3944195083bb38deaa9,2008-07-22
123432f737b8d6e54937cf9f2e939b1e8f882e76,2008-07-23
1fcd990f60518c941a44bae2596392021614a20b,2008-07-29
5d957024be0d1b181879d48b7915b3b8aad8f5d5,2008-07-30
30a039854fd7f8cda135222054b247c158b91fa7,2008-07-30
e07e59eb9d24f6e4fa85dd99f311c1feca6ea983,2008-07-30
dd9ee989f3f322c7c6793f95a73b28f3cc11c11e,2008-07-31
a07f1be1bc7eb7f7d757da48d0a3110452cca4d4,2008-07-31
095d3f8df0708f98d41f5894a892388b6985c44f,2008-07-31
50b9c949876189d8c4871471ec346988e4ccae06,2008-07-31
432e3e27df0b072f3bab066cd33214913f4c7f32,2008-09-09
a72b0dbef4b01e8ad0b832d9a579dd7fabd5a071,2008-10-18
fa6483264ce2530585b374c276c2266d0d0c4ef0,2008-11-13
41cbbf7e228b8f7908e672a79863ff970316b120,2008-11-19
421ab330509a53302f56b209595f55b23bfdfc0e,2008-11-19
90bf3119a6326671cc467386036302cc6040f752,2008-12-20
d9c81356e3a2fbb165c71b32d63d0cc39a1bd861,2009-01-28
6eb76c8b08c738823546fe5b935b653951fc773e,2009-02-24
6664bd272c43bcdf00f9ef9ce6f2d73af82036b1,2009-02-24
474df716f498aa2695c422cceb3e46cad999e972,2009-03-03
d6c79c0f626afd12506b6a5a672cdec84683c3ca,2009-03-03
8e20f520565dc52f5599eafd54b603043bfecbaf,2009-03-10
9a2e993c544a2cd1a0b93c9f59340910f51366b4,2009-03-10
95da39292ea777ec3ff99be2bb23d46f704f683a,2009-03-10
f3c211455b9e09be36e4bf7ccc499fbdd35a527a,2009-03-10
c7874453182cde8e7b38cf3ce356d16d3d1dcde8,2009-04-30
11f0abd09655be84d94d3013cf0c46f8239369e6,2009-04-30
44e2ed65cd904fc03aecd3b0763856009294bdec,2009-04-30
8b507d7908603bf6e36ea9e60921b76eb5923d0f,2009-05-04
0dc3de7fbcf997ca8465ed9e7793a0b4f730121b,2009-05-04
fdc9cd5ea91f5ae1d7e5991abadd1b3f989626f7,2009-05-04
31cbeb4f3c141295d0b0703ccff2b2ffbee780f4,2009-05-04
e5a301651a359ed4ce2c1dd81a4a73868b4dddcc,2009-05-05
6aa1fb428b0b6de82ca6288863ce7571b0563017,2009-05-05
ad5971c88fb501f007cf1a75200349fb7cbb4b25,2009-05-11
dafc0ed884bbbdba1a7934712c57ed41bc6c9777,2009-05-11
13bda470bfa1fe989ce80d616fb096af1b937146,2009-05-11
3bcf273c37bc31e1f13986b02977cadbcd2b5a76,2009-05-11
bbcb8f416628bc168a2ed8353a30b4e9647abf6f,2009-05-26
356a069f8cbbad2a368fdbc6ceee4e94200e7140,2009-05-26
fb7e47081b37842a814e9f35013b9b12a33b3fc3,2009-05-27
5261a76c3014edc93f568ac76e8012d59dc2c831,2009-05-27
1e54b68d2fe7c4238993b360c7be6fbb05d30528,2009-05-27
e6769d4009db8030661815965e2e22829a4619ff,2009-05-27
9164fdee10603ebdb2b4a7d78ab00046fa3ad37f,2009-05-29
79b7c3e8f1d725460212c659524b9bbf5d8a1461,2009-05-29
d5af0e46c1cd912ef0932ce868517b1e8335531e,2009-06-01
a01928138beb41a189dc1fa43f92942b39393cbb,2009-06-01
a423117429dc71bf3068eeae38c6443672beda7f,2009-06-01
7c6809f47fde700f345ded8faaff468dc2d53c08,2009-06-01
11258fcfd07dd63754fbea374bbba59ea82bc685,2009-06-04
077d4657cce12a38d4f34266fc62c190b28235a9,2009-06-04
58723f03198f62f079cd242f7110a94713a5a90b,2009-06-16
b2ebdc0a3e15d90fe695953fd334408ec1afad77,2009-06-16
223b34b516467bcd9cb7ebc7f49549f2e7362dca,2009-07-01
cb1d4dfd390718002349f2cbb456ec9ea769ff2b,2009-07-01
9218455d51cd94b21b4536af793dd4c4c6820bf7,2009-07-01
003f66a2e928691100fbe719d7253b5213e99698,2009-07-01
fc7acc64dbbf5c28ef4bd3b142e35922d6294428,2009-07-01
d8da2f699a89857292e5e5b92945b2fe3c0a039a,2009-07-01
5501ad5d546427b228b208da15cec997e0b13cc8,2009-07-03
303f74183714223503216efa037373bfb04bfe1a,2009-07-03
54917b88aab026dabb4541276ed875117c1e1faa,2009-07-07
8e313a1e58a56694c0441b2fa60974fa8e1bfe31,2009-07-07
409a8e06c9f2ec5aa0d9db8a3d413f394c290f6d,2009-07-07
734ab5187c068599352e5fdc7374c1334d484fef,2009-07-07
99a84a542f2ac532a8425fa0a77884902b1c01b0,2009-07-16
97afc5e205e1c6ac0f5a9aefabed92d58d88ab81,2009-07-16
cc24890c002286ca583518c471b16d143a69a62a,2009-07-21
b0b1c80075abf53597839e6bb430804b17d5c24a,2009-07-21
4abb65c56382cdd4ff453ddceb70b5944e6e0b38,2009-10-19
79ef5a7e1d7fa144cc81c9414f4791aaea8b3d75,2009-10-19
cec8e3ed1246c289ae156c4418d2e224bd793f4b,2009-11-24
7a2b0460c7abd7573faa9d7845a5b1169dcdcb7f,2009-12-18
2f9b53dbecad010dbb7e7cfff3a11476b7d2208a,2009-12-22
6589127231db19458b696785bab3b839f9bde90f,2009-12-22
f1f4fe290a3a35a9083d2e76e922b57350e05f34,2009-12-22
c3873cf7b17abba564374522af2bdc02abcc509d,2009-12-23
c503e40d9ec79ba76b69dd31d7dd32648fa13cf2,2010-01-05
12b9b787a161d4b460d4d6a14da6ac53cac3713b,2010-01-26
1bbab715de4c64943948ecc3739c8d5569378672,2010-02-09
97402a3401c6cc2d45d395c0d9d636f483b5571c,2010-04-05
5f7fddf537e551109ffd6241a00c87a2b3521523,2010-04-05
d0534dae86dd511eb0575dbdf7e706a40f51e590,2010-04-06
70adacdc1a7f963c081a9752ba62200f8b798d56,2010-04-06
2de4d6f2bcf699b94614f9208f620f4c56bc9876,2010-04-06
568e29c871ea144e12f273dc7e12c949a5a507da,2010-05-20
403f761da11bdaf9a03538139e7ae51601c36b0e,2010-10-13
0815c4d619b177431e64a2485baa0f746f3e2886,2010-10-26
d21d4edb6a5c55a3d8930dd26762a26cad67d827,2010-11-09
308768863b78f3a6345e25d7f9d35892c2de5a01,2010-11-09
b3789b3f879d34bbe968d5aa51d15c8856b9d102,2010-11-13
81b50e9f3bdb66543d07e7349026bd3b447f433e,2010-11-16
8ff0b44e3fb0c1c56a1dc6290c3b6828a5a8f9bf,2011-01-05
bed58a573c373d57d64fa369f58b2a8f0dbee3d7,2011-01-05
0128bff582b2d10bffff9ff497c3e6f697958b83,2011-01-08
346bad2d3fb82c9a8378758b12979f7c9fe584e3,2011-01-12
01b427b3b89ce04d01f0ddbd746d13a175feec5b,2011-04-29
ce867738993339a28fd7b3a25ff1e74dbc0013aa,2011-05-24
5eee07b3e21f196b8cb937fb88eb8cf4be694f76,2011-05-31
8782efa08abf5d47afdc16740678661443706740,2011-06-24
0c114780df6a4f096493730dd004bccd44b13e15,2011-07-09
d6f71260512973e70417b999f1efa9757659b1e1,2011-07-09
b23ffd790b06f561290239ef3b7a5239ba755f10,2011-07-13
eef732f8e686d719c109a1ca66aed0dc8bba8808,2011-07-13
1ad3a59952f3528914d1225d51bbb04adb62c22f,2011-08-09
128553fc50758932f02fc6e13a3e25ef6a711152,2011-09-22
2d3090bf96357c0d9387a4e8f87525f776e52799,2011-10-18
5475e12b57f5af0140deffa7f45c75dc47803167,2011-10-21
7944e8f8afbeaff17d337304df52dac227034423,2011-11-28
e0cddcdfa8ec823da136af500cce0910a1dd2264,2012-03-03
7924760d2d64f5f7651e9e57d1ca01e1bcce74e0,2012-04-07
6b943e564adcc9a7106e54c24eb5d022bed1462f,2012-04-19
231241782c199d39943f742d0abe57057b0b785c,2012-04-25
e381886b42fb190e3ebb82503330e8ca2788a929,2012-05-24
0deeda931d45a23413e1c84a1966469deadfdb83,2012-06-03
14f9868962aee5bcba8a7595287be1d5fed54b7d,2012-06-04
ebb9d7f536a5b1be8364c6cb7367cac8c3849caa,2012-06-21
229490bbf8731ec07fd7ce6d68f0e22b502b9caf,2012-06-23
2162def2d4eefae0c5668586b837af4ecd4aed91,2012-06-24
23793cd92c4c0f8449e2edaec745437c5ebbd619,2012-07-19
6bea82df32f687d636f1b843a1918a3a1ff22a6e,2012-07-19
872faeab15115635b3260001979ae036e64e29bf,2012-07-19
ec1a5c3ffcc4b9b0dda6e9a683ea51103f55853e,2012-07-20
a37fd9ac8b2afc54384fd32f470b54aa69dc620a,2012-07-20
56b5463c6adf89a03f489f3525a9a343bc43d960,2012-08-20
0215c66179ed2c04da2e53f67aefc97b6db5782a,2012-08-20
785c7859cd87dc5cb3872fef476ce2f86c9259dd,2012-09-06
c63e0913154a8f01e9f78fef9de23fffd7a1a717,2012-10-01
4e8b0282c72c5da53b68d012e57ac41f36c73a68,2012-10-16
6fb53a7e272a6ecc232840c96b4cfe5235a8f823,2012-10-24
8f0902e5503f4b2fd5a7317ae954a136aa8af94b,2012-11-10
a2ca18438f84e16d5dc1e456dcd9ec6be0cd4b7a,2012-11-12
3791a960b08c0f14e2d6cb1c72b243f97d0a28e6,2012-11-12
544e5ba3a3034932879604b72fb6f8526d27eb50,2012-11-13
5da2d76bcf619ac0bd8c6ff5f6fc6b807978da8a,2012-11-13
467dd0725eb20d018339ae843e895f9cabcfb988,2012-11-14
0a2601045f101930d0ca7f31c53b416fafbbe7a7,2012-11-19
cbcb29a2d80b04803566a3aaaffd9dceb53053bf,2012-11-20
9ec6a3fa39cb8aafe645a7f33e7da9a788679fe3,2012-11-20
61badf2f7f147d6e782e1700b24da4ac06ce070c,2012-12-04
ebc674b2536e5bda7083dfd7841cf5c3c846b274,2012-12-09
de7f4fb2d4fedf3cfaba877b54d60ac3f3e5944a,2012-12-10
78b4a8975523d0288a6f20f0ae7862b45cb55038,2013-01-13
f5c7fe43447b008b4db13e031b7c0c3551ae9ddd,2013-01-13
043e82844ef2c3c0961d98a34771c84f7a950d1a,2013-01-27
1963b424c176742b711fb4226ce8f314d431813c,2013-01-29
0030e51f286ed52ad4c2c44857c4a28525c83f93,2013-01-29
3375d1c3f489fc5d2b5c6629c55867bbfe2a033f,2013-02-01
196c4ed79cbaca37709643b54913b361b677ae04,2013-03-01
0a9a389570a171b67c3155d312f2e90bdab5aaaf,2013-03-02
318adee43493447e22bbea89e0f17260e0186a14,2013-03-05
cc8497f28e1d5a46d7940a0b36556154c83d6f7a,2013-03-11
e9d4de8e15255b03b60e935390e517d4de90a73b,2013-03-14
b1832b23b6260561467a277d492b0db16f5ecd25,2013-03-14
34336085d5aba69c997f8e6b244531561afebcd4,2013-03-14
9d9899bce3506e7d87ebc6352a3cf3d25ea20f54,2013-03-21
b01900fddca5ff54258e621025ccdbbc75f880f1,2013-03-27
85b7c26e63f851004ce20d4a00fbf1b46607ab0c,2013-03-31
b421d0ebd66701187c10c2b0c7f519dc435531ae,2013-04-01
56193048f411846a58c0e0377a5f1ccfecd3d2f9,2013-04-02
83a25d440d118b7d10779a884d35f31045949e27,2013-04-12
0ce71108da6f487d76c0f4dc46cde41e11dd3daa,2013-05-02
b026c088d800013fa73ffb9647c13d3a87cdf55d,2013-05-27
85f9d8397bfd96261c3214284672180c522e2d38,2013-06-03
ede492496de0f3c0872216ac9c9b88a00fdef09e,2013-06-04
68b4e393388627201265eb3924f3628b1c27e6ff,2013-06-08
334bd9ce923cf0293cbca49be4ae5947abf51897,2013-07-02
d0cd805df54673c2d1376c58bcee23b6e32fb4ee,2013-07-04
fc2d506725525f81ba61c1cd1bd830d7cf246b36,2013-07-29
bae4bd80513360c5e884e760447000d9c96ffd72,2013-08-29
8b35f0c0a07b80f068d78bf03025bcebef760a1e,2013-09-04
1273a35689bdcb3304f6634cdc3889c61f9b1b1f,2013-09-16
d3ee5d06c0b797ce812cbfe35addc6146d5f07cb,2013-09-16
c75dcc28810aeb1c918ee7430981b31f41742ea7,2013-09-17
e02beea07c6d3798e2db532d6c7cebe6cc21f30d,2013-09-18
df88873d5013e400489550cf15e9b51dc438eb4b,2013-09-19
862f41cbc1757a4783b725c23588d41219735b72,2013-09-19
d9054149988487750679e35a349df7e0e2df5870,2013-09-25
1768d08d029dc3bf1ab88e26df0a9b40ae61227f,2013-09-25
9d3821f6411ad85a683b8d38e4d42411229f2eec,2013-09-27
5ca9da987a7d4dc00e082aaf552cbd8ee8c7bd33,2013-10-01
fba19ba73a93dcc2d18942b3cf4992ce010afdb2,2013-10-02
224098471a55701c40ab5a49888d93d8ff304164,2013-10-20
fd1ef3ca8069bd149ca63c9660587918aa28c7cd,2013-10-20
e70ed85b5732a42791fd5f8df0acd411f223abab,2013-10-20
dc5f4661240f98469f498e6ab69a1512c8b39d0c,2013-11-14
9fbafd6a2e90dc2cd04ae71597cd5a56b96cc403,2013-11-14
dca4a949f93bb85cc8ee0eb8789979a18aa3ffc7,2013-11-22
cb6abf6fc729f07c5d60b0756e91af444400b4b5,2013-11-25
fbb1efed56f2b495d68a598d5345cbc95b118d35,2013-12-23
26c25f3dbf524f4efd90e97f41c6df10345e78a9,2013-12-25
2859b41ad921d7f525c8dff5a3a9a5a0eb8d68b9,2014-02-16
8a6ada28b1b763d1eecb009716e8c75660271565,2014-02-18
b064a274adb12c6e866cb08dedc70534237330b2,2014-02-25
674bb8f296b0bc7bbfbd8a1126cff2d98333bbf2,2014-03-20
1d97da73fdafce8f5cf9d722f23c5cba41b26b70,2014-04-05
a5d194fcb57b1b320ae808bc5a8d153f98f18a84,2014-05-26
df00d5eced3a7737b88de0f6f9e3673f0cf88f88,2014-05-26
dc23211eb83c7d9f23f6a7031fedc091c6365bed,2014-06-16
15c925c4412d993a12e91a2a6c0168977402efec,2014-06-16
0ffc637a33164dd219a6fbbb7210db84779c700a,2014-06-23
7ae75535efbb7a95ac62cfa1d0ccb626cc23e8c7,2014-06-23
495a9a93e4a1157e707a01467e7cc3f600c88d19,2014-06-29
ef7b30f2a31e02690c32abb1c412e097726cb8f5,2014-07-24
f17e06715488e2814b6f9b3b4e329961ce224f07,2014-07-25
56a63f1607fadd83df240b1676d8a053348d868f,2014-09-04
755a82f05ea6cfb884d72041b404fc1c8129f92c,2014-09-07
d0b029f644e2f3217962f0de0cd4ffdfa641bd96,2014-09-10
86b9346e4c8fa263810dbd55a2775081194b1d6f,2014-09-21
bd5b90f75908b7a3ed074a7be29823170f008fb4,2014-12-01
de9269563b6af4ccf9e3d3750864158a27eee6d3,2014-12-10
3f0adeaf0a812cf88e76527b95c499e3ba99404e,2014-12-27
0804ef4cd09b0e94783a9882c60914e22fca5108,2015-01-06
c7300033b5622aa02a58d4570e598697e58b0b4d,2015-01-18
a90b496a6595856066504baf4f737fb853a6e45d,2015-02-15
82118e728701b7b0f81a2dd4a69b2290de056b28,2015-05-12
a688f6cecfe303b02087747226e5c376aebb0c44,2016-05-16
b8b21a2ad3b4a17b1a41478d2227f18be61b28bc,2016-05-24
7f2569fb5d16fdc35e632cf41dc10050655295b2,2016-05-31
41d44734f41aba0cf6ba5a11ff5d32ffed155027,2016-07-18
4042487e40bb441ad4388373e5c91d727b74e0db,2016-11-27
a5acc2defe0134d179cf15424202b5403eef74d4,2017-01-06
39b8a92d24e6c81e4fc614cdf13003ce17bbc166,2017-01-23
1bf8438b65858565dbb64736bfe13aae9cfc1b5a,2017-04-21
aad22b88bf3332cf304da6f558152b59cdbeea2b,2017-05-25
627b85abfd9c1f6c69b14f9d33fb292868fe6826,2018-02-15
ed6813d3bbe2da4d67892f73e641fa80ab4d126e,2018-04-04
02c328028b4d32c15bbf0becc9838e54ecbafcbf,2018-07-30
