CommitId,Date
57edb21a2a7b53ed9d996c9b7148f7d3bc7fc438,2012-08-18
3748484ffb160810d7f94c9f25c5566c210880ed,2012-08-23
8d06f6860065276085345e7ae8691fec094abfd7,2012-09-19
faeff7f10548151cb2310351b3975f719037f217,2012-09-19
761619286a69e3e56ddceafef79802ffff521abb,2012-09-20
2bd54fa72fe72f92212428a024050838c2b62d57,2012-09-25
60b3a6dd6240f40c29fffd897c2dac314af49836,2012-09-25
68ebb704fb73ad1545ae82287f8b2a5f68d8e69d,2012-09-26
747da632ad09a0e8fc279bf3b1afa2544141d01c,2012-09-27
48b087d327b4ca9ed4dcd37a4f47475cb2216861,2012-09-28
961d797e9c84557cdf56f7036558e72a54c578f6,2012-09-30
40ff76547064c3fb5acb9047a6f679dd4379a4d0,2012-11-06
e5b78cabad22ffdfbbe2755fece9c6c535438cdc,2012-11-08
3355d0c99bb946a6441f08fe6fd1c9881a9ea96a,2012-11-09
dcd8bd8ef1366507b908fbfe5f92d4346f066820,2012-11-11
9a1da9b4209955072d97caeb9cbcdeefb02841eb,2012-11-13
04d742bd3d6ce8ad24b21f2be2d6f3ea5f8a35a5,2012-12-07
50999cceb5f5bcdaf79baa5ac7eeef90c72bda8d,2012-12-15
1a1e1b7e2dee58fc9be947dec84126b0e35fe527,2012-12-21
70e64037ff295874602133a1d254e5a0440ae4e3,2012-12-23
78c6624b11d5f33504dae8211b4592383468343e,2012-12-24
67604f618d96ae00318ce696ec29a66bec6aafa8,2012-12-26
dca5d83027f2e44719fce7395e3a882f0333c0c4,2012-12-29
e4a4cbae4f2f850ec43fa15bee70fa1380d9354c,2012-12-29
768059cfc4c611f3212d0b92ff5073541a852faf,2012-12-30
b5719b6d7faff6422e33897414c0afdf9e63fe95,2013-01-01
86e5c34846d810a258952d966d58cb34ad483a14,2013-01-01
689f66222bd8984dd69229a4ee9caf8da528ae12,2013-01-02
43f7cae330166c3b73c9c20e0861ebf0ad89224a,2013-01-03
06579c5bfb6a051a9fbca5be2d15a52fcf77f38c,2013-01-05
b9580d68e9bc34eef397e9bc7f13091f1e3f1528,2013-01-19
194290e5f3819bf91d87c5d08c152946b6aa3509,2013-01-22
6f6d959fdae64065521990413f86bc7ab038d7c1,2013-01-31
2bcffdec4c5a1e705858d977fc26177ea3554744,2013-02-02
38575673e4726ea68fa4f4fde22603a8927ca09b,2013-02-18
0665b628fafec38271d7a66421ae04c7fd35dd29,2013-02-27
aec268f46cff2a5a298a353cec0cc9403226e339,2013-03-03
7ccbf48838b7cfe42759c67790636d442ea5daa3,2013-03-26
988f519754dfb5c26520c59f3889ce72f65854d2,2013-03-27
c0df29ac0b2e3f78c058fce743f75b25c29975d0,2013-03-30
1a0531845e49a5d5a76fab59398b16348971142d,2013-04-03
923eb55473a1f4bc2cf5ee51c1448455d55a0b55,2013-04-09
1ece746c815a26782042b1fca6069eb527d1029b,2013-04-10
6ed0f2c2cbf5872684bcc50a883fb6d5d0ac207f,2013-04-16
13d8b5f7bfc73c8f4064a57f634b6155991eb961,2013-04-22
3344cf326e566daeba5bd387711dec238c100d71,2013-04-22
cb7ade556c9ce90e861e947380a2bb380101b05e,2013-04-27
ae9d97110b6111f374e078eaa34694fdcff93da8,2013-05-06
eb5e72280b56427139bb14ffe14036f8dca6dba3,2013-05-06
ea4297ded736c5b606a772fef9d0d7929697e159,2013-05-06
f8d9ec7c31304ef0176a8cdd7d2f7e354ba969cf,2013-05-25
4910039a572abc6d20cac48eb2c5e92591520537,2013-06-03
3108f7c233dda01f2f41bc199a65da70a95c1075,2013-07-04
39b3b59f6f6cea6335f264b56e370787d92082e1,2013-07-08
5f87fc19ab269a929b61c088a806a674644caa6a,2013-07-09
d66810bf0efbfad5c2afb9b304e1091ac6107a65,2013-07-11
8035fda72fd7c582d2f1b7df52fdae90d3959909,2013-07-12
c2366b7658fdf497cb7277e89a640eac56688c8e,2013-07-20
3c0faa9ca18de3be0a178e590086888f4f89612a,2013-08-03
8535f2447c4269531de53e9e37aa37f2d4d1da51,2013-08-04
60102293782e942ec86d7e2c26836ed6fa992cf5,2013-08-04
00a50d1919549b51d941aeb893b2a5ed465aa472,2013-08-06
e7d13c48027f676ef5a6b5abf2b8fbfdf0cc3538,2013-08-10
21dc92f967d01c2da3ace57b7cc04421e2fd296b,2013-08-11
39c0d7d56397ab14892db8032464cb8a9f983ff1,2013-08-14
2f31d7122d8806b6c32d2d1e181ca635fb80bba7,2013-08-15
155a516b54ed60ec796cf5b9f2d8705012c5ceae,2013-08-16
6e382aa9b807c61adc88eb0a2cddc047382e36d9,2013-08-18
1a824f3c644fbc7f014a910d3c786677a260cf7a,2013-08-29
98c9288d8eb14f7af93716aa50735d28c6aa91eb,2013-11-04
f7d96b25631612860a1a3e3ebed76d5a4511b90c,2013-11-28
35ead0f5d17b0c53610b0947aa9bd8fee6da50fa,2013-12-23
37c01895cca5ec2bec26a3d381611f0938acd6d0,2013-12-28
e2bfa5dd6c0aee7d7e34b224a649500b9e5c267f,2013-12-29
30ecba897fb624df201f0a014b54a604418a0e73,2013-12-29
14b6e76e7d7af9b99a7fdc1a56d7ee9309711722,2013-12-30
350c43b6fe02401a73f967d9ef322061638b372a,2013-12-30
60f20dc23cb08d598d605f51f7526725ec42abd9,2013-12-31
4831a8dc6577f762e0f21fd15dd9700fe824740d,2013-12-31
bc259348300d6e2dd735fc3066773acf8d8e8d53,2013-12-31
29fb61cca0340598ec28a0f8240b055d4eeb5949,2014-01-01
957537774b319bb0109819258a11af78a98bcb97,2014-01-01
dbca0acc6f8c188dfa48f07bb5886606bec8d28f,2014-01-01
0ef26ad2e9e6b28a181ebc128f96671cff295043,2014-01-01
9417fa5c2e84580411e0fa4905b1f109e2d49533,2014-01-03
68de030b356e83ca5680986a290e98cfee8fd550,2014-01-05
a31a5192d1604131d5239fbf2f5280f1ac5eeeaa,2014-01-05
656bca2dc8bc9f2f13b8aa42e0bdd3b94202f527,2014-01-05
379e4ff19987539fdf8fe397a4b948e327ea7600,2014-01-07
16ff09a9ea24bdc7dce883681238a006e6a2e68f,2014-01-08
287152568a4328a31b575dbc5c1d44c1164ddd6e,2014-01-09
c6888734b441e2513fa48de8b0575bf160ec8141,2014-01-11
684aa14bca9b1b0f2efef96317ddd9aedd8fa19e,2014-01-11
749a65b776c8fc4b39b6463695980275da34da51,2014-01-12
5c84000ca35706bbdeaa3a508c2b2ef6124d9803,2014-01-13
8972a94aee5b1a8732b4f8246c6ce43fd9e5e1cb,2014-01-14
9766de54dc8be4560b45d89452b016998277dae3,2014-01-16
f6f3497ef7d01c2e11b68ca96b7f84e566e6c745,2014-01-18
ef30f7efc61ac249c1a8b43e41dba03a2bf0bef8,2014-01-19
7fccb687b261759e7443900befc4bd1c1f3d2fb4,2014-01-19
8da2510c3cf6965c685f8b0eabe66ec8f9b3c223,2014-01-19
c1458f74d8ede24d188dff928f13376188f9122d,2014-01-19
4a627bb009725d7fa938c1599137cfd77d3fb6d9,2014-01-20
4fa9814e3018a3c8797f79485f0132b4d9b8b690,2014-01-20
471ed070e9e0b0860b0146f26458c5c0bd8169e0,2014-01-21
ded437b77a08ba230a789c7a86f378aa8137fb38,2014-01-21
f214cf9670339b850f97da4a2d4ad64758fd0e4d,2014-01-21
5dc83fd2b8eda3e0b880b8264f118113b5389206,2014-01-21
0c5b5454bc8e9c24160a5df1f5b83a0532323ee1,2014-01-21
b2cff2e9163182b48812f8a01ffbf2eae5720a37,2014-01-23
08a3845a599b51d4f3bcc81f4f369ec497bfc055,2014-01-23
d990b5819cd6282923134564f3bcc59263eb0616,2014-01-26
32a2b1d8d000a19d4a340cc1d77a68973a9d65dc,2014-01-26
5fe67f1bfc00a1c2027802515079137f6fd70bea,2014-01-27
358169b89f32c00bf229b4e42ccef756588da71f,2014-01-27
bcacc38f7ddd87adce636610c6c3b9d4d2b29873,2014-01-28
25cb503a4116ffe800aefde81bfbaffe5441ff7e,2014-01-29
13ce4a09bec4cb9c999f5e45d4cf3d3a90c1c95d,2014-02-01
7c21992db56623b9d77f682d7e4edea078c3985b,2014-02-01
4313b7af81f7023aa7210f08f2992eaf9fa15633,2014-02-02
2c6f99dd56c707c5f12f72d7c5fbde54855a7fd4,2014-02-03
fdee6f13a4c5bf5bd24f2c237c2996aea01cc5ff,2014-02-05
acd45e124e05b3f1a8624a193480791acfb51419,2014-02-06
1f97e6b74cd1f8a880264f6da500087172adfa7f,2014-02-08
cd16580d2ea22901b8273b22914be9205af5a9f7,2014-02-08
d60d8e143a337b48f2e9a7373cb2a9e539423b19,2014-02-09
72d5faec97063faec64403624740611a213ca60c,2014-02-11
9c6a433725364dc8d4639e712aef8ca9c9eeec20,2014-02-12
c8507d05b45d9699b6501aed74d735eb58a8fcdc,2014-02-12
334584b8349ed62efac23c80062c24b062d00d4f,2014-02-14
504b9cf55afd9d642e2a5323e18f79db607ad1a9,2014-02-14
322e9f3700be4b9ebcf8b004d82868da71f919c5,2014-02-15
dac5aed3d5f9307b9d1ab0a8c7840b232d053ef3,2014-02-16
167245bb4ab0ca21bb47c529b07617f6b29ac812,2014-02-17
415841c48f1d15018338f0c0438a91232a3b2a22,2014-02-17
a669069599893a774748181a238e0b009a4f3e87,2014-02-18
f5d07820a2bbafe2d5cb6b4ff8b067a6dc17e41d,2014-02-22
7995b46276295a7c1d8afd920d6900777dfeae59,2014-02-22
2581c36905db13dcd1df9a602c6201e3a9f80965,2014-02-22
095448552ee41e62e58994be0f424df750c6822f,2014-02-22
ef1fdccbeb6c9ca960025844b7af7d1a5b4b276f,2014-02-23
ab78dadb4bb94db74770e179e04e2ed791c4a51e,2014-02-23
c16436f8b2020e4bb2cbdddbd0eddd5ae5c528c4,2014-02-23
84184afdb26b42ff615896f9c0161157cc84ec73,2014-02-23
a562b99d794a7a8079a09c9c79b55175dd6bcb9f,2014-02-24
fb46f100a4d66342a0b101624fd351a51b6f14a9,2014-02-24
2a4b1c18a375a53bb19b966a464e5dc7de38399f,2014-02-24
e7354e311ca0b5873ea89a4cccc0c575530d0182,2014-02-26
110a4fac4257fe2df0e23149fbef76e750604cf4,2014-02-28
e5b90c6e3d83e1107d06dbf734fdb1d8127dc9e6,2014-03-03
3585ac2207f4ce09a5f49b9d18dccb73dc208e49,2014-03-03
60ca88944f343d6941fde84eeaa66f3348e87a4a,2014-03-04
8f035fc347f1ba9e4155ce99242c1a4f7d6e16dd,2014-03-05
129c937fb33328e1f4ee8815a94e89676f242c2c,2014-03-06
d092c9660abb6117811e99a5aafdb3f2e896fe4a,2014-03-08
8d78da7ce7e60d93fe8e299a83b963cd220a60ad,2014-03-12
ca0aff1e48984c1e588a38a6ebf72b287ea5f2f8,2014-03-16
e2599be9e073f1be8e929597c358e2664ab0c9a9,2014-03-19
bcf069cd2b2e5ee6cc324921e68ac6a8ef4f94f0,2014-03-23
358c0c016c06b09fee9e39e9f8a5281fc9225013,2014-03-31
b03026067b3686e45d4e11886eaccf084c36b01e,2014-04-15
b8e50f57d34d84710493acd3610fd545b9aac88a,2014-04-17
fc6c47fddf595472f7a80d10fca57d3bf592b82d,2014-04-17
62a7ea2d2041ea4cd259d74d16714e3f00ebcaf3,2014-04-18
9d22181146a053cebb04e9be4a215bb43255f473,2014-04-18
889bc764a5f1627090a69e6e100bcd18474dfb86,2014-04-18
8e9d8f6fbf4a505417ead296b2c2a1bb15e6ba5c,2014-04-18
ab4927b857b1feb45d78f2fec8ae27ab6ad7d541,2014-04-19
e76f8f651dea7c2c2e43185b078f7854216bc37b,2014-04-19
617641d7d77e0334b41486d0519e169194c834f4,2014-04-19
fa42933c783271d21505a5101b5bef61576c335c,2014-04-19
9546527a1c34400a0020f50fe58ffd1f109800ab,2014-04-19
307c7a144afc1262237ab6401a3f3f3b2491a124,2014-04-19
da484932625ab15681e469c1680b6371b8f67080,2014-04-20
b60875421b0f67575970b6b63582b7e5e31c4a06,2014-04-20
996e9c95bdcafd62e84c79c512d6ccac65c30758,2014-04-20
9db4b86e7559859d86b2c42964879eb1a878894c,2014-04-20
e920196fbd71822fc284ab76204bf75f95d3265a,2014-04-21
9146c579dd9110d0028144c59515da9be1ce7108,2014-04-22
5b6f64a46220911466350202ae974f167497225a,2014-04-23
92e427d7c66091c9731afd02f83f2d4ba08dc395,2014-04-24
0b677ac70d37f9064d3a0c0914794f60f66d64be,2014-04-25
7bfcaa60e2d27f6861f94b41d8a1ac30ae0716ff,2014-04-25
63d4dfaaa622d4cce72a09cdeead267afa3453a6,2014-04-25
022173a44406f1492c674dc9450423581a21d675,2014-04-27
b057ad2418fd2d74656d1f56fe44474266b47ac0,2014-04-27
a5b7c3b2f31164e20bc3a19187182af57bd3a330,2014-04-28
5ddcdf54828b8543613d2a07da1139cc4c20ea72,2014-04-28
7e28b1d6b6834879556b9c3caa62e49e428351cc,2014-04-29
329750f91730982a02e9f0732e5d1d84eaa97db7,2014-04-29
069dda77b17f25770e68f4460c27d1c0da8d0f3d,2014-05-03
cc38140be4c7e41330cf7749c3eeba23c85f9522,2014-05-04
0466edb4ad41c8549ca6bd7be16b064274bce4c7,2014-05-04
9fcb67db2f20bcd6a2f7f870e3fc6f5f89589262,2014-05-10
84312bd93f895641f90900952dba6bb48d0b247e,2014-05-10
d111f4cd19d3d69558dd2186d778efb69b90b1e3,2014-05-10
d30c48a1943f165cbd18a33b629b15434079a15a,2014-05-17
271cc7b632ace0ce5770725d38abb2413af5410e,2014-05-17
0676d8b1733589a869098b9980118644b3bade4f,2014-05-18
9abfde9e5ad7c67ddad907c55bfb2378bc65082c,2014-05-19
22a03b59fac9fa58cb59a6f240c8280a2a1eb801,2014-05-19
ed70981925e64fd0cb593d09bdd401ea4ea19848,2014-05-20
e31b7377638b8d36be9b584e757814afc259748a,2014-05-28
f7c3bad89feda8a6b380c2df732fdfd762f92175,2014-06-01
3ae7f7f9668a7948e61fbca9dd4006efd30d5711,2014-06-07
97a01311da455eb392aea2149571de88cbfd9259,2014-06-11
a8a39be3f68e76589f209b99a38644f6e685b792,2014-06-12
9eb307e586adc21ffaf90bb640da0bdd725b106c,2014-06-14
802b77399480cb8f63c4493fcfd16754caaa2aee,2014-06-21
7bb06e78bac05e0e24c6ea81b34aa11f498ad61f,2014-06-27
b44760ac64862a09bc95d82503a32e15e45a8cf7,2014-06-28
b72c9567df964696afdf4335b9456c28d017afde,2014-06-30
84f9a172f93b041e482003bd6b5b080513c23c91,2014-07-17
3a4c135529929975691ae4a02bb3bd80014bab1b,2014-08-18
b16c9f29a8e21c77368f9970db862ad8f7af9f5e,2014-08-19
973cc9338ae5ecad033427a637e91565bcfd3465,2014-09-09
b3ecd1e4e34d191941b152d7e7c4cb08e1c0201e,2014-10-11
c27e0fdc165282f1c64648bdae2a51ed10f14d40,2014-10-13
23d5851ebdb4d2f3aee160a19c3b9d1cb4b23999,2014-10-13
f80b1f3a4a6a5ba3fa0366e8de425c5e229b6c5d,2014-10-25
40c2e6aec09d139a4e96b45856020a5b324b01ef,2014-10-26
1962206a01ada5b0edbaa13f2a9841d83937c27e,2014-11-04
f6617dd103dff6d494fce6ff9df95304375e862d,2014-11-05
d8eb48aa55c34a25b581fa29f401cfe350d49de2,2014-11-05
64b607fc113cec3c18d04574ee1c024192d8cc43,2014-11-11
eef290de39fbed723b666dd0ad9cab1dc5553845,2014-11-24
9abf80c98ec19a4d195ba49e3f450b095f1ccff7,2014-11-29
9631227619ffe9497c67d92d20428682e5df8862,2014-12-02
29ad4ba943710033124a6574142346b5646549c7,2014-12-04
6184a7f5cf2a1d97072aaccb9fc00e08003848e3,2014-12-08
0ad37cede4624e3d4764c400b1b46fc195420941,2014-12-15
f695ea7f23e1df67aa28756da47b39b0a42cddfd,2014-12-16
32b7675b726a1ca62f5080581f6daaf9b7c6a48e,2014-12-22
27c6e69c82a8252aed664b4ae6e09e5627778586,2014-12-22
eec5b4a8c942d6468d1f6ba389185116228de63d,2014-12-23
67ac248168089574248b040aee68e378991539c7,2014-12-23
5e62ed01a7e3e04e5411cee897815e7231335619,2014-12-23
8e0a87a37436b645481b58216df84f01fed10d3e,2014-12-24
15c81fdfc2ba4ecfbadac5a7ec73fcc61f6624bc,2014-12-24
4ef805fa1d9f7451a0a8498d03c45c289c3703e1,2014-12-25
0a4e510a94a3c8583c9348f8a90772b4e4bd7c8d,2014-12-26
5f8697391232573026bf0d06b5501957b6c480fe,2014-12-27
0de100dc1ebef241a1d2afc6a544c8e65090217b,2014-12-28
98c74ace40b089f2769afb3e56c59a64eef327cb,2014-12-29
755bd91f75ea56d8df25148509601d29a04a756b,2014-12-29
e49dd7a2f08deac92fab3de2b8a63e90b588f746,2014-12-30
c202640e12abcf7499e5bee9a216f575b86cf028,2015-01-02
8e201297fe9e6b5c908848c3cef633966e49c0d9,2015-01-02
8b0bdf3155c7c2d656cb158493118e9ccfae1009,2015-01-03
7a279cb3853415671f79fd47de72eef837950bfa,2015-01-04
f6c3ab9b16d1026d810a84c33f5476b26be5cd8d,2015-01-04
5355762a6f90e3ac5f3bfe4d2e8e2b862f91d21b,2015-01-05
8f54a48ea5397e70bb81155e298f83a6b18623e5,2015-01-05
9a5670beecbf43dd34f730299c609cce9fc7dff7,2015-01-05
52454c61993e4d4376d429652104ae404503c3ad,2015-01-06
3a65dcd37bcc46916eab37f340298ab9e1ca49dc,2015-01-08
ea565b2e30e15cd52ddfc2ddc6db4ea8f1c3de88,2015-01-11
c9b0262c4006f4d547726c03d5717bf53f6f4188,2015-01-12
c99ac2b462a8e7aa3eae6a388572582092e63f4c,2015-01-26
60f5406dcc094d0431420139bd002e8bdd4ea5d5,2015-02-10
dde9196a49fd1dc50be65e4381518eb4cd9a953f,2015-02-23
ef47c446a2c3dd9d4520b1cfe45283208ca9bb4c,2015-02-23
a8a98a0fbb9c1c3530316fc774b31dd38704e207,2015-03-09
60b1dfc169156f300045fd0e01e89b890661b5a7,2015-03-11
0b2ef95640f41a3edf5faa73ffcaf340da311fba,2015-03-11
f5dc99aa49f4832e3534dca6fdc90aa072ef0180,2015-03-15
9343be07fc3a7d4c5e8043a4a22f398bef563e3c,2015-03-16
2a4c1f288d284d3266b5aec4decb167a3af0a976,2015-04-16
35d0922f46c95bd73b1d070b6963cf3512167854,2015-04-17
b7baf23d86305762ea4e42adc4054c0840eca5ca,2015-04-27
d3c57bd4f38d5d3944da88266dd9b474a84d802b,2015-05-04
70cf626bb5492e6f3ca67c22fdee0618e7fbf4a1,2015-05-04
4a27e9179f17ce91df3a6b8518578f82cf1c8c86,2015-05-05
af671456b9d5566b49026ad2f067e5c4f3f0fe01,2015-05-05
9896c2f10ba1e74bb2bccd9699b87e78b60c8991,2015-05-09
fada82ca036bad8962f911d83fc325e6f48e363b,2015-05-10
53ebedf932b71bed7b05220e31b24388301168a4,2015-05-11
5df46746c1640125fea7e38c29481babeba63743,2015-05-12
2b236fd66abbfffeb1c07a22dde5dcb8d3a2032c,2015-05-12
cc82a311d55e09cb44c61f989294cf8fb3547a72,2015-05-15
65a64c54072ea9a169098ff087cccfe726de03d5,2015-05-15
805076f68a63858da8d8dfac2ec0e203636272f0,2015-05-19
c753d2e41ba667f9b5a31451a16ecbaecdc65d80,2015-06-18
40a6dc7dd5ff6843b82f904516181182d512d0ca,2015-07-18
dda7ce465d2e04ed5becf6b67e0d56d7336525ac,2015-07-21
8f5e344aba7b734efa61977651838a88d288a187,2015-07-24
b42e73f497eafe147667117202267ec756adff26,2015-08-02
4c90a2e04a83646597a506a80b5a885d5c515bf0,2015-08-02
a57aa43c57819e06fede3f89a653eb6f059449a8,2015-08-03
bffee2336725dde0f74933d5a7d12536c9bcbd06,2015-09-27
bdd6c6f172a1d8ab7ccbf33bd7c878a221a7ba26,2015-09-27
b74d7a398d1a1789996f224ad492f699e9948281,2015-09-27
a9015ebe7dd5bdc3d29f41edfa24edaddf316836,2015-10-08
784fc03fd41c6350943e0dcfa644d64be173dfa3,2015-11-03
38c6e610f13033bc40d0307c0a2f2e86a49564b9,2015-11-04
0b1d20c47cc608aa0a68dabd4f105adb6b690afe,2015-11-14
bf560c1b253c1a6d157ee4839f4bb1b31a790f48,2015-11-22
e745e86571628cd222d7dc279fa71d928480f927,2015-11-25
8396d21dfa874f84067e01097df2b0db04ba8f0c,2015-11-25
c358656c8799d30fd422448153e99a5dd37e298a,2015-11-28
38aaf7bca6d998d0d1a1839d2b8816735f9b8914,2015-12-05
9ffc45dbe0b9ef80ab5cf972a176548781d2206a,2015-12-08
2d73da131dfa77de81ff8a54831c7385a0ce2d72,2015-12-09
479ea36f8b3d54c023e2c205f7c9bc9deb2b1c89,2015-12-10
dc05078fe773100d1be24f057ade6c4411609e3d,2015-12-11
b63841d3a3922440c258098190371f1e17d977c1,2015-12-15
71ae4df298f42039579fd6e3c6d9d9060ac91214,2015-12-15
91abd6c4388067e762f64845314a521e43a1702e,2015-12-15
5bec10d28ef6732c76c518473ea532ff016c2a80,2015-12-15
6711a2b670d3ed7653ff68df83da79fd6ce5bde7,2015-12-15
c07f55ac92d1e931260711edae987b51bee0be3d,2015-12-15
c9a89876de476983f273edbf108c365127c18c5e,2015-12-16
0bfd6048574d61c138fd417051ae2a1bcb44638f,2015-12-17
3b44fa37675c1d68298283ae4b8b45cd5771888d,2015-12-20
02d6b4e78c4f1bda5f20e3089af024c58fe6baf6,2015-12-22
fb700e20af6fa71a20656cd240df4df3c8f15976,2015-12-23
c9334bd90f1ba826ea75198a3b3507c5ba99fd4e,2015-12-24
e991459c7c1f46d432ff4312cf7409884518655c,2015-12-28
f54abf09da257ce440aa4e5b4ffde5124ac1ee68,2015-12-28
5c4e76237ffdfd832dddabd5a0f029568f591c7a,2015-12-28
d9abee71f870d31d992402d2b855313987bf53ee,2015-12-28
e6dd58a886f989fc3f60d2466117ec14b0f7d5b4,2015-12-30
32fb79996c68241b5f4fba4670b99c7f03b65aa0,2015-12-30
f2461183e8a70bae2362a5237772844a48e16100,2015-12-31
38d570a6b28664b398cfa50c5c243c3631cde997,2016-01-01
0c3e06764069ea601df5ee7db30721fdf70a42af,2016-01-01
d3675a5e0f7ca0287d3441d1dc1284ea7b06a26d,2016-01-02
7826bcb2fb1facb697a4c512776756c05d8c9deb,2016-01-02
7f4ce6fdd75d142819d612196dd45aff0795d682,2016-01-02
8ee07e13d3100523a46e69f42e00c21ed66fc388,2016-01-04
b8c5938ed49502fbae89d0e842389853a208f996,2016-01-11
561613d57990912d3d8ddf7a4b6974a5d26c431c,2016-01-24
a7d3396047a75183398f339310774ee415c1c4e8,2016-01-27
18b2660873ed8f028ee72981c882ed676aa08030,2016-01-31
e121ed1ad291cbe04de989683d23f549d8e305db,2016-02-02
457f4994a58d736a4bddc95d2f053e6030c01950,2016-02-06
2dade17682071a3e1d60df4113795117e5c1833c,2016-02-06
784fabac7d1586a5614bd4bc8854fd62850dbe26,2016-02-07
7396ac00bc4c661ca9529a4339bf35390b6ff598,2016-02-21
c5cc94ee19d766955b8b963df06741ae26ce7b0f,2016-02-21
a2466acb7f2be6b3369e1a0cec6fdcf9accf2460,2016-03-25
85f74e2004eaf0d4ff339e8644df3d8e716361e5,2016-03-29
8996934748a48fe04f7dde56069042dfecb64c91,2016-04-10
d8552f091ba50a775f10aefb581612c8078962bc,2016-04-20
5cf91cf72eae1a4b9c89d597eee7e8eb765aebed,2016-04-21
047b56833ccd293ab8f9b1f61460d6d4cc1075da,2016-04-21
ad103f421ea546c1cb929eef0610eac5291a0607,2016-04-22
4b0c09eb6f931c7ba9a5735c81af115a302ed336,2016-04-28
3c51907351d6b0ed6a6cd56d3417ce35a32df186,2016-05-05
4f24a30c12032b7033884a630696014afd3e77cb,2016-05-08
bab8943f2b5c8bc44a64067ada556aa62fcec3a7,2016-05-08
8ceb7480f39d9e69fce451206644f80b0242b696,2016-05-14
fcedc17f5605bf712de0798cddb5d7f166b09017,2016-05-20
c9290b76961c46f476761ccadce0cb006d474b92,2016-05-21
3699d5c9fd0ad78fc52e3ea317951f9d485f656f,2016-05-22
91d3fb1dd4a1454289ece516f70236eded2ce1f0,2016-05-28
084b06b48bae2b566bb1be3415b6c847d8ea3682,2016-06-19
0f5c5c6431cfe7e5227d90fc08e822cd3b2cec9f,2016-06-21
576408374d58a3e9a63714b6f7761cb42a315102,2016-06-22
ec39c462324c0a54e6abf06cbf8079298056b7d5,2016-06-25
15a5bc40a4520d935bbc02a3552f51dda77fcc9c,2016-06-25
c6a578ec7696430ecf5a4d4fd8f49c39b105b471,2016-06-26
e3b3180f9c4cc8821e9092955127935fa956a988,2016-06-26
1ef0b078a8f690f72db8243ef4b8c207a5aa2acd,2016-06-26
c5187583bbfe93fe58db80f95b5b478c84180c29,2016-06-27
ffd9dbec89743c35fc8c6819cf52aec953b45c12,2016-07-01
1267cb958c507f123ab135cac638768009dc84b5,2016-07-07
0c04821a25c83fddebb29e8cd590609142ba20a2,2016-07-09
3d43a8dba89ccd7333c3ebcf74928e441790d943,2016-07-10
fd509b937c4a5438fe02ddf06ade5ad56736af5d,2016-07-13
ecbcd51fc99c565496be15cfd7eadca465ae4a06,2016-08-07
45f9338ea8cddaddd833cb427a94ee049b8ebc01,2016-08-20
9481a09848102eb511cdda3ae025e88af633f679,2016-09-01
7cefceb1ff51390397524474ca59f9d5e7ef3eca,2016-09-04
039bcf92dbff48d1162016f8cf4ba08a99071717,2016-09-13
508eb90b3c8d494686651bc423838f5750f60c92,2016-09-18
814d254ab7a076fe3a2b073cbe52b040ad1cc152,2016-09-20
bd8c48c1a4a9868aa955db2844a3538a5e8272e4,2016-09-21
90f6bcb21f07f6caef63a47786a417195ae5f386,2016-10-12
8ab575ebb7c6f613d07f4708067e4347e60f66d1,2016-10-12
bb357db283fde2cc725a01f3fe836916a2046421,2016-10-17
86be1c3acdf3c7b26c57cae17612b74ada5ce1a1,2016-11-12
2a5fb08b39195d4238c7117e851e9221f94de62a,2016-11-15
40dddb9dcf8ba654e16f6497020043b38b6d22a1,2016-11-18
949439ae5b0c5fd70687d1f946cac80552a5a7f9,2016-11-19
578d8debd65202f574b544f876b45e6110afdb69,2016-11-21
fa83afec25ff613341731e1552fe9897d755b338,2016-11-24
4a50bcd30be1853aeeda48dd877d5048ab6fd96b,2016-12-01
a589b8170333476233d48476587a1d4363c90bd0,2016-12-24
8331b2d75a51631bee622daf2175854fe49ce29a,2017-01-02
98443a9ca8ca9ad82d5fb9b05b32f180bb510601,2017-01-03
5af089a71997fb454b0ef063664db267d8038a73,2017-01-20
3682ee7872e734e9d2f57f601192d6f7d7baa4a6,2017-01-24
49e9294feb2e5700d574857ea330be89f85dad7a,2017-01-28
b3ecb0a6c9bf3a213377b889f2b3077a940363e2,2017-01-29
3931dc8df0c57c7f50d23f8de532da0a51434f26,2017-01-29
9e0b5b81b0ac25f59a25bd744dc788fe5c3e2971,2017-03-04
e786a376426b938738d3333f52891c68339ae187,2017-03-12
8ac0828d5a47c008da44f1d7999cb4151402580d,2017-03-25
9d51dc4858b8491688890c6d3a2136eafd53e5d7,2017-03-26
c9496d350c0c3bb4b9d9571c3ab97181726561e2,2017-04-15
011b2ee76d41fc689be75e1aa4d2efd9fe33c285,2017-05-06
8a9a3703a34439c53fd62055890755bda8d37a22,2017-05-13
741811aa73fbcb8ed84e0939f2d87d18331c6fe0,2017-06-15
7131fb250c34882c32f084c5b01a28ad0b6de25c,2017-06-17
a5a597af9733f08b864ccb0e4ec8652143fa1b35,2017-06-25
a32b1044a480aabbf4716d5c90b907c5ec46056c,2017-07-02
85168a14c53fff360d89fe88856ac0072374f434,2017-07-29
2d5583051f993467b3fa7dc954bbf2fed3186d97,2017-08-02
0d1163dcded8f234576b478696001dbac7edf5fe,2017-08-06
3b878299e7ab60e92669ddb9c222cbfda67ff038,2017-08-06
ed7709dbe1599ff4e2fa0c65962528464ce54aca,2017-08-07
13d81f8d1b6ea1144a4a0bbbbbe03f390440f257,2017-08-07
da4e249b7339c9d6e94535fcee63de0bada8f944,2017-08-12
e5f50b5bc65e71378d9a054891328815b52c1f40,2017-08-31
a73c21771777ffd29e1d7ce296b252a324350284,2017-08-31
abe5d62bcf18781c4b32418932f60e62cfea1703,2017-08-31
6663f063e6a7dfbc02985d3a86c36a675347d3ae,2017-09-01
33d31d073ee451a3848192a4737cc06ab83cbfd6,2017-09-02
1d9c158a96382facc3be672f6b41dc79fb5eb48b,2017-09-17
78f49fb3fed19d3f3574ed42691a8f82e0f76143,2017-11-30
ca62d97a9b27b41965cd65bf6f870ec3b52cd170,2017-12-30
8e1e9078c823beb77b95776b3cc6a6a4da4d7a07,2018-01-17
bb304b9c2cfc02fbbee3e3a99a360e1d25e37b48,2018-01-28
9cb3af2a03870f54a0b49c4b26042e1ec98d3513,2018-01-28
2d71309d941689091f8ec4735f3edd21caf04150,2018-02-04
d0418379a7c7a0c92781e4f5f75260d28a0b0145,2018-02-09
de806892e39f3b33dd501e46a22edf33e1c7c8f3,2018-02-12
2e85e1ecf7dc11644132a0c8eccf6641d9ed22af,2018-02-13
e5fa0b989ec8e5f83f0e33c2046ab79094b39310,2018-02-17
2db8c41b3b0f0476c0e8735f4d57562d50f32ffa,2018-02-18
6c66d6c41b108e47d99180bd6b0f61e117fd27a4,2018-02-20
abb0a790802996d1039c35424b70b0f3f06b94b7,2018-02-22
27c8a793023f482cc1c383a916e42aedcd3b8efe,2018-02-22
af6198a1e992b55ff4d16dcaeeacbb4e90e29c8a,2018-02-23
cce5ca8aede3514ac4405e5f908f9f324053cccc,2018-02-24
9a6f88dc34cb68d341ec1a7e4c79546fa1c18c96,2018-02-27
2864001d99374897257f93d426e2f151dd1234e9,2018-03-01
691a82b58e8d6c47cd9bf33fcee8a2988f08226c,2018-03-25
355c8b0ef12318994822b4095dcd9cdcec1e259a,2018-06-13
f6502e89f9bb96c4b76800c5245170a76b60e60c,2018-06-21
0d04eecc01864d7185722c9cce0ba364bf068422,2018-06-23
63ed542534eec2b1eb124531452a467b5541baa7,2018-06-23
5b37cda9e00626f43acf354df145fd452c3031f1,2018-06-24
e983dd2ae0fec1fef4eb9b08584cc2c852b47114,2018-06-28
36f4fd04f74323c137ca6ac1b464e9f5f04f33bf,2018-07-06
31c511f6947ccdd4bdad4e1232606d399a8647de,2018-07-08
b1bfe7130cb0163736ea118bb779c66d04fa8a09,2018-07-09
8ba6323b7e5980afce86c62caa9c8d65772c05e3,2018-07-11
37887141fe8cc398eff35dc4fbe74c9b4bcdc26c,2018-07-12
137e7de0454f10160370f105ac7d9d2fc5403c84,2018-07-12
a01b5115985e555761fee9f9dafb9d7f14ad13cd,2018-09-01
077281796ed65222e24e70b2233c9e1a7e21d4a2,2018-09-02
0b2486f7f32fbe21c8630f330d240546a15beb66,2018-09-02
474c23aa3035dc34eb6487ee7e2d4ba03bfb8c7a,2018-09-11
d2ddd4ef9d3f86d5e0df082bed000a77b155073e,2018-09-24
5d8fdad791e84daadc7298fc539a9313674d9095,2018-09-24
0ebaef2b9bae5420d8ab4131a060e4b422aa6058,2018-09-30
c8cbb0d022509452d0f6366bfc8dd889d5c0a8eb,2018-10-13
3739c5cf2095cb3789bd828f9e33a0bed90183f4,2018-10-22
d313ffcca0d461352adc1ef6468094e230dbc48c,2018-11-03
40c0c47bfca308743568818b7a457ecd05b4c9ea,2018-11-21
7e9e57603e97b8d780646665425ec9d12cd4d572,2018-11-30
dddbd58581da38e605e8fe10387a184d6303b4df,2018-12-18
fa4a6ace6322cfb8c37805101a018912d2674799,2018-12-18
4adcbdfebf245c5678838b6dc5704b9fbaa76cb9,2018-12-24
c6823178c13b4b431c0735b05e5fcb5860f05440,2018-12-29
