CommitId,Date
2a4122c11b95eaa3213c2c3e54a93d28b9231eec,2013-01-10
9d48f996e4ee55e89dc3c60d9dd7a8d644316140,2013-01-10
ab8f73fa70a28674153e10ba6cd2e338d53f70cf,2013-01-11
f57a242b17f1214142dea97c0cb9049b106378a0,2013-01-11
e9d98fc0b6cb9931e0fb85b21030702a27de22b9,2013-01-16
aa423afe518e998fb0a70c987e529f3b4af954f5,2013-01-16
787d8fc0215c5bab541f61c2d69a91753d462559,2013-01-22
e5d9d9c26cee43b2a435f0ecddf8f0c676fa80a5,2013-01-22
967337e24e594c9a0fc19436b993ce549c93d288,2013-01-23
9eb049791037ecb65da18b562ff57804fbd6e942,2013-01-23
377e5bd915e80ec8c664fb4f64c92a7b7a8448e5,2013-01-25
5d6346e0299eefeac6b55d371a2ffb4b550203e8,2013-01-31
a1a146930b3c5e63672a7134ca726d22c992ce52,2013-01-31
b22ab40b0d3da6ae2d1506a54d399db939062205,2013-02-05
56b52de87c2f3250d389239765b527dc1e3b929e,2013-02-07
70c0c378c1d4edef599b715376e47cd7d9634098,2013-02-07
321f3b005aeb04a2ca0b91a5d9d21d9c407efa65,2013-02-08
75b9766db85e103a1d55494d250cacdac64896e2,2013-02-08
51a12c1d5c5b88d7788e61d8927b1099c616d017,2013-02-14
a69f49608546fc946a90f0a19281c9e098d8c1ec,2013-02-14
100f571c9a2835d5a30a55374b9be74c147e031f,2013-02-15
1292a9a07c0fba2128800fc645011040e4833cdf,2013-02-27
3cfc1567b5481fb2569e2ef00f49a83d496eee3c,2013-02-28
57fd568007272f457b2ee60a6077771eb8c424af,2013-03-01
be7d6a704fab29418c3eeda6d5b1a1f2b852d753,2013-03-04
775712d061760764f60ec5548955cc5f44d25a82,2013-03-04
d538d6f16d58c47818d1626f808c042062d3dbfa,2013-03-10
571a9708aff4df2d3bed624b67bbbfc4f98853d4,2013-03-12
0b6261aa5775330f0895fc65068a17d8fb15d6af,2013-03-12
538547b8240d43cdbe4b1c33a0e61d12f740406d,2013-03-12
9eb111e1c7bc65c994768a6ed8afd7b9842662bd,2013-03-18
db9f9a60afdfe3b3a4f8a9e2d0e085b5e9629847,2013-03-19
eaa0316231ac0b8233d49f77a7ba4f85ea5d9537,2013-03-19
fb555df3376301595f6596861662c654d77209d2,2013-03-21
1fabd4252e703c2195ffd1c0bcc00cc356bdf555,2013-03-25
e449fb139b70db15ffae182355d5306d90389adb,2013-03-27
4919472dd12f0230b9116544182d0e706e44db06,2013-03-29
be560b58da1c89e56091cd109f620d7eda3a24fb,2013-03-29
4cb4fed51e23bee21c03b0c2af0b891ba55934a0,2013-03-30
5b9bca978150a0ec352da38dbd49df7b5d9997f6,2013-03-30
12954a69895db8e60522c72557b93c53973dc436,2013-03-31
63cef64fa9df12457791fb7e45f0a0b56237d0ee,2013-03-31
38e9e3fbf8e9e705b2ba23443c6976ac46d9fb8e,2013-04-02
61e6eb97e8d7141e41b40222a8eb4b2f0508b9ba,2013-04-04
b24b42f819b6c11b2d652a985ea8816bdc4a285c,2013-04-04
c2a40bd1a391edf7f8b71965ca20fa84c72c0bb4,2013-04-05
4510b6e4e1fd22b914eaf8599c5696bbf1fc364c,2013-04-05
a8292de5086cc915dc431036b32e0e98a72e8e91,2013-04-05
7c6a14d2ea06580921b877c531a68746c8df50ce,2013-04-05
54c1dfd9d9a228f7959ac2eeef91dbafce030805,2013-04-05
74ba4ebca1188e593526829a506113f2e930fa5e,2013-04-11
f49c462e71090bf97a294d7074d6d0234a5abd60,2013-04-12
98f6cbcad8ba427f7caa2f086ca72da1c6a9294d,2013-04-12
0499cffcb53f928a5083f701603ccf3ec3c81c60,2013-04-12
d0061d4c0980cf8dc9f531f054fe493c8457f0f6,2013-04-14
6e50257ba11350fedf5d45a1f0d7622002eb765a,2013-04-14
f1be5f4addf30f47b1d915ca708566bf49beb7f8,2013-04-16
ea88d82b41b85750ba2bddbbe2e71ca3580d621a,2013-04-17
0f221121fb8f96326901e56698cc4deb85a68bad,2013-04-18
7a8b681f591de2bb47770f466f3867bafe70a9e2,2013-04-18
8c4e92258d5d2b34fbee7d402d70892b02dddf78,2013-04-18
3e5bf0ea2fbb3dcde30a2e944ecd2024652a5be4,2013-04-19
fbb27acbdccc4c1d2ae1f6760d406470581228c9,2013-04-19
0c4f59aabc380a579c611f7d6623fc141527a52b,2013-04-23
f2ef8f041b44c6982f2856c683921a25ba8166b0,2013-04-26
36e460a3e6ea40fd9453b06350da1cdc5292d6cd,2013-04-27
788d431d98df0087a4ea7be7b3c82c4c5d2a8209,2013-05-01
b4b635e6a06e026ead9f067cbdc7acd274ff10c2,2013-05-02
1b903d31b82dc39776675cb836be6fcad981786a,2013-05-02
4fdb947b43d7bc2b37edaefaea7af1d89afdbc62,2013-05-02
12c73c7f527f9a49774457c51b86662f0efc097f,2013-05-04
5ef3600f81cad6cd57c91440d2dfed457bb543c6,2013-05-05
2ea065c0ef22ea7cf58e9fb6d6f24c69f365bed6,2013-05-05
b20b62c91c737178fd3696400e9a4b3b8a825102,2013-05-07
4250d279e381cc5aebe9bc9d421ae1b5e926494c,2013-05-08
1fa6ae3be23200c787cc1c25c0bb8cac99ae0d17,2013-05-10
071b8943520dd8aa3b05c2b3c6c452a81778ebae,2013-05-11
fe4fb241673dbf5a3e438a0ec5a2a9ac12d2e1f1,2013-05-14
09b2b2af454bfffce0bf9105e52c8ec5316a305f,2013-05-14
58cc48d0c621c1b66d490c2135c53778ce32f0fb,2013-05-15
eb7e414f1a2bdd90b7a9e31d8cc3ea39512ada7b,2013-05-17
81adc5c56ed93b418ffdc158f7db21a25b3402f5,2013-06-30
59d6a57f9a5e93146bcc83bcdb6f7c26ce644c51,2013-07-04
6886142c607c0f95f32c2eef02f22ff6b8101b26,2013-08-01
5b92876d8c30c7f1be7a914fb46e438eb1a26638,2013-08-01
349c11ef76b979a5dc541e16552599e7feed5af5,2013-08-01
0531b8bff5c14d9504beefb4ad47f473e3a22932,2013-08-01
413887485eaaff20d960fed8d0c5b10449cdf1d4,2013-08-01
35cf457bf5c487afb2d380be17956b3084a1e558,2013-08-14
b80de9378807f9b8128ae63c2aeba7d326eb045b,2013-08-17
2721eadf651b4d31a6c80546a9bbd3312803a7fe,2013-08-27
f91a2ea489c8650a1354a9d12695795fc3e71f37,2013-08-28
0438505d08862d6240e67d685371f84c1047cc11,2013-08-31
5b5aade918ea3d9cbc4aa993a23a21c1b3beda2f,2013-09-01
ac6a0a1ad8edd25b3c17a6fbca6960e9bcdda020,2013-09-01
a127b061ac37a7a6789db27dc9100132fffc152c,2013-09-01
5789894638a62ac17b5276053e3bea8bdd570580,2013-09-02
09cac8302d0bb6277e6bcbcb69ea677abe515684,2013-09-05
4149aad8d543445fba3c1045d0b10a6053ce418a,2013-09-05
c968effdbba6e9d8e885f8316c288ae36cb9e86b,2013-09-05
35855706265f63550d42d6c022319b07176c4416,2013-09-05
4850c862a7245a40dfa6dd1b5ddddbc32f71b5b7,2013-09-05
2aabbd374737b9733de674b8f45d26c427c5bb2e,2013-09-10
1a0fcdc976d78aea4ec59c6ab73e0856f98e6dfc,2013-09-10
4c0c4dbc54aa40619066a19c83cb21257fa3e07b,2013-09-10
2e625a6e7644828bc8a0d8d097d5c5e4cb9c2e0d,2013-09-10
78cecddcb805584598e4156bab10ae282a4dea71,2013-09-10
5fabd5883561ff18b18b0d1dfb7001e2959cb11d,2013-09-10
531ff06861db3d7d0bf602a0a1ea446fbbefb579,2013-09-11
b407e6e26bd0708881e3bce14e4afc9721da0bd1,2013-09-11
1d183a3a71b76e185df0f8180544fe110459d6a0,2013-09-12
1ea15baf5b76d407c1aa97331c3857c95d229bd6,2013-09-18
d5dd873e70a67611e2b5fcef388ef29622075632,2013-09-21
490ef8663965a016270b74a293c8e739ec5d98d1,2013-09-25
715dcece5c781c394b59f86e32f1f514fc9f7a31,2013-10-10
10da2ae1c826c688af3d1236eb8aac237f1db397,2013-10-15
c4e3a6c61cc62c09588437426812187395f6ecd4,2013-10-19
2de214cec5e44dc8af134ccb08a5da9df7c87278,2013-10-21
e6a2951c78d1e0a2365ebbd4e5d956ba7ecd8d40,2013-10-23
0659539b518d672c90925916069d722ab86b6376,2013-10-27
5417b596b59f001b1b04f6680349a33c38180c34,2013-10-29
36875309b2c4e6276964e013819ba513e23eea24,2013-11-12
470bb89ba0ec9e0ccd1f4113804dfd9e8998ea41,2013-11-14
b9d29cee399ed33ce57dbc2aa1be2a7b06000e58,2013-11-16
9ff362496d5e92eb97c77f8d38836d17663de25f,2013-11-19
bc6965c5b9fa85b010e97a5f3efbcdc5a3a6490c,2013-11-20
9a6f9cbb2cb7e54e698a01657d59f8ee0ed5f462,2013-11-23
1a7e51f33a28f9299719252035d6bc218eeedbdd,2013-11-23
564fba0fbac16bb50e998cca30e2576e448705de,2013-11-26
7e43a6c40b2094d63271e43d8e80be47fc1add94,2013-11-26
d1706bcfd8be7538c49e40086613ce0a3fabc841,2013-12-05
dab56f7989b7f42c6f0c047e253d0748493dc027,2013-12-06
21f7d526ad38506c0635576f54cc710c2e78a7f7,2013-12-08
078b6877176b553ee2a3b3cf0a92740d4be41851,2013-12-08
ba1d44853c2780039d870ee1d347f35f81d3ed79,2013-12-09
99ceebe86c99dd9a66c7b244511b6dc8996aef40,2013-12-11
d42b6453a35e6aba72d467e88997a0adcb57b916,2013-12-11
5915fb3df3ddb708efd7e74a91f76237cfa9bc62,2013-12-12
1338e87802c1e709bef619fba0e94c2db331b028,2013-12-13
39d49fcf3c7c1716c6d0d0c048598aa131899a1d,2013-12-13
d7997fb7eb2d9f20891985007331ba8a7f45e467,2013-12-13
96064c37af520de375929ae8962c527dd869ad57,2013-12-19
6b036e80620ca834e42e42da8fb5ca069bcaccea,2013-12-22
a144b0e20a44a4d84ec58ccf2d213672a4aacd75,2013-12-22
8425eff1d1ae7bdf63ed454518cc8f460320f1d9,2013-12-22
9561bfcc5e3bd67e3883d4934144ef75ec888bae,2013-12-22
4af68d8eda2c4a40fcb0aa4eae49f18254ecf8af,2013-12-23
109572d78b41a1f872b9688a76b174841e6a6750,2013-12-23
c3ee3483ad038151fdcacbcf0c69ca079f47ba7b,2013-12-23
591826561a931b25b0712c7d88793029d79c4cd1,2013-12-23
813988b67d518e27b5c011ed853cd0a08819de6a,2013-12-23
f6676429980073f83be79d9e8731bd971ca39bb5,2013-12-24
0689479d08f1bf0d504ec45573b15a027cc9bf52,2013-12-24
4377b364dcb7368a6d2b0dd4a5eeef48733e8983,2013-12-24
cf33aad9595a26d08654a6ce89559c4a69c5ca94,2013-12-27
f8fc1cb4c23f4782605451bfc0cea043b6a5e7e4,2013-12-28
2c3db738bc854ca99167859091ef0482e35a8012,2013-12-31
5b2dab3ad9b2226f5be972f6b4035f82360d1199,2013-12-31
f5314b1b53e6ecb7cf78acd2106fc2ed69a6b102,2014-01-03
8b0f3b007a8ace9c96f1f42c88c9aa84a81d9a4d,2014-01-03
a18b8c1a572b7b9509b7a7fe1a5075ce93657771,2014-01-07
8e6bef3fc36d3f9544d8530e094a1031458aa50b,2014-01-09
337efeb42f1ec27679632718fd022d98f61efa1a,2014-01-13
5fe7d1d1ebfb9e617736be68fe84c082d125bdca,2014-01-13
71baf0eb409eea7ebfbae2e41cff126082c7be6f,2014-01-16
1d1066b1fa68afc60711ebc000dd33f7e7ca795f,2014-01-16
2ac7ec41c2d1c35cf76d03d03ce5c3b1625d322b,2014-01-16
51b8acfa0a3728fceb2b3c01a2800dcbacd6c8df,2014-01-20
4571e92ed5ec1bacdd02d0874b3f712aa3cad75f,2014-01-21
c2baf9389f66e8f333243fc1b9c4cb170da3a4d4,2014-01-22
f3dbf3c03919e39c2ce6a2e3d94216534a7bb5c8,2014-01-22
d2cfac110951d8ce695b373752869c3c8a87b9a3,2014-01-23
510850e39c22138857ebaa8e7e4231f767233d0c,2014-01-23
5478e30caefe14b12a12c4e1e9c27ebaa40e2004,2014-01-23
050e62ac2d316774bffdb5f1bc7151d692a3e56b,2014-01-23
88f3613b08ad6840b941195be540bfcc555b9ced,2014-01-23
b49943ae60a13df551ff26a6e712e444a316c54d,2014-01-23
4e4c165d59f3196044a7a79d35e40e32126d153b,2014-01-25
f5eb8f77d66b9f90a4b4458ab4a96f9af86f8df8,2014-01-25
84309b65799ad69ee3b24957e4acfc3e1877dbe3,2014-01-26
67374198e9dc1e3e00dd56f5c53984af3cc1a721,2014-01-28
60af29e59b2a3353fb8727cd7028de15b435b1a5,2014-01-30
47a0e1b719d7fe28a3e0dec276b914e52d1270bb,2014-01-30
d91794b7123f58d5dfc85fa7edfd8c33ffd9655d,2014-01-31
584ef6e6467fb2d58a27574269b0a004efbf8f04,2014-01-31
9b3fca18c1ff2720b6ea7dfe841fccf11613623c,2014-02-05
fae7a9b3283a3e895f7bf1ca8d999a67b7c14d59,2014-02-06
ff394f7df04031438490b5ea22680acc58453d4f,2014-02-07
d5e5df402bf4d18075dbf11f311793399a682e2e,2014-02-09
867df14ec40cb00035c74704628cd7c0c322b491,2014-02-09
5a16e025aaf1bb2ca7fee8c340516d80c5780f94,2014-02-11
9e35276aae3875e93c3e1f12c140cb716a2c82ee,2014-02-11
4258d776b0bceabef67285a8c48ca527ddf61514,2014-02-12
673b03c8127b5da4a57d86292782bd9f5ea9633e,2014-02-12
98e75c2044a97166ca7e96ca9ce16055c07eaab6,2014-02-12
dade7e12f304068c233abcf2decc562860067422,2014-02-12
5d1006ea07432e34f1ed4b2d75c0024fa8cdae78,2014-02-12
9b61c134e929dbd5b17216a58453bc8baea9a666,2014-02-17
d960dca137dee5aa223126343c7cd670389b160f,2014-02-17
c20c01e866a7001826c942c631166606c052e9a7,2014-02-17
37523c0415b72bfd896d7cf312187222a77d7d8b,2014-02-17
873fa75bf80fb6dd05c53d791eac8441147c528b,2014-02-17
ac4aed1bdb7a67a3fae70c41549aef7e0d4fc6d1,2014-02-17
e2b67b8c4c37c072dcd224448a9f1b5849d19884,2014-02-18
4328276cf5f287c0062bbf708b6f56729d55def5,2014-02-18
94c8b6bad01902404c16affbad26f960e37ce178,2014-02-19
9178d14d6bb44a1925562c49a2d299b9c9422408,2014-02-19
07ce114ebf0e6a7a190f2e2d708a749dd323dcd1,2014-02-20
c298d5efb1a3b2d84183330358dded3cfcacfa38,2014-02-26
8b3862e679c545bb2185cd0745c1e4cac6ef582a,2014-03-01
eb92efdbcbe49bfced1509012860345ee8729488,2014-03-02
29b5150d06593f266fb18e1aa5aea0bfd1c390f4,2014-03-10
b8a3cad8b684177be06e65a0bad7850d8e7e9382,2014-03-10
a3f7a8359ff3df56047357cb1058bfa22f5c5aa7,2014-03-10
cd84189b1c762f5a2861c1653808624e06f3a3da,2014-03-10
cc3c6546583e9a0d6d8463f5054ade172e28ffd2,2014-03-11
10fa25558ec092fee9e824849697abddd3f1c51c,2014-03-12
d7037b5c5270c0f6af0381af03d60fc4f916141d,2014-03-12
2f0670ecc6fdae7ce8cf30848e79a773f520934e,2014-03-12
34a2561f9010bf81506da54ead6858e77ab5de40,2014-03-12
2136f8f73175f193fd5fdd124d140b544a0f3ba3,2014-03-12
6926fa6d150a2ed221df051deb72a4d503de50f8,2014-03-13
2fa35e5569d0919c98178dbf4d26f1fb07b8d7d7,2014-03-13
00703cfffdc6687f460445eecd3d6b8a801acf17,2014-03-20
9785ada2e5825b5882e225fc25ec34d073485f1f,2014-03-20
682f4bd73fb942cd70116dd3aa4d49953bc3c66e,2014-03-24
5dc029274e41fdf5f761b0207e1dc96a1af2cb96,2014-03-27
3520445b61b7f4f483dfbd742cb973044e5fde13,2014-03-27
59ded837de3cd8347ef213cf47791f6f45cf1ab3,2014-03-31
0ab352f849dada233f287fcb27b009985a6c1fc1,2014-04-03
7ce68609c93c30d6cba942e4d22a798122266689,2014-04-03
bc6ad010149592a3e868ffd0c6e7be5f9a2dbb80,2014-04-06
bb46e032dd257dc02c029ffdb0baf2a7816eb114,2014-04-10
0afafe3906a0ef4492a5362651ac886f8c8c060b,2014-04-12
5604c180f173603a8385b130a2b5e5b60e00439c,2014-04-18
e79790556db6c66e22958e2aab7b47e1a6bf6b5a,2014-04-18
46d3c66a36dda366c86e86efefe56264e1b491f7,2014-04-18
fe9d383bcb989045316d4c2add4a5196cf3c55d4,2014-04-18
632ca76ebee64546249ee1d7ab23b40047df5dd8,2014-04-18
15a20e1996b70edd8c6e47862c252e17252d606f,2014-04-19
6896110c55a4f5b24c4cd7399681c1c1e1327169,2014-04-19
3759b0eda798d1d1c7a577ec3bc74582f2194c4a,2014-04-20
598afbb62b315caea218abc4615c17f2c12a3319,2014-04-23
817fb3ad57ece39e3e9493f8bc1c0fc22757b297,2014-04-24
bf976a2683fdef06fcbaff8e12edcc80c27f86bf,2014-04-24
3da91351e5b24d3738661672ce2a3cfa2fa9e588,2014-04-25
cc1776de75dc18e8280f6c88b78e1898df311520,2014-04-25
96b64b15173f37e79475ec240abf02bfe63156f1,2014-04-25
483662fe550364d8f525f9e665e3d37b3a848412,2014-04-25
79c07ee6c8ed9a6a06b21fba8835d067b597dd09,2014-04-25
96f4b664bdd0a42222bcacd73f7ee618ca006508,2014-04-26
cd0a844b9bed0c604e9f435dd7bc22473c32a248,2014-04-28
26a4a1a05a6cc367061639fb19bfdda9d5b97fab,2014-04-29
bc202f40b820c0804ddbf6feaaee4a5d33602826,2014-04-29
6fe11aa16761d17986457a5b80a6f4d0e84f1d0e,2014-04-29
49075d6d5d413301c53f1139d64d3cb7ab4460e2,2014-04-30
947e5f8662bc7b920f1e33acb46a1a88333a0763,2014-04-30
129e531a0d3b7cb5b3989e6e2a5e9b633a2cc11a,2014-04-30
21578d5d06523542516b027e6927faa569a33ffd,2014-04-30
8fa3a37420c3bcca5ed8355a09cd67b75ae6665e,2014-05-06
b4b67623dab336a61c53d63d55db94640fd02105,2014-05-06
67cae348ece850b7e89f58714c5c4f9a4f651d5a,2014-05-06
f6af2dc155022d74b891b58e0850fa4d40e2b9ec,2014-05-06
4bb777c63a38d9e962766a0d7b612e6d8f73e980,2014-05-09
5454879efa0c6f4effa9cbf20cc3d6f8a66427e4,2014-05-09
d27b8c7791b6d76474b8d9cda42a7e1ecc7f03f6,2014-05-09
1b88781653cde78650f34eabe1f07e53560b0880,2014-05-10
c7ce158d3bd3128b0ca7f7f892c86fd87d539e3d,2014-05-20
5d7d73c313561b1c7907149e424c75f9b735c9c7,2014-05-21
8b8c72113f277c21d413fc52868a1c6a6c4dd0ab,2014-05-22
2a08d800b11e0856a8cec7980660bb54ca5c408f,2014-05-24
992ff293a9dc7efbedaa8290316f0f4e9e030439,2014-05-28
15c385de5868382e3bfe5339736151e1fce9aecc,2014-05-29
397b1d3a581b7f52f14b25c15a2b8b522a776e0f,2014-05-30
5b5d99f27f593155844bc0a9e2eca3a004f2a941,2014-05-30
744e1034d14005fcad7191b0e920342d4a163fee,2014-05-30
007ce5508e36f865ec9afb04e1bbd826f9ef58f3,2014-05-30
1c00aa6cc578bfc5e792aa5409ff1f336529ac6d,2014-05-30
0177a46e8423f6de91bbc000ff78f9e3d818b384,2014-05-30
be17891a0ff0f6aa6fbfc1966d234cb828b246c4,2014-05-30
75303612b0041b0e0e819b209e554826def251fd,2014-05-30
99c6cdfd348c6f76d45982e31e8f35917eded719,2014-05-31
9e66ce4f10384c7944d67a1754d65dba738175d3,2014-05-31
95081655154ec9f12475835d13be5db06450af87,2014-06-01
459da07f18d8ce34b373c5a4f2c1d580c3f6d174,2014-06-03
641d4bc31dce250b9de821a0b780ace815131074,2014-06-04
419c0fe6d97a88941c68b30cc333274784b095f1,2014-06-05
00459308557548fbd05f386048515d255ac53781,2014-06-05
b5655d2619808446ca798ee976974b419bb80238,2014-06-07
935b63527dacf2c380a53ce83ca5b1d06aadca75,2014-06-11
30e7afa3d913a828672b503da01e89b4bd2860b6,2014-06-13
ab398c8e931363104bad190c7250186b82a45010,2014-06-20
636a83aa8d84e759ea20064e91799b5e45aafa59,2014-06-24
76f5cc4ae6906d0885a1626ad280f4402ce7ac69,2014-06-27
750c627ff41599bc91b72daa3fc2a1bc67726e28,2014-07-01
78572f35e7ae1d41523ae888656d91f8ac76f3d0,2014-07-02
97f73fa2465eced4a4b4d75fd346bdb121893883,2014-07-03
7a9ae10e980c33fb7a8fee447b917cb8b8f03b1d,2014-07-10
3a0d891f179fc29d369b869fc1ac565154e8fc23,2014-07-10
68367092136798a60f27e3a0c13b09ebb8725e85,2014-07-11
f9a972272ab9cf5265c652efa8e8eda9d465008d,2014-07-14
cc117734b1840b15bb9f600d1c66c80376b31949,2014-07-18
30a3f2b8c612c91e5037a8bcc7935b35d9dba059,2014-07-18
07fb3280cd777bc79c7f59fdeb07dd814c9cc9e1,2014-07-24
04349fa7648c56471f8e4a559a80ae776adb4a34,2014-07-30
c88078864ddb3e9c5d6173eabaa8e98d53107ad8,2014-07-30
0c4dac63ac027929235c23ca5ec853b66022eb11,2014-08-04
071aa4c38c4cd035642610757400b37ed26f025a,2014-08-04
b338afa0f302066bec00b8d08cf7da358ff246a0,2014-08-05
d8edc166bb29906d9e0a40fdaa362224013a0ab8,2014-08-08
99e8400ef0f9f97d44834c79b4a904558e92016e,2014-08-09
0475f5ccd1be776c9c8355ec8ea26df581766866,2014-08-14
d71b76459b88b5a14d18bd60e77498cdecc5f6f0,2014-08-14
80bf26b488a17d831c1bb29f1bacedf4d8acca39,2014-08-19
586c69fcc4bece32bc0da3d05ffda1b1818ca1bb,2014-08-19
155860eceb1a7a3e8f7d255f821056039fbce505,2014-08-30
49c0032a11f2bac93d4ffc44be9fc80476a55968,2014-08-31
f7a59afa822d14d20a200aacefee2eaf82845e12,2014-09-12
db2ee9a71c9e6fe74a5fa8d10d0237cada606320,2014-10-01
b9302956832e3e77579f63fd9db25aa60eb4192a,2014-10-06
2cf434944540d66ea683bdcb84499eb5f7edd2eb,2014-10-09
0a229e42bd8ee5aee14f56869e121fe30cdd1d3f,2014-10-10
fa839bb1857451f08c490585e03b874a419da097,2014-10-10
3cecb9037aaf11c131451fef962d749487420798,2014-10-15
56b9feaf4257c86f5f952677e3529b09cb16a620,2014-10-29
f0ff512e838f49b57d260a4625bd501631539bfe,2014-11-06
6349171fd2bb7b01a0590cd261eb3797e329e985,2014-11-06
30b9296d7df4d413f5fb433bfcf2c70c5c0c9768,2014-11-17
51d68ed289da30b4c2d8263320b99dc0c015d47b,2014-11-21
158d9d9c48654f5c4cb8fa2c5602c06292cdefa1,2014-12-01
54d4224297fcd4c1f2c6770b1f0766dc3402c374,2014-12-04
4c16adf9b06c2c84e94f1269266805aed1e54b9d,2014-12-09
c38a7806224772d508a8302c0fd3ae85d0ea5957,2014-12-11
f6fd5deffde08b35a6b01a3ac3c6f58066b3a1ee,2014-12-12
e39599cc4fc01864d6aa1297b85c414d53bc97a2,2014-12-23
b5aaf82ea8c7addd2cd197f1c61ddec9ee5ee962,2015-01-19
ab8460bfb692cb2c0e7d6e6e34522e641212f42d,2015-01-22
1ff313fd3964355d49d53ffa403be7ad6a41a603,2015-01-26
9fa580c29243924fb4cb632de2c19d1819fb12c6,2015-01-27
77c5643180ab875b3fa7f4e61ce9191014b85f38,2015-01-28
308255868f25e8f805d4e8b3f9a9d3571636b817,2015-01-28
f78903f4e5ddbe5a18820efec03b4382568a8565,2015-01-29
02442238766e644ee05fbbd1340d58ae25f91275,2015-01-29
e0e630e050a75cf0137d335ac51ff137f3608b93,2015-02-03
152167e803a616ff5a330f83a80bb142a42373bf,2015-02-03
0d4b610e20a65ce9466832db1422f9190fba75c6,2015-02-04
4b4bea248558005100bd9774e38b573bf7fcbc86,2015-02-04
0e0949d8458d3cbe48ecb2d62a0234697c475020,2015-02-08
c1d4ca7ecbd2da2c093aeb512668d6653a7a7609,2015-02-13
2c2051f53d571320b58787f9110b0bed687ec2b5,2015-02-13
ffe0fa1c7e6f38a668d1650c1409a9eb81604788,2015-02-19
56eb4bd253c5a7a7211bb984700eb4515107e857,2015-02-20
cea2d9df417ff9ee036a4031e4a17fe0c725282d,2015-02-23
382d6dfa95e9f55c48d99883f9db460e9c16da18,2015-02-28
94b53d6b5da0d0c0b83830fea42a99cd2916241e,2015-03-05
d6eb4dd0ff659c7132e054e9623ea85745f9548c,2015-03-05
f8373d3b9bd94571bdfd9d5cac53d3ccd8a036a8,2015-04-14
5e47f78712b7a3b0f018554a4661fc6535c907c7,2015-04-16
615db6a15d8ef5dc8be01e963d058c18fe853a10,2015-04-21
bf12d3279361a9fb9ffba2bce95f36b7931a6fe2,2015-04-23
491e615d4d1a11e583b8c7bb22ea86b49794dc8b,2015-04-30
8eb6482ca7e343a4ab76f5daafb1866878337182,2015-05-01
b28007ee8f236ffbad6d1fc21ff5867e14e3d75b,2015-05-06
2b4fc37b144847684ec99e1bf319863d5238ef9d,2015-05-06
da6ef514458305b2c26acc910175c336700b4636,2015-05-06
419dc0fa188ac3337db83bfd702809c3d11ada83,2015-05-08
18caf0e77ae1f7323095c7bd2fa93464a8146368,2015-05-10
5db7b94162a97c1538066ec4ded322aac6ce56b3,2015-05-19
39be3108711b0d66a2cf8e98737660b6d9ef4208,2015-05-19
9585c6e2a54d89f032ab9f2082395eada69b3512,2015-05-19
7ebea13695d2be28866023fb67b48ad734ab25ee,2015-05-20
0cf708256f99843444a93b8de950641fcd74bda7,2015-05-30
0fbc4077df4ef73b1fb5ba5cee56ab17da47cc52,2015-05-30
eadd43f007ff41b3cc73739ab58c4a7b7258aa39,2015-06-01
b3c611c39cd133e7eae5e9e66b07ba8c9ff92656,2015-06-17
2d5ce6935910cb3046384254329bd46236802796,2015-06-19
39d3bd97b2472de77727b00768abc2767aa30624,2015-06-22
46f9138f509f22be61d435cfb79335396fc92c48,2015-06-23
e22acf63e83e483c875ddb1ab15f21eda2f00d85,2015-07-13
0420193e7c075c4fa7986fe03e96fe4a92952cde,2015-07-14
fc0c0d734fe0daab62d12b74459f79c7f1fb3187,2015-07-16
2f7031e780404c8f5a355809dd309885f27ba483,2015-07-18
1e2a7252b308dd3ce2fea78eaf2134ea055b8565,2015-07-20
2423a17b5c3e5917a1960ffea8f5ecb11ac373a6,2015-07-27
8ad226067434cd39ce493b336bd0659778625959,2015-07-29
dd5c6464f04fe07ab8562e85486e0b563cb543ab,2015-07-29
f6ea890eabfbcaf925df4e5014d5055d9a6add1e,2015-08-08
9643d94e5f5c8815d00a3fd4003e52cff70cda70,2015-08-11
3c47643121cfad0075ef702ee4d9f10eaafe4952,2015-08-26
b22f24fc086085d66842ffde0a30c6652843d6b0,2015-08-26
98074a267c23c3dadc87a47e4ebde23c80756576,2015-08-26
e616cd323bc767ca1fa02c3d19d1b85978b0cacd,2015-08-26
89e9b0dd4f966fb782d84cfe7d6c0892cec3a8c2,2015-08-28
12266f392f9804537d0d2235a5365bc7b58c9e4b,2015-08-28
021a3f45cac5c440d4662608989d93e5d626f198,2015-08-28
2152566c14195e9be80414d7f2559f3392d16716,2015-08-28
9e296f4e1bf122112689eedd2a4de9acb71bb8d0,2015-08-29
ff061152477310ff568e104c1ffc42d8fc5fe731,2015-08-29
9f394817fc9650c412efa4a0d2716730742f8ab5,2015-08-30
b51cc2152c2f110bc25006449caa896c12afa4b5,2015-08-31
3061b7c8fa8ec79bbbabd60d7056de3861509c9a,2015-08-31
4c3d19bfbda6d20e52a6f9f399778a7a50826282,2015-09-01
3faa3ecb0b77136c93d20ef52e1e2896453d7702,2015-09-01
9f4a65711f4c220ee128c63bd1b44e21e4ea3fb7,2015-09-01
92b27f2f4a2aea910c56092c9c4f7176508f6ad5,2015-09-01
97020800e15477b0432726fe4d24282577b27321,2015-09-02
28fe6fd4cc5d0c551b11ca299226a5b3812c59fc,2015-09-02
94c972a47fd10149a1c9549c4a8018ead511b14e,2015-09-02
f1566d6ec65575d8eeb91241513a61f459e07049,2015-09-02
df1be3ebf34c13e1b39c40490088bffff9c329c2,2015-09-04
071de1fd8ed980c6b4160f03ee580d5f67f37023,2015-09-04
c506bb831476e56a7317dae5d8e0290c70454be2,2015-09-04
a1394f65b57f9d55d2351ff597df396a7c8cba42,2015-09-05
5ec9cec92f1ca5a203d64ec499e676585d7f7c4d,2015-09-06
03189e87ef95cbbb0b5f44bc1caa615eb3267be8,2015-09-08
43e5299a956febe9dade523bfa9d985482f31a1a,2015-09-08
7f865e17fa0d97847c6b2d0e4d78aee1789f95b6,2015-09-08
b80a051b9791ed83928ac2ee74b5c987fd65abae,2015-09-09
216082ce21b67516bc3bef015e3acaba7d28fc06,2015-09-22
9e852f1317c6bcb89f73471dec6aa134bb4d7abc,2015-09-23
ca20a2bf090a4511bb5ab6f45b710e791ae62fef,2015-09-27
94bbe08c83a381954cd46c88b0b73b75908b9ca0,2015-10-16
000a174d87a901135f9665d3b11f3627fd2dc4ed,2016-02-04
835e4f2a007ae11f9fbb4b04342d6a56df9c2709,2016-03-19
e222162ff6ab0a666e9cb67c2f80cea6d1bf7801,2016-06-19
3382fe792dec743a5250bb9ad877fb98ca828f3c,2016-06-20
596f77f905069911f2d9046046afbd61966b54fd,2016-06-20
461a7bbf452c8bacb0e10036a3825a8f8a7e74b9,2016-06-20
95febf4a68da221ded321669e95aa619c6a40b27,2016-06-20
113eeeb2c3e732fce96945304b8a3e27cc3ea7cc,2016-06-21
c67eb0343a52acc0783259847aeb2ba99d81e82a,2016-06-22
2a1cdc2e1505361248c8d0d74ae32b8d2bd4baa5,2016-06-22
3fd1cc8441f3409d68d6d4dc25142c79feb16649,2016-06-23
9b2869fc46f8ff4b7a89492807b460bdb49c2f1a,2016-06-23
e9fad2483026ece4853078e47b5fb93bc8cbf0fb,2016-06-24
b40b124c135bed4eea4dd0374d0fb62a79361cfa,2016-06-24
34d5c96bfc7e89fdb840ee6c568cd4d2421f7be6,2016-06-24
05e160c7cfd2212a0b9a985c5294c7de5c844d90,2016-06-25
109c8c2cd5c3cb2db61286cb3eb59150a9d5f746,2016-06-25
ecdd8bb39bb35d07590a5579794bc302a5e00389,2016-06-25
ecdd5639bba63af8ab21f11d66de65317883f9a6,2016-06-25
549298905d32b1197c1cceed48cfa5c5995ef6a3,2016-06-25
68a9a66d27386e0fce7196f2797446676f1206a6,2016-06-26
68f85bf4b7c11b0d4be780f871152515947a2714,2016-06-26
13df09b14d97820d5becb6d9ceacfeff5091a8e3,2016-06-27
d4f041bd1d7944ee467f3cbe04d6f1371e8f312b,2016-06-29
4dbd7351c9b514e2661930c2a9dea222cd91748e,2016-07-01
af3107cd4c0c848d6956a1a1082cd0b3180ac5d4,2016-07-02
4c7e62cfe92990ba5fd8d954cbd4364f291b986e,2016-07-05
75c40b58fc3f56283ad88ce299c72419975f6b00,2016-07-05
ae2aaa607f36f284e462b4448c9ba74b8cdade46,2016-07-12
0705001df0b52334829b2e4963469533618f14cb,2016-07-14
487a0ba52137e13d996ad12fc73bfeabb03c4fb7,2016-07-18
cdcbf01561afd30d06a6c2afef120b35d801e2c8,2016-07-22
708310aca4d1168a7121edbd1690753396acc391,2016-07-22
9099f90e2281e388385663c37eeaf4b5917987ae,2016-08-02
2241a729e74166506ec9b8ae15841b1e3031c4a2,2016-08-06
cec5dcc68c76cadfaf0dc0372214e43c33e805fc,2016-08-06
e81d399fe3cebd47cc4c4f8e8a3fa671eeac454f,2016-08-07
a549174e7cc2018f25574451d70e4156b3ede2fb,2016-08-07
20373999c6ef718878e40769b27bb787f70c5938,2016-08-07
d4e8f29730350efc763521f94f7ea23cf417b0e4,2016-08-07
cc851579f4afb2e8f78f8b9b9cb8acf168c7879e,2016-08-07
ed9a2c4b9de311929f2d8d5e37c3e078cb85db07,2016-08-07
6b0f1b05353cf0c3ef63a1b9923b77721f35227f,2016-08-07
2de974aa65a226fe10190fa0881f576814459d42,2016-08-08
b575565fdebd48c28ef13e9aad03bf01b4ccd96e,2016-08-08
9ca507ff6ffc6269dbbe40d6039f89fcb292705c,2016-08-08
f7d78095602400915af2dc98650bbbef2cc3b564,2016-08-08
5ae5478358bca16364e153b498f65f9c4546de4e,2016-08-09
344453fe06842ff1c91b0a981c50056ce5531d18,2016-08-09
7f07f4652352c656cf0997de97fd54c12bc17c1f,2016-08-10
2c3ec3802ef27e1cb2b66c87f51a1aab427b2bba,2016-08-10
d6eaff3475b446b2bfb18896659655a94169d742,2016-08-10
cb427c56705986bac1012a433a0b17e6bcba1f5a,2016-08-11
991ae3486ba9509f114a7645429126ef1322634a,2016-08-12
040345f604b67d85b76e9540aa601648d048d2d4,2016-08-15
059c7e6264de04e2251ea77e39e3fa9d7ac47625,2016-08-16
5688cc8ad6fb20dde449ba71138de278baba86ea,2016-08-16
6291f5908f57e271caba226f0c3dbeaecb602794,2016-08-17
ec4eb4f3bcd0a0c2d4e17571c8f4320ee864fd5c,2016-08-18
a6bbf4630e9f3678ac56e96f9aa156f3d03ffc56,2016-08-18
23461ee40ec28b206c435530d53ffc59563087f9,2016-08-18
4aab4ebe3bfca585d370d78b1a6493844854181b,2016-08-18
60bf4fc559bac80ae5d53793ec008cfee067f29f,2016-08-19
fba05ea81197929e8a66a1db8bdd4a590d5dc7e3,2016-08-19
f738a85c37e8ffd067dc6b6108823d84a837e773,2016-08-20
7a1a4afad2984fb95265ec0af061fd1e87f0b75b,2016-08-23
bffcee7c16442cb9f4a9307ca19b00a0502a1695,2016-08-23
9fb40403385d520b80bf9e1cf491b1f1a197ea56,2016-08-24
35c8da6ca2f0c446d9e50d1c5507cc80e5ccb996,2016-08-24
7aa0b347cea8aa0e395a7f9ec488d7006647a329,2016-08-24
0094304aecbbf9cd9b9b6cb1b7fe524a4b2ccb75,2016-08-26
4c0f93be9e85d77a90ad4dc877e475621fc7ccd3,2016-08-27
25e78c553a079bd84a4d8ae827c6dad899de625c,2016-08-27
f97c50dadcb40a0f6f41734087a1c52d9df55d08,2016-08-28
a856572327528ee05c1d1ab05426343aa0c5224b,2016-08-29
0c30b087277850f637ae156b582bce8858580b17,2016-08-31
88fafd82aeec802e0e4b2a3595ffd0ba2f6901b6,2016-09-01
52dc0500c9e7fea96d614d847f3a04eb1afd91dd,2016-09-01
b15df9899183ecce0f40b132a47be5700a7c7a32,2016-09-02
f59ce00934a65b880cbe5b7e06436f85e73187d9,2016-09-03
83a3332cd6ef994fa7b6f52ab7070e52dfd6f925,2016-09-03
10f727f97efed67e33c4ec5cf6644267a9a9bed6,2016-09-06
1f0a116dc176cdce4e76192edba4b92e3e3a8eb4,2016-09-07
eade864d3c167adb4a3384576d533c44f68da123,2016-09-08
1145819b658983807e0cede5ba2c7d5ac1117baa,2016-09-08
4ce25cb968179460f9bc1ef75fd2e071921add01,2016-09-08
4f878d56988d572257309dad1a1d0c9fe601f3d8,2016-09-09
63c4451dec13ce83665323694883f9b933f779b1,2016-09-09
56d5586f5ed8b08576418f6e8c8a2ea9c39ccb46,2016-09-12
8e9c935d5cfea34bee05b762407cc15106493f17,2016-09-13
666b05cc824d8c3927e071da97455e84505d7ca5,2016-09-13
4017e26b22b4905c241d1f3b13e9387bab5ccbd8,2016-09-14
6ff866ae1b9ee08194c01a2f3b2d5cf091f7d78b,2016-09-14
470eddb38b71bedcb4c39c1210db8dad67900600,2016-09-22
31ed500a7810cb772ef4a7dce882b1062c4749f3,2016-09-22
603f6c690a49a0eb73a7b9cec247ba3987e96772,2016-09-24
d85d40ecb1d4c3e02a4bc9589dd7af2900752259,2016-09-27
c3a1d911bfe9df41a700b9623b90ed54388f316d,2016-09-28
9047a3ca85f7cc5d2816c168e0de9a714a8eb55f,2016-09-30
50598b3e5b28a619879e90aea1c798e2008d3e7c,2016-10-03
df94c0d23b8f06ec861c2533313555cc6f8afdcb,2016-10-04
5888b2361829fa5672f9f6825ddafa0fbbe038a1,2016-10-11
6ad74b366ae6cea0260974d49642883840281bc0,2016-10-11
a2cb6ab4ba852cf35bbb98a580e5c61819722b31,2016-10-12
e71d371f21b6ac7ae6261bad3d5a1406dbb5a286,2016-10-12
d320d5cd7227fc34b7e53eccb8979d64d29213e6,2016-10-14
a5df9633c242f10f28cb0325e510a5afa74bdcb7,2016-10-14
212db455ba1d7e2a84da20ae272a6c4bce183ea3,2016-10-15
637978c66ad9d461fbee298f23d95bb73dbd0a5f,2016-10-15
788873e29511758ae5ccb84133e53c86f9caac38,2016-10-16
c460dd5634bc216c4bf710a0a934b188f78dd90e,2016-10-17
e255de7db02c715d7441d63e774d8c3f34d40c06,2016-10-17
81d281f073b9c5dcd9e8b81bb6befe936fa8ccf7,2016-10-18
1124dc78cc3fb104c0473ded0649e5051e04f91b,2016-10-19
d2c9c34e311347ecfa5b1cb4a43bd8928b0b11a7,2016-10-20
869c8554ac1ed46fb005074c20e5432e74cc255e,2016-10-20
42ca8c4ff63323f1d667671068f98fa362b0632b,2016-10-20
98d0b7f2ec63544890d029282dc2ff3f611b987a,2016-10-21
3634c92cb6a8199b8022ffb3bd8e2a65da9c18f0,2016-10-24
318bf43269c8534d1790b7968251f8f5eaed02d4,2016-10-25
83ba4b9bc885f7ae6e82ef7f2c86826e05203e85,2016-10-25
07d24c2ecc61eea94b6d646e02ddd9799b42de7c,2016-10-25
ff282b9647d0accc0cb55780c9bdb97f4ed03053,2016-10-31
2332df245545fae31c996f65c5aa1c50799d3be1,2016-12-09
9b91d4ec21bd889e7c23359a45b0cbf04f406678,2016-12-20
48516372b9770a0f442bea06f7f93b3d27d6ed32,2016-12-21
71330c06186d72548a3443e8b22ef52d995d0e64,2017-01-04
dadb49a1bcb2f16401abb1b5908cca3092068a23,2017-01-20
1ea1291e5fb4bcacdb6ff9f8d38c55cf24342ebd,2017-02-02
6daf59ebc19f5ef8914086fe466823f51ca628a9,2017-02-16
06f801c7887b26c4052f7e93a756cbe233fcf876,2017-02-18
a00ea07a4d2ce409e8dbea66ddbca9c0a77ddab6,2017-02-18
4a32963dc011bf02bd84cf5477d5147a01f5eeb6,2017-02-20
421c5bbb2312b9364e11a0f02cf84126e94961fb,2017-02-20
3bfc275ca2f8d14a67305bbadb7bbc6315205250,2017-02-21
7494a2c05cf2f02142fc3193682141826974661a,2017-02-22
2a4b18e743f0958551f4e31fdf81e618cc35f238,2017-02-24
19ba993576db0f93e671cf04a2e4becad5c92d1b,2017-02-27
db75e89f131511657c6410d87c3231f76387ba63,2017-03-16
476a69f0ec8473c108d5f5161923b56fc3a5fda3,2017-03-22
29bceefab6ca563c068f4b030eba10b98767ea33,2017-03-23
0a07ac1808f1c0b93746b6f9d550f9f5f4717be6,2017-03-24
6c8b0efade6e2b82b32daa18fec7b045aabb3f6c,2017-03-31
85e0ea53cced77d83f7f84f780ed24eedea7c9aa,2017-04-12
8bf04e968584ed49139af9f81854ae28b225e0b0,2017-05-16
c507577566e7b3a548d2f8256ca2f144ac14a08c,2017-05-28
b7086efb4a3cf53640075044c98ec3edc906f746,2017-06-17
31b41f8d4b0d0534a883a71491ad39f326ebff36,2017-06-27
09df08a93165895fb23fea2a39aeb8e00dfb1e3c,2017-07-18
81fe956dc0100dc5b0b5101669a8c326f930f93e,2017-07-18
ea7ca2c81573c56274163ad3e51d8cc07573e170,2017-08-22
9b037c766ef6f40eba72b5e50c079a9b8a2edd47,2017-09-10
ad8ca8e587be6f7836e5c76707248ac955af54e3,2017-09-24
da922d22ba731663d57abd23f468c92c5ddfe72d,2017-10-03
5387e206af84b2dea77ecb1ed552b16dc1aed2c8,2017-10-13
9521512c0f0c980f074ec5b0fbfe954b00c56f1d,2017-11-15
9564121e09616df909c2d23c4bba62734217bdd6,2017-11-25
d2fe631f3f05dd12eac2b8e53d6525e9acb474a3,2017-11-28
d91ee5a632a1c2cd647ffd54330772f5bb26d2d2,2018-01-06
4fd16ee958f7fbf2ee147bd152f4b119c68afd31,2018-01-06
eb426fd01df975f65fdbca9e5effa88d5e0200e7,2018-01-19
f6f6d82782b145ac4155707400db1b2f38cc221f,2018-03-03
0ea2c957d753abd95bab725a29dcdb0356697a85,2018-03-04
a267d7efdfe58b5727b5af22070ba3d953fe060a,2018-03-04
855153e7855f5aa1ebc3381126d0c6cc7cbf9628,2018-03-04
9f2c435756483bdfc59fecf4837e54eb9bf3d755,2018-03-05
cb05a2614c11ebb7b86e723556f98e50546a50ed,2018-03-05
92812812a20db2b5b1c40d0a733ad5bfa320e7da,2018-03-07
7646371a4960be54f015467a628dca6010026773,2018-03-09
ab520503925bc9cdff47d6a4ceaf8b2209b61250,2018-03-09
4bc516c066487818f7796b1e5cd57a3b582c832c,2018-03-15
e25ab2441e13c7ec34eb6f868ea61a57846f7b6f,2018-03-15
8a6bf14fc9a61f7c1c0016ca217be02ca86211d2,2018-03-15
d57af5af671f13d29177984c57092379da30f9b3,2018-04-30
6fefdc6e6ca253f4fea2a576a0e6e93ee340491e,2018-05-29
27c63b6a4c2074657aed4e7ee6e39a52173bbed5,2018-07-19
45cc53db6d9211a8fc2f62b8167ed54d4f7fda83,2018-08-01
a008e03484177f48ec7fef4c311705bb43fd8ec9,2018-08-01
579e90dc21937b900877a8baf3918cdca22d3a91,2018-08-05
fd63c492c576a2784a5665925457b75355ecffaa,2018-08-08
0e7b8eaa61f9cac0538ef6a59bfbd0b119b87732,2018-08-09
ab649824e6d55505cc7b3e6d9fb033143146b110,2018-08-22
1a774e6d775d381937ae360296a88610353fefe6,2018-10-28
76abb7beef3aa0b808cdbe193fd96ef04a5f0903,2018-10-29
c3cfb5ac774a6e08e0d1fdd42dd8c483329f4f23,2018-11-01
acd5466c4440961da905d0c1c0e78752bda155ef,2018-11-06
