3fb74a60a0a57baa019e0f790052c5bfa1af5551
97ba25854476bc5ff9ea4b8d3b4a78f6e9cf1a3e
4ba15c8c3abb5baacc742fff14db1d647cad43a9
e8acc611aa5c756bd55763e43778250f69122d52
5b7e16afb5533befa27870d8460d02045c06f776
8da92ebf9941715d88b58ff1e6011474bc8b400d
78a52d05c3f08d948d3fbd79b34e060d861f5e90
c6823178c13b4b431c0735b05e5fcb5860f05440
0685dfaa7ff71a8f16b1b71f417b08eff13ec55f
7e53755666ae2cbf125c79e106739caa3cd298ac
371b9f83d8500da05234ad628c3ce56a893fed27
8c2a4cfffacc9bb8272182d327b05488a1810c80
47a0b72c247f37f62a91b5c5377899100d0ba3f3
0bf3175826d6f3ad991fab8574fe342170020c41
1b1602d6460bc8212a738475d8113f65b4fd7c89
3b9b8fff78bf2e40af88ee91091e1b9cc7308660
3254a95dcfa0ca09f6300390a1be46e603162092
bf8e653c3ae7e2265fcbace6e4894153aa6030bb
bb2f6fd96d940945022acc5d6bc8b6ffe1fd6f69
bb992a8355f32a9dc746db477d30265531c8e058
5d56601f34dc40a98c66488025e0bc97a2fcc670
2d0b92264bf9647bb1ffa2f2f95c933476cb583e
f2006dc94229283ed79f028b3bf22e0a2c7accc6
c6ded84d35254bd60537eded89b68895e31dc5bf
4adcbdfebf245c5678838b6dc5704b9fbaa76cb9
37b519d026ca201d8a5144a4e244741c2410a93b
6f0c880f17e8c73a6438331379d814a6ee79ce5f
674a41e853f6625978ac761c30a1df59624d362e
32bf2f0fc10cc35e92d70a50436d84ef591a399a
2a0185689ce03b6a511225f634810d891b43236b
8c2f43f7c631551b535bed79d59db9df1330ec25
fa4a6ace6322cfb8c37805101a018912d2674799
dddbd58581da38e605e8fe10387a184d6303b4df
1b6e9ff3098927138602fe39e546cdd2ee48f397
e8b752a7a95cef40b21e8ecb1e37f3577fa70441
f391dc5fd3336e40d5c7e73ec6ef1b97253719de
4b204037e6415a486df4eadb0c659c666e6b9aba
53e324589b2034b9b7e4bcf0660687165a3f3e3a
6286cac458902c9df0a6061bc163b9cd659ceae7
7e9e57603e97b8d780646665425ec9d12cd4d572
c4c384086aea85cfb7d01cbeaa8ba532da6b6477
fe5d3eb89549d9ed7433bb88d364832e66b76cdc
b822c0d38638eab892f57956a278ba0d89304779
5912d5e68afebf40d042986a10df9f4009ce0b95
40c0c47bfca308743568818b7a457ecd05b4c9ea
f38c74130d302352ee450e41c843dd99b51880e2
6552fece2ac1f22d5c6f9bc0d58ca1304268eb8e
fa24d3dd7465f79aa35c3c7066a3269975be87e2
c273b3be385383842e44d25d6b7ca137ff6b1076
7f63a35ab1a8344279d2e84e07884a45f45f0690
9e195fa37d0e1a48fdb2c7d8457a4177238c66fe
d062472253f4936c2e9aae2d858290e692295f05
1f7e796e6e658df34a98276b2092a81de118937d
ef34a41d09fbcc8e03c179cb9b121c918f671f88
5a316c0b403809558d9a2227a4d8820642ec34f5
764b31b3e2367dcadacc08b818739b065b1c4bef
495b5f78a072b7812fe06f0b4c6565d5036f0587
62f2f823410661128d1d9549b9b727f824637f6c
2c95b0437ba953459838a72133baabc386ac7721
04a74b2df4754575a762ec0056209b9c9fce0062
af07e023f8d141d4a0cc165962b5f5cc997cff9c
9f9903e7a36a6b2d7944dc12bac4344b68643d8f
bcbbfc6a541a58960c85a765dd4bd5d3c6272c5c
0a8f4186440d7635eb19fdf7e685126fd0b00486
5373160d20aa3f6036ff5ebc91137888c4abffbe
fbf243b8807aae8e4eabfc91b29abe42334c7004
2b0a9f4909e841f174791501108f17b28230f640
70bf8e78b7dbf8ed08dfd93596ba6ebfca52d3a3
d313ffcca0d461352adc1ef6468094e230dbc48c
59ab235004550cdfb4033872b8736f0e86cef402
c951e6ed887ad8b9595652f39dad646590b22037
801197e83981788a2cbb0b627b3ef748c36696ba
4e1f2816f3060380e5aac04b766d68afdfebc8e1
247ef5c05460b4efa56007b1127b0352c0a634be
6c53f71b9854f463eb7a62db13dcfb0c1a798e15
3739c5cf2095cb3789bd828f9e33a0bed90183f4
2bccf45185890c0686fa52c43caee5ed66d929ac
719c1b50deb9d1c33f696f0b7ce700c59ae7ebb5
c8cbb0d022509452d0f6366bfc8dd889d5c0a8eb
be245e75cdfe87f077743ba9e72c66e04c3ded02
ceb42f132220c71c7ad9a2948b24ee4f9e7df8e0
0ebaef2b9bae5420d8ab4131a060e4b422aa6058
cdd1c00c80cb81965e369fa335f5e9626d54a07a
abb3744e0ac62818c525a8b7c54f90faf85ba332
d2ddd4ef9d3f86d5e0df082bed000a77b155073e
5d8fdad791e84daadc7298fc539a9313674d9095
66e1b2899cd7671a5b1f8ec4b9eb0a7654fd566d
de4acc58bbe8d20853502b67c5d1dc8ea26c0fef
0ad4130a085e04d368df02b83707f5ecbae8f076
88b49fd8215266124ec9b010395072f2a7d5c9fa
7bdedbe624ceae5aa87109c8dbfec5f1f7e40c19
1df923143f087c826eb767ff7dfec940d8322dc8
474c23aa3035dc34eb6487ee7e2d4ba03bfb8c7a
0b2486f7f32fbe21c8630f330d240546a15beb66
077281796ed65222e24e70b2233c9e1a7e21d4a2
a01b5115985e555761fee9f9dafb9d7f14ad13cd
a146e50427203d43dcc1f56bf86d5b04b14a6ae1
e06de327e22d9302781611594037542e2fed5ea1
6cf1f1e75d53e6a6094c9880c5126b86e048e7b6
d562795f7daab270c8145a4aa1fd20ada4e63967
9b09ac5a3a988aaafd22ae56f6f14f65e3f0b26e
efe3de88acae1e3e30e8e98ce2cd7f9415299e16
9f2364be9ff71e65af8ad5d761e60065113abeea
ec0cdf2970aa6104a481e35f4e2734448ade28bc
8e2116fddcc1f9ad2b15d03fbc8918e30831d6a2
53a96f243bb7a5ef7288b182d43c117169992e95
98c620e19aa1172a5b78f8f9308d61edab2d1105
d77dd1d5ec38d09731e1d4b51befef1cd6fbb868
911a625cd5c2a98d721daa5c0f3945674b707500
ce66fd5d7d0dd3bd16102aecfb0c2c37724f0bbe
e4444ed1b76d1030cae513f9a603e9932bdd0ef0
9828d9df70259f0abda37ce5b69a8683726e0978
c654ba5c21d86e06e830f4b08d9f4529d58200c3
7ef5f55d38ade360c56af3ad0999c17b94f8da61
95ae0cf421c0f9c5521578781952108d1a1e1bdd
bbfdfac0064f5fd601e40f4f78d28f823698ccb2
c07b8fddc9c2da9744e112aec54e1a5c3b957bb6
f5905f4ef3818d8f211e6ecee9892709a28206d1
7a29af6d95f961e1861f54b03525938ce1f5c0d7
137e7de0454f10160370f105ac7d9d2fc5403c84
37887141fe8cc398eff35dc4fbe74c9b4bcdc26c
8ba6323b7e5980afce86c62caa9c8d65772c05e3
c71ef59a908df3eab353297b3053be16dc07e055
00def7aecf475380cae291b88aa5f8f95f9625c3
db2ae92156242255a0d42caaf50c7801e79de917
b1bfe7130cb0163736ea118bb779c66d04fa8a09
31c511f6947ccdd4bdad4e1232606d399a8647de
351b3d6bf786e001f80ab3a7a933d4279cafbf83
5785e1b4f6fdb782b87ceaa4460bc4fca28d747c
c84c8fadc2febd8915df51c7291df95833637402
21acfae8e3df493b94ec884fae5c6dc588e5f18a
d908a676c25b6b3d547b45a9970f4bfb7a358010
9745e15d275e64140203c31a4b69a41feabe65c1
36f4fd04f74323c137ca6ac1b464e9f5f04f33bf
aac684aeae32ff18e443799a3ccff6de9d68a684
e41f2cb1d8bca45f92e47cf6d62c940d503cfa3a
30e72340e0c5a74feb347a79621b93d640ded576
bdbe2dad8806a77bf018b87f4518df250fa67f89
8b17ab4e65b21c6480a38c383a16899f9ffabbcc
aa58436fbfb7e42fe225fb65c68d17c5f86b1624
e983dd2ae0fec1fef4eb9b08584cc2c852b47114
5b37cda9e00626f43acf354df145fd452c3031f1
0d04eecc01864d7185722c9cce0ba364bf068422
63ed542534eec2b1eb124531452a467b5541baa7
f6502e89f9bb96c4b76800c5245170a76b60e60c
44efb0990478ee25e371549693a5a1062d74ca3f
0024b66b4ff830338df387c9e08ba5bade88aa1c
7d5793dcacab6d01f6d3b0c1bfab30b4e5f20317
c3c95924747846ae35c728d84b4ae37503013484
327de18c95ab972963190945a8b72163417d7406
092f9a1b4ea5633f3622090bd91492b9a39d5722
5a17198acef96906dc6698245ad3192a1b4f6384
355c8b0ef12318994822b4095dcd9cdcec1e259a
a16ec15ee08424058b26c6bd62afc98b32df98bc
897103e17903e8f351569e9572186935b89dcee9
fd1e5551fdc3f2effa333b56123cddfb454aead0
84d24fa538d51cbc96c39afe0b1940d6010e1666
f27e8b408b24b17ac6f0f357cb7f92f55329d006
e41424d00eef3645a37cbe772fdeb4a591ef3510
fb83491cc67ea2763c6e47af00d7f9f2fe4c2744
5c73e3e1b8ba7e7785293b7fb45f0b59849371de
f9cef65e353235a03a83dcd65a63a284ed461450
d66238d256c0fd08f9e5794d7581f29f7e202bd1
1f668c41d110db68f1e75d491a31272e0c3f1365
795cafd2ac0e00449aa0b84e8b0a4dda859bc7d2
db18f0e404ab35c7b23e8ecc27913d717e96eb84
fa994f54e41ab67dc407d37a72f4faa4a5245d1f
117b755c98497b22f77280dc5f20393400188879
9b6afa15b64fb2acdaed46b8a35b3dbe9ca55582
1ca5c113e4938a4af8092da66daae601aa5e1847
c218c1a445f528c37ac16add90325db040b347a7
b35ad1bcd1b39a37e1e993b730c0c24c04a90ef4
691a82b58e8d6c47cd9bf33fcee8a2988f08226c
878bde8fd6939b508adeb21e2911e390cfe27326
5fe3cc2d089810032671d6135ad137af6f491d28
69bdd6961ba294894620f850b6b01d7175ae8009
2864001d99374897257f93d426e2f151dd1234e9
0b74bba08805c28f6aede626cf06f213ef6480f2
c3d6607a14f66eae3dedc927a3eff642d1493caa
9a6f88dc34cb68d341ec1a7e4c79546fa1c18c96
adb2a82049a471b7a3fdb947f8b603e0e6e1a353
ff32c38d2c5c2c2d4aaf41ef709c0616fc3c0ccb
e86eb0e48b1fd86fce8b7dfaa8f977430902c0a1
c0739a419949a24d0c34cf38a25953c60871268b
91b1b671fc5e0495ff3911cd8d699f28b835c212
cce5ca8aede3514ac4405e5f908f9f324053cccc
7704df6f9c2c40dcd9b174fc933315b2806fcb22
b8806e284c4589f5375638d8e3b901c65c087715
af6198a1e992b55ff4d16dcaeeacbb4e90e29c8a
27c8a793023f482cc1c383a916e42aedcd3b8efe
7d67e37da7a95fdac8277557e5fa878c0784deeb
abb0a790802996d1039c35424b70b0f3f06b94b7
2edbff44814dd8864f96fdd9ac3a8e0ef191fa40
f704f9d30e941ebdbdc95843c931cfc9d34bcba6
3f3aebac5b5bb9352eabefa24a40ba2298a0f2a7
6c66d6c41b108e47d99180bd6b0f61e117fd27a4
64df3922164136ac4587df235222d564b016ce25
cb43dbddccb6364324384dac0724eac56c9f0a26
ea014716fd2a8712ee39888725f91bed43148cd3
9a7b6715d71ca5588133a659e46460b254d9d98b
4c462ff834439f6c9baf8572c7b6395a8df2a0b3
2db8c41b3b0f0476c0e8735f4d57562d50f32ffa
8a206cece6c56cf32259c595eaef3a9b1a7186a5
14215b8b3ff348b132ffed3ca3e52c7961e3975b
e5fa0b989ec8e5f83f0e33c2046ab79094b39310
19726969aabbd0791d315994384a0cc46bf41648
0a4896a296c113c5fe0e82f0f052e615b95527bf
a40d227d5d3bfb2eab688b5517b003885b3e68d5
2e85e1ecf7dc11644132a0c8eccf6641d9ed22af
de806892e39f3b33dd501e46a22edf33e1c7c8f3
9212929c6396b624fa4f0f91d55484e3e11a778a
d0418379a7c7a0c92781e4f5f75260d28a0b0145
0aa5723dc8ff924abd2c9fa8e03a4f20d0f08580
e0b9d4964c7fb121374a85a4d47ee6799f1a9f89
740dfbafcc4b9ba840536f4d377b2962859e9552
f23067f6ccba94db598485530d722fcb60f9e3e0
18f3564a4f2b17c3067e7f02337e3909ba5cb3ba
2d71309d941689091f8ec4735f3edd21caf04150
d27531afa983da91b1743d32ae939faa9d06d574
9cb3af2a03870f54a0b49c4b26042e1ec98d3513
8f56e81f938c6f68d9e15f9b43f3f17ab467faa2
bb304b9c2cfc02fbbee3e3a99a360e1d25e37b48
40b42384b22a5613c37c4b41a210878673b3796f
a15519d09eff3ad0c992e7ce76dec02a66a9cf9c
8c5283797bd9997ba8445ef937118f7fd95e2c85
8e1e9078c823beb77b95776b3cc6a6a4da4d7a07
8c9c134ab1c847f2b074e5f93aeccc6d68697b6f
cd84d79c3574de81f23802f832f2ead6ad38a735
901a514269886a6fc63ee051831bd9338c2063fe
851574aa3e6cbfd75652c2f7179bbe0736014842
3a539370eb7735562e9e748054ef5dc6ca240bcc
65e7c32c3b860f441f51f02059ac821e078e5da8
ca62d97a9b27b41965cd65bf6f870ec3b52cd170
a16b96309cf0850d53a1ad6fd003062366bf3080
0ac969578d0ea8703a4c9bd5e9950cd9e9594f44
fe445e4db63319407fc8fadc214f19c1f2f9594e
0cf6f33c1fd1ff84970fa2400afb70a1ea176d5d
a0aee105192de9d130c218e4a19e4693f05193a0
c22be89f4b84a9e7d45f872b9d35786f4ee2398f
0ac38668a409256fe1672b56ea4bd96fbd156b14
17485bc41852ee9586ebe167555737825a0d1043
78f49fb3fed19d3f3574ed42691a8f82e0f76143
5393de3e3741edbe905681a32281f270f18e356b
52cf4d8938a63bde483782f7c2d3010949f8a0a2
2bb2dc4340f59751031771d8adc85bff1ed3a34e
23b6f7556d7df15ac3e832bdf85d940b6e50989e
d73bc9625acc0c152c2ac5ca3ec68ada579a9530
c310d27440bd58c23a8cb7795fe1e9514488c962
a1c44a9e2800ec199d8bf0af4cea7ef1390c6da0
d9091b357bb74ba72b57953d2dfc7bcbbd099533
aed222454743ebe5724d6ad438fafed37956521e
dffec3e547194f54f90bd393b61968fb10fbbe98
3fe86b348e3a17d0ab782cd5b4ca3c20f80e80f0
1d9c158a96382facc3be672f6b41dc79fb5eb48b
d6fd0d3832907ff36789b89450df09320081fc66
b926a030c628e9014ef2ab6b63515f2f3df0fa20
dcabf48ecc91e005d56b97887beb8eaa33ec7c3d
51311219afb81b7fda0e78f8e08af2ad18bfb83a
51663fd08f1670c5d55fdc5b8b0bd5e326054a4e
1596e57ba00c282ab029551f355365971a30ea67
6fab1a323bd54d4468a903ffec66839dd7c61c5e
c323eb28147499a872fdbc0979264c9f0fd853cd
2696b4a4391423953f169f6e8dbb6b2b4f71b91b
b6aa9fe7825c56b1c3820c45f3bbb719dbc21e7f
c0f3652167b7364d4c8d87cfe11deb664560c6cb
360b2d40ee27149078b613239cd8943a1dc5e757
3646138247488c9832a7f325401fe0b12fcdbebf
6cddc8973a88197141f4c666175205996f561c68
33d31d073ee451a3848192a4737cc06ab83cbfd6
6663f063e6a7dfbc02985d3a86c36a675347d3ae
a95ec06a5037f7ca84f4f596397ce6090734c59b
77471444ec81ad9452ebde7ca2b58db58a1f77d1
6f029dd3de6903aedc680375106b459e406874c9
b3ecb0a6c9bf3a213377b889f2b3077a940363e2
abe5d62bcf18781c4b32418932f60e62cfea1703
314b40d9c5ae6e922f00fda3e867658c7edfc2db
a73c21771777ffd29e1d7ce296b252a324350284
e5f50b5bc65e71378d9a054891328815b52c1f40
207f5579d3d907589bbe3641c5c25326e1571722
ee5cf502889ed896a67dac57662d19bc469bb876
57891fe021e9012adb0c2a4345a5b717c2c84ddb
36bd68aa3e93affb12504cd40454e64c6812019c
16f43b6439df920e04d338bcd5651067e840c1e2
1801d0cb2c7132a97c3e9c011a8546f883dfcf12
c77023cd0369c679bf217506ae21d429e6e81bdf
9b0d19f913465483d0942558eb21e37868040050
c254a9a6bff57f5258f322ca277f5e3530564e09
1c98464839434a0fe7c7581cdae44bd3f2e6edd3
cdc48ba8b0e4bdfccc208985bfef200220096d9d
3aca55d22898cef23f66241618cf27356416f4b7
ee7b608745fb3d83b9cad00ec96874e0db3d51de
009d68db54952062d1303083efe3686545e0a86e
b52b3c78ebfc185fee0d281228a643a371af165c
ec00713d5c22175249a359c3ffd0fe0d2692b0df
cd22113332cdeeedac8d6bda3297194f983b4aaf
7489193d5953bfba8c892e5aa98624e4ec73dbde
da4e249b7339c9d6e94535fcee63de0bada8f944
13d81f8d1b6ea1144a4a0bbbbbe03f390440f257
ed7709dbe1599ff4e2fa0c65962528464ce54aca
dd757b677395268b92c9f8f38d3d28729487142a
bf01d510f7373f26854e7ce9abaac62ecb2c41fc
76b7d585e03b78725f8a276714b233a14cd9c217
f9de004f90d5535a2714c2f58c3bf7cad56a6f04
54b583ed57ef1be8a56c346f3c466f3d00b37e4c
d26f6bf876257ecd25c10daae98a7cc51bbe2a8c
3b878299e7ab60e92669ddb9c222cbfda67ff038
0d1163dcded8f234576b478696001dbac7edf5fe
51ca7c55da6fac733eb08a613c1c614ad2e66b5f
2d5583051f993467b3fa7dc954bbf2fed3186d97
2f1e59e16792f4204dd5d03482b4bdc67554d7d6
685f458030b07849f7a703438651e9919e885252
29267ac4e8eae099064483dc4c4b246690a92009
85168a14c53fff360d89fe88856ac0072374f434
0d069f3b7bc524320fc76051408384f8ece77412
1d8233ddb7a0dfa490a340a06433909148f21610
b5314c1ec53492d1118c3e11b27658643b76e831
d4a9cf4772ae9d8991e58d934dea433798c9b8eb
640de61cb9a17a1c9f3851a46a7f6184acc71d15
c7d508b79c9e201c91ec23f5eec47c18be206567
58e531da6994d7fdf7a75529feaf849113d31f5a
a32b1044a480aabbf4716d5c90b907c5ec46056c
a5a597af9733f08b864ccb0e4ec8652143fa1b35
cf7b7edb85f7e61462d1f8c3cc8292dbc67b6ce0
8b0714b5c028b85643a3eca5fbdecbb37089a723
5fb5ab50a77efc761489493d4a0b8b9de85feec7
7cc8fed937d416d5c33ec3044479ae2a598e62d8
7131fb250c34882c32f084c5b01a28ad0b6de25c
a9942c7c902a4ecc3c96b97b34737c54b07b48d2
5f1a1b9e62975dd9a4d423acfd9c0de0cd2a534c
741811aa73fbcb8ed84e0939f2d87d18331c6fe0
db73cf23476a0a2472822755c98e5265783c3c28
c133700e32118c8c32516c5137ece684fee713bc
66b40c1b00fdc9b1cc2b863cc563fc7b68a57cf7
3819ed03996f1497512bffb445f81398a0bbaa17
d3d4a1e6332cb9fa49d4aad2eca93a650ce39cc2
4ca520c955c2ad9c699e31b2f13b28fcd341a72b
f87d32984dd9b1f5a7092b52dbecbafd784bd764
304d2c963077af6b42275bc87e1c95b1c8754bcc
cb981daecfe065c3a9afd3cbf4560de6d2f8b291
e7e22feb12244b455c8f4961d7eeab7cd21965fe
8a9a3703a34439c53fd62055890755bda8d37a22
e5c84e1aef9572adb493197c1b6c4e882aca085b
145dbd74fdaa5712685a21c34098bcd11994ff29
29d3b73b89f18c1991cf52ab7a82a4e71acf07f7
b8a0352d524b3d339e71a83b04c63eee8aa3f291
5f82d28d0e1d6703e07aadc6fdf7f92ed4468706
011b2ee76d41fc689be75e1aa4d2efd9fe33c285
83b9dd427535bce39be43a9e8224cdbc352d7427
29d56966c1ba932920b278467bb3d61f49709da9
9beaab63253ce012c2eb90c53ff6ddf1d5ebad37
bf83abb01cf49fcf434cca3508899a9d819b3b3b
cc12ce97a4b7ce385f2e10d32a6dfcd02d47e7dd
7b0f74f662c046ad28e691ffe36a09b90ad2e7b2
0bede6eb88db50de73b98a89eff1291466e9303b
9ca7b596a7373e7f5d1f72be3117269c8a9e6d08
48b19631e5ef51a5e3e9fa991c3a98b263de7385
6f8cdcca1d7cf4f75eb27505bb34fdde70ebd6ee
e56f561e9351fac12035ea4a387b5eb3e30d9a2a
8119277581f653a76511b4f443172816353b2510
dd145fbbcd637b35adedfa391847135f2a84dbc3
60b1c1d365a588a447976205c48e6deb99cd7693
379ed8a9a5c01e4e0b0c659b284cee3f43e273b6
ac00ca5ee4abfd9d15e3c5c0f4f6e8b6eb99bbf7
c9496d350c0c3bb4b9d9571c3ab97181726561e2
7dba9cae329571b0a6442c6f2d485a58bbdff519
9eebd906ab28b4138a9a8ab2959b53578f58b28a
e8b631bbbf027358bb0062ae4284c1d9a9c03862
68c854d68488ad5879bad088a40aaf8dad68cc59
88a2473aca28b3f62099596ea34ccd158be67ffe
9d51dc4858b8491688890c6d3a2136eafd53e5d7
8ac0828d5a47c008da44f1d7999cb4151402580d
2d37490174c29a20dd49ddf4d55d4f995c545504
8bddb417554326b48e024f4a02b23525d3c87862
68a22646802d6483b4084e83693a9d9e48a8ddd8
0c6e851d5fd040d40922784daad7c8123dd64cfa
e786a376426b938738d3333f52891c68339ae187
c18b3e7237bfe2f3f073da2408c6d3d2c4755a34
62cab6dd2dc274fb69e695c6c6efe2954d2d5be7
e9025cb38c22a63c1a4face07e6f2e2b7fc23f83
81c7461c98f2228c3bb1a0c80fb803b5ea2e47f0
9e0b5b81b0ac25f59a25bd744dc788fe5c3e2971
1c2c57b1a9e037d81aeac3ad5088db9ec4358fb1
518baaa6e8841571e48fe5a8acf6aff05af8af4a
82fe0ac2c518505fb65e0dcc2d2d9e8a9d12018f
3e73a0e4995f7f682ea22453d6986229c4ff03a5
1464a47a1a2a5f1a6b8011d7db0ca478c878c343
7c94c808de0e946180fbcfa187aacd8fca83c489
21f9c37c36e0489d0c133d18e27a825641abca8a
8b80127913a197892c9b3ac5d41d388e5f155cf6
9690110f815ca7f3e25b4f3fcaaa8ff38db7cf05
9dc1bbad245a325ffb0cd1bd88d2c439a1c2a5bd
a3ffe6568b38209d64c7fc00b7775f95b50928e8
6651a9c15e06e8d1829aa00f970998be2f33b225
3931dc8df0c57c7f50d23f8de532da0a51434f26
a96c3a8007d8e1a166f7aec423c7add1ea0e3522
5215762c9f9ab597c95d26abf55fa7fbae783b84
49e9294feb2e5700d574857ea330be89f85dad7a
92bf6552593d8d18853da203331b30992d79f82b
3682ee7872e734e9d2f57f601192d6f7d7baa4a6
86c3233f9c3e89dd88be8bfa26973194d89022fe
14b6c8a7aa76a33d2490ca8df093bf8b113c65c7
5af089a71997fb454b0ef063664db267d8038a73
6a9db2287cf749e66fdd80ae984bde158bb4dbe4
8864c5d687df432021a4409aad4e0448ed030c5a
c74831d62087e59f889497e6e7c4e6bb19196a1f
592d53b90d85045d404bf60362f10dcd0a8e4bf8
64e84e382efb80426cef301c9750833954c7fbbc
be951db2364b7739d93ab23f847dfdfa4fe59d46
87b86a53c4a5c591b8e1c5ec94b4d81edece00a8
cbe7baa4746954a06a8fbc8c622b4f7d66c09964
bb0f81e1b8be129458a2c4cbc7c8a73f9baa8f49
ca76167504d5323f2a8c1011402907b9a755585c
98443a9ca8ca9ad82d5fb9b05b32f180bb510601
8331b2d75a51631bee622daf2175854fe49ce29a
3a1f393576899fad13465e6eec89245757c7350a
caec3c711887b16852c9a4b1bd6d795f3f1b9ca4
116f5d149252ff75f2cd0ea64fedf413a1030c94
d6589ead6dfc33200a7ebb90b974b571a49f107d
a589b8170333476233d48476587a1d4363c90bd0
0e151a4801882bfea992172494e0dc67cdf80671
219f286feaf6dd4857fcf3d837921b141f7351c0
e3d595107264062e84096d0e2d0a4d0f6a620688
4cfdef7e32b0b90aeb583082b6b184104d805994
48ee90cfa200917ea2577e8f730e3d1fd9c2b5b0
55e3ea0422e36c64c70a8381b4c8fcc007a6eaaf
731a2628bf4a7f925ac71950d3670a9e1e6fbfeb
2e36428ffa5d2868972d837caea3193b058b997c
53d6612cb29ad38514fc8240bade2c7a5c7ce4e7
f88e012dab201bd8ce72527155168afb885865f0
29f69277eafbcd75064381e128421679a5a6234a
366bc4752be25b274bb32d156a81c700bd359fa1
4a50bcd30be1853aeeda48dd877d5048ab6fd96b
5d43df973ae841ca05a63580c6a225ff251c410b
ef6e605fafe8bd65045b42ae0decd5f91c3ec6c6
c3e31674ea267b6fc01cb5a857d5937ca3f7740b
e8ecf34175edc9fb0ea928d484d20ed301ee6542
d1e845a4df14b565c44d5fe0ecbbc8eea69f5df7
fa83afec25ff613341731e1552fe9897d755b338
2b8ad31b084af93ad202a1b835e5be63ac58a269
68c0211cc26261a34a5f55b91f9509ae4575c731
d8226074eee111dea2030baafb7d0d5992e3d42c
22b250c1b87d2c8038a78f9aea5dec3b644ce977
c8dbccea5e8e724a799eea4dcf5abde511f4750c
578d8debd65202f574b544f876b45e6110afdb69
86be1c3acdf3c7b26c57cae17612b74ada5ce1a1
949439ae5b0c5fd70687d1f946cac80552a5a7f9
ab73bddaa42637d64e005d788fb7130d26c50c97
40dddb9dcf8ba654e16f6497020043b38b6d22a1
a27afaf572102666ca85c2619370626e52425e7a
2a5fb08b39195d4238c7117e851e9221f94de62a
5bb4c0c2939028e34e2d4838fc04f5cb5c588c50
49527dae14a9f112e8f0b6e2f37ef49f23452ec5
d35436e12d4d15514d661fcfbf2e36a1ca23ac69
da568d0604180e2144444c4ee348324f348bde75
8a1d95f451995de6fdeae1b6c760328884e27507
4d73a3a65dd549a2f1865b1dfb4ec0373ec175c0
d320598247396182f034156dd00e0d605f9f0ef2
5d70f5f7a7cf85e0f4c528452aa89bbdf7f7f2d5
456105e5fd9f7f74f0d5ad6f81ce8a7e740903a3
bb357db283fde2cc725a01f3fe836916a2046421
bf5ade433ff5a96fea7a0b56d91dda3193d423e9
ce695b67faa439ae1fb549e657fce316468bd560
9851e20466555dcdf8ae520569f40d46dbeb1b87
1b0f58f8d0905018118b07c8057d545af2fd1023
27ece261726695fc7d1b5fa95fabf1798fd0a409
993c9c6a1dc351b3740c881c2ba4678aec376f3f
af304b5a023829b2d411afaff19b3f6a3c001afa
8ab575ebb7c6f613d07f4708067e4347e60f66d1
90f6bcb21f07f6caef63a47786a417195ae5f386
196817a50d5332850c81ac29a2024074e972384f
8b680f30f4a5a12d3cdc3848c91ffbb7933a84d0
e7d74f47cad2340bd95bba4df7f1648b0f90489d
bd8c48c1a4a9868aa955db2844a3538a5e8272e4
5ae1a9d8c9a3ea6a8da8f1eedfb2d5e96e8fa7be
814d254ab7a076fe3a2b073cbe52b040ad1cc152
6306aec01d095b5a5709f8ee1c4f38dec479d34b
508eb90b3c8d494686651bc423838f5750f60c92
f5e06cb09a6f4a16b411df57a438a1ddbbb00201
12d44f1e9179d0436275c124879e3dc3af5eb119
73a4e3d0c7ece4dd7f9090b8cd0e4f23612e29b4
2d3183bf6a3db800602fec458d36ecd31be1a694
e6e722226c745837c5e60f8e0edabaa67a519ec9
d2db22b3115223770abb6b661954ff05aa9f8241
ef8a1f93f137f0600d00835fd89d21184baab0d8
404f63a20cd1587f7dd9cc0aa31565c9dcbbad3e
039bcf92dbff48d1162016f8cf4ba08a99071717
02b08fbde7b1726d7a4c0dc971152751ac82ca0a
3a142cc65ec9997925a64b8121f0ab58da422f61
9481a09848102eb511cdda3ae025e88af633f679
7cefceb1ff51390397524474ca59f9d5e7ef3eca
749f4b960c884c5f985bdab86b86fc9e44db71c6
4225f73d4c756664bbc83ccb7acd84140d15c93c
ba1edd048e5fae9ee97fc9b524e251ae7254c0e6
5f26982c393177b6807537e499eee3e4e7a9d94e
557e4759cc5ebc2abdde57fc715eb4de1e26b5e1
45f9338ea8cddaddd833cb427a94ee049b8ebc01
40f2efa543e66badfd113d575d42ae79d4966a57
7b2cbab2b7983a78014de7524f2e1db3a718116d
393650bfb706c2bbe4ae4590f815312511c84776
ecbcd51fc99c565496be15cfd7eadca465ae4a06
b875778b5544bf276e1e4693d65a45c952eb9347
3f651242766ffdb68d76d426e02b17c971a85dc6
eb20b1505676e3e2e40a16e6009ef6cc6745051b
913f16bcd84e0cac1e1b0ed10d64939ec77823ed
27cc66ca6866ff9096014dbd0ebf94252da4ae1a
9958fc6934a2c1a72146cb7d4f32bdde37b9c801
a003e845e1e4780aa3e259ae7d9d83f91ff98765
591d59556153555c9f5b56bf601780a817defc09
3aef68bb633717b44b9a233fa2ccf1bc43a62a53
2399b4068d9451b1f8f7aed3bfa7120532d30ee0
fd509b937c4a5438fe02ddf06ade5ad56736af5d
bf40d52edbb88d5afaa35af24837e3b72ac84eab
ed1bde7508c13df61c9ae3a87671a399dba72c6a
93c4cb05312a8a3c8b726270ed15a88e93bce8df
d2539622e011409450b526e4eaa7011e29632567
8318fadb32d6967c40bea66bd6cd56e31f6d38e5
3d43a8dba89ccd7333c3ebcf74928e441790d943
0c04821a25c83fddebb29e8cd590609142ba20a2
bd99da4bbc2fc6c3fc3d2a44b06033ae011e8317
576fe7613073ea8b741b9e05498bc669ec8c2b21
56eb3ac38eadf36fb969569e5df08614761368c4
f85cae7f0daa4e47a1bb5e69bff169efb00c7742
ee2b9a2917423ceb9e9908636982dd492628f402
9710e1f7f840d701ae0ecf8e09b744399dc776c5
a0b9308d270c6d107c57adb1d017901897b5c9a4
8688f539f17b5fe1be9ffc8bf167b88b1558084a
1267cb958c507f123ab135cac638768009dc84b5
0eab24c91ab19dd6f63af02ae460c6b770ee65fe
f4f5ca9a8db97c1e0a90d110e390aff1b2a04d7f
764c35e7842c8828e6686e318facfca0a11d49ba
13cbf1b6e7cada48a62927cfe1d88f763cbdbbcf
8fe73c05d800282d33bf7747f06cad9c0f5508a2
7e773f39f9161f5ced509cd6c669b3f43bef2c98
9db491924acdac431fe51d274deed270003a1633
ffd9dbec89743c35fc8c6819cf52aec953b45c12
1f58b14bd18565b3dc4aaf15c072033e68b69660
e49bf7015757d321ba01f6307f367b57c15766e3
537df4219cd16c0db9b94d3f8509df16cc3925d7
50ff1e140f349e5a29e6462f834a713053bd4831
1ef0b078a8f690f72db8243ef4b8c207a5aa2acd
a5dc3106c54ae0aecd9237ffd942924e61ad5c0f
a4d3082d2f705598c753702863a3068bc36621cc
c5187583bbfe93fe58db80f95b5b478c84180c29
e3b3180f9c4cc8821e9092955127935fa956a988
5b8c043329b181d6d762d6192f3ded8abd84852e
c6a578ec7696430ecf5a4d4fd8f49c39b105b471
15a5bc40a4520d935bbc02a3552f51dda77fcc9c
2843933b4b4778451d1d43822db1a148bf2aa7ea
d8213e8156909a073de8f6a552bc2a934fb65d67
ec39c462324c0a54e6abf06cbf8079298056b7d5
75ade972295446dbaaec9dd0d272fc7e1275674e
576408374d58a3e9a63714b6f7761cb42a315102
0f5c5c6431cfe7e5227d90fc08e822cd3b2cec9f
ebd7834c3fa611a2123cd7e5e1fe381fd20dba49
084b06b48bae2b566bb1be3415b6c847d8ea3682
943b582a3605ea104666e710198ceda40b8455ec
df73a7e98e8450813325d28458b6bdd4b8b11791
9b4e74f8c8ce6fff4281c2d7369fb25f6772a64e
3e24b4ba0538c309a716df3fbdee4cb6e035a74e
d3eb37a359aac07d8806b71dca3fd783fd8d5e77
05e5c4d22a058fdbf9645c2bc846c0a33e2bc518
30920d6925e7568518dabdd72418a4816d65ea44
3a8f2c6f2759559ee1fa297a091dc4ea6e55dd02
a18d4e184b224d1567ffc1faa5502a5eeaf5445c
91d3fb1dd4a1454289ece516f70236eded2ce1f0
7a807aff6f309ea7fb68459010dc65082e4c3c0a
358d96c5fbd45a611f7af7846a9dd99847104406
455b8df2e9d63b0eea943baee9f7848374e94485
8ceb7480f39d9e69fce451206644f80b0242b696
3ec5227d2693262db5467abcc36641a405808166
8271dc0fb18f7535233165189931190bc6307333
8adf3d4a95d3fcdfb52ef1daf2543f9bc1e947e6
16aed96a358f7cf8639a305fcce1d890002e2bbc
b031042e671f15146dc6f4b5af25a0b31069b30c
6b9eeb18d4f42d0fbadaa6d7e83b0cbaf135a054
c9290b76961c46f476761ccadce0cb006d474b92
1503e362f61ca8c55adebcce802a724ae375debe
3699d5c9fd0ad78fc52e3ea317951f9d485f656f
fcedc17f5605bf712de0798cddb5d7f166b09017
929bdaadfb467fccf81dfeac1de090cb7dfaf8de
ec0301acb431a36e08d647dd335ca6fa6ec4b1b8
f1dea26fd6037ad38dfd4c23b369dab737c5c698
a54adcef12753ffb131ab8c3fedcbe600fe10b2a
3614e984b6aaf71a9b00b117375f8eb72ef610ce
bab8943f2b5c8bc44a64067ada556aa62fcec3a7
4f24a30c12032b7033884a630696014afd3e77cb
ae5c364051f9c55b6a85c2cc14eea0a53ef5fa94
94bda42362bdc3b1219b8b833a0bad61cd869c7b
3c51907351d6b0ed6a6cd56d3417ce35a32df186
ba51f5bff8a312b618ad94bc248cf4cb61c8e5ea
8f8018ce5d712af94c31254763d70d047adcb4e1
4b0c09eb6f931c7ba9a5735c81af115a302ed336
e3cd9b9f1c9787c36d5ea82190bf1e2365377e66
6f18cc346a4bd4e0a5bb1f1534cf5aa3d586a3e4
ad103f421ea546c1cb929eef0610eac5291a0607
047b56833ccd293ab8f9b1f61460d6d4cc1075da
5cf91cf72eae1a4b9c89d597eee7e8eb765aebed
c63be3ee65184d119d5145e77986298287118c3a
d8552f091ba50a775f10aefb581612c8078962bc
75c23ddb00ec71719f25787dd22234e7e7f9a03b
51e4e39842596ece3d0d2c327911a7702607cb3e
8996934748a48fe04f7dde56069042dfecb64c91
3a85dda1e158a771d2820d065d25820044f345a5
03a840de533b1f1c201aa4e99f95f42f9a8269a4
de806c84c16ff2be965c27f9c00e185fb4ae2426
85f74e2004eaf0d4ff339e8644df3d8e716361e5
cbd3309c2f3d31b7f61fd733dedeaa1ff9507131
a2466acb7f2be6b3369e1a0cec6fdcf9accf2460
2b6479725c963fd95ca05c9b5a0a99b189e9d4bf
62c8226faa9bf6958d16a8ad8b11bea84c2f1051
aae1a45bcb6dd2ffd3b0b87525bbef4e4517ddba
8e6aeb4ebefad469cb266ce264dcd5d2b6fca7d4
1e2e8e1477794d8839c3e469738b898c5ae56c4c
a1b66acb32d0ebea91e115b8d7f1b42f1dd2507c
b9456740d3e46d3d812e4157505af713c43df9b4
fc5ad89276272de99458a0e43e4c1ca84111c4a9
e0c2795bae8391c28be39662e8b22aa5f63860db
45e44a390cd287a141dc0f446038169608294879
b27c5921c8543823651daed3d4bb1ca6d40028e7
c293aecd2869c9a3ca911856a39d9693e1e61f32
14eb077351a8f24e83cdac92930eff84d05e8787
5be2fc120f6917b1055cc790f5cb136da6f080ba
aaa41df1e93a2aff13fd182dafb42318cd092aca
e0369c834e0b37c17bea5495492c755d824cb68c
e9fb74ed0a3f9e024d6e3f4969cf480bc58f6d69
7ceaa2387f0be853222f5a1496f1f743fa6f8c6d
7396ac00bc4c661ca9529a4339bf35390b6ff598
19606deb805b78e5320c3ea514abdb4573d971d5
c5cc94ee19d766955b8b963df06741ae26ce7b0f
de0d48866fe25f2d2643b936c9b04d14841c9536
512f268a2a06d76f3884a74f95c4dedc9aba3b10
881bfb826fe3f717da329d2c99df80733484091a
34b3942008105194403e2487127191ad35a0452b
b8fd4e3de0098c44010800c8206000a21feeb252
ac4aea6a520a32583104c52526b06678ea106bd4
9aa5e87a2c90b90ad83866af1762d4e40d44dab0
dd09bdb0de1dfdcbd3d3d076e27f75608ddb0ca3
456a7456ec673d3e417b1d5f9b3447bf3366d312
c2e5cc468d7adb621cfed07aa4960d41d722bbf4
258a4fe050fb85b30220d502ce079f9911d4498e
f15233141411009aff3154c9d038d03b547eeef9
ef1dbe1297244a53fd5bda471a27d363f3fb5e63
0cd6b186b1789cbdb81d22768425ec149d395766
44a95fc32f11203e2e316a3685f92ac8ec3098cb
784fabac7d1586a5614bd4bc8854fd62850dbe26
61b05581188ac5cc531af2f6b0cb628b011b3588
8c0b43b80001d7e86b2b9d9e420bca0402e0ab9e
50395f9b6ad35f28ba19383226afd589d945dc5c
519ec8adcac12359841cbdb0cb6666070b714776
7a01a7f4bd6a894b4f4c0b877c2b8d3ad6b6e818
2dade17682071a3e1d60df4113795117e5c1833c
457f4994a58d736a4bddc95d2f053e6030c01950
cc70a10177811ae9b6ffaba7315952354a5d64a4
7082ca91bc237e33d7ca92e4cdfb50b8e373ef8a
e121ed1ad291cbe04de989683d23f549d8e305db
18b2660873ed8f028ee72981c882ed676aa08030
8595234596dcb66951b544d65331cf1b47c0ce9f
80b0bf4aa4cf4ea05ad321e0819fd64d7db177f3
425167afcb2c47ad686842cf248b68a9ff7563b8
6a79c3223c5ff2d556bbab8eb9909fffc4ca4387
a7d3396047a75183398f339310774ee415c1c4e8
2b1f9a20bac5d99acf5a8be36754e5a1dadaf448
561613d57990912d3d8ddf7a4b6974a5d26c431c
35b195abfac829ec5b9dc83e50461cd4c646923e
fc238a225d6da5b8d6e8fcb580b9d66021953fd7
0f4d824418ccaeaca3aee1c23a7e04b5139d752e
bfb9fe950fb83ef79d970013e70170794013d5c4
75ebcd5cd13995c3b70e0b621d3204b9a5996806
c3f8dcb22e8733937dc65d08fa5bcc7bc766ecaf
9b0706489c02b3001452a28411aafb2e77079cf4
bdbb3ad03ca7026a8a2d11690d4174412fa79685
ae72120d9fe23f592742b2e0b8c1243e243a685a
c4dc8725fb7c18cf54526076de7000a7cb0fac62
efbbb47626ded93f304fabea17fd07bb362d5119
f1bd94b971b204a466bd58ec5b937a748b9abd0e
5787300956e296fa7d9673b62d5844a60cba4c53
2dc79e01e1d974c23a277010609026f58be4bcad
c9b812a4ab75bfbf1e1de439ee719fa700a592f1
87e905170f6b293edfbf40b010ee11fdf7e7b32a
ed43e07ffb3bb95708fe9840cf9fc2f523b2f1e5
8ff37250310e8d2f9e73293199b3b6e42ec45b0f
b8c5938ed49502fbae89d0e842389853a208f996
77347b834852689ae2bdcb9c5c8aabd94bdf4fb3
bf6c11f753b9738433cab6f3327cdbcb10f8305b
a6ac18871f4d4021e0d288fd41e6c784783e22f2
aff3051d578b56d7e2e4dbbebb259bc453ccce44
469c0631351a9da3164dc6f749af0dc06a487218
46d0edf4a420209c065016bb3324925c3a7f1177
3759531b035ac46c8048c2fee273e0f9b5cfd751
2b29196ee2ee0e3cac5cf1fb452d36a2d829a24f
0ea60aeaa3bd0200828748ce8c65fa70bc81c39b
8ee07e13d3100523a46e69f42e00c21ed66fc388
d662c1a82851800c46ad8ede2d9d10d10427fdad
7f4ce6fdd75d142819d612196dd45aff0795d682
c9080f14f37f8d85d1c6da648e843a70ee474436
d0c7fd06bf4e412b5dd942ac590e7ac2585927ff
a2d9f7cfa953b5fcdde3bf45eb754e4861614809
6d1a0b4f96141e084448619b210fdff2e8821886
ffc35dbd02822bf6584c6144266cbbca6b348b17
5adcbdb4ccd82491f4e74e2f932dba8b01d93878
7826bcb2fb1facb697a4c512776756c05d8c9deb
d3675a5e0f7ca0287d3441d1dc1284ea7b06a26d
fa584fb563e4834c28a443f51c2c3d7453b48454
f81b6e26daa139cea01f5b5c0a9e823707ac9827
0c3e06764069ea601df5ee7db30721fdf70a42af
21d63034188d90ca51d635be348d5deba4abeca3
38d570a6b28664b398cfa50c5c243c3631cde997
0a0a612fc40a2b3c7e8c227f6c0af206db854db2
f2461183e8a70bae2362a5237772844a48e16100
112a56d6fc1ad5a010ac9f29d754ca8b37d6476f
c64e3426a326fdf61a6f9859292a45845186e790
32fb79996c68241b5f4fba4670b99c7f03b65aa0
339c18074adcac7395ddc8dc09a8ec4837a17d14
e6dd58a886f989fc3f60d2466117ec14b0f7d5b4
d9abee71f870d31d992402d2b855313987bf53ee
5c4e76237ffdfd832dddabd5a0f029568f591c7a
f54abf09da257ce440aa4e5b4ffde5124ac1ee68
e991459c7c1f46d432ff4312cf7409884518655c
ad1f4c6d3f5a4723b50eab9e6ae7a8922fe3b097
9d1ef7c5fa74849adeaad847e67e0f4b66233422
c9334bd90f1ba826ea75198a3b3507c5ba99fd4e
e7023e034482da35fe78fe05c7cf690117b2b738
98ae0fb92c9335ec17f8710376183e18f5edd355
fb700e20af6fa71a20656cd240df4df3c8f15976
d77edcc8905148f18a691be180c4f8f366a5ee1b
63e66bba0012617e828f75c8dd0f62f2caa693ef
9061a10ec596089deef6e83d6ecfb2c4e6a76171
02d6b4e78c4f1bda5f20e3089af024c58fe6baf6
3b44fa37675c1d68298283ae4b8b45cd5771888d
49dfda04ae9df1b915ccea17ca1e70ff48e06e6c
0bfd6048574d61c138fd417051ae2a1bcb44638f
9566ccfa260d83180a9900a545255d3d21c1e9cf
d1f94df145b5742492522dc227064995d71c0ac4
ce3e7c40ff4052e10cc1c2feb5b56a9c1b33b7b0
c9a89876de476983f273edbf108c365127c18c5e
f9776c4adfec3e649a8aa284276d9ddb50cf17a9
91abd6c4388067e762f64845314a521e43a1702e
b63841d3a3922440c258098190371f1e17d977c1
71ae4df298f42039579fd6e3c6d9d9060ac91214
b0f2dbb3cb16caae9236eabb29935e5880d2172b
c07f55ac92d1e931260711edae987b51bee0be3d
c642bea938f4f4feae148d870a1bdd393c787d8e
dcb3c1443587cde3bc8b791a791eeb23e5ef7fe1
5bec10d28ef6732c76c518473ea532ff016c2a80
f8923a4766daad1561e3621f3a06ae0381093203
6711a2b670d3ed7653ff68df83da79fd6ce5bde7
165774973f69507e57f00c2f1f587bbff7720f90
01567705282a4edba960d2a71be64762a59398f3
8e4394c022aa2ec6fc3c38160fc8b669e3bf3e78
062bb14365fd45189e0c535283f35ccf9837710e
93d547dcdaecddfa456aee0571131db2342e5abb
0525f80aa5e9809db8756f8aa31c51cada80144b
68e3fbb0a3da00327ad7e30763d5f418d1eae93a
df41f9b5d27c19d29cd086d6334cdeba739edf3d
1bf100de8a1a10d19285fb4a594d726d1eaeea7c
fa5ad7ac5af9c40093810968391f904c235b2198
53d50ad711ce8f75ad687c787677ae93b27e66e5
b809280b16622c6dd6abe845bb7c2372c703ac39
a36b1fb73c1b37a1e0f4bff0b5627d7b1198ce1c
45260b51b1948abe139c568e2c400955870b9339
c099f69d0b7198a40e4a6373ae564b65d04363ef
390d0ae2e72d68a3c5e63687c12bc06f321b16b8
5fb2e48653c36711a6ecb90948d9f927f1dbf442
2d73da131dfa77de81ff8a54831c7385a0ce2d72
dc05078fe773100d1be24f057ade6c4411609e3d
479ea36f8b3d54c023e2c205f7c9bc9deb2b1c89
4ae314a1f21d07ee5dbad024bc098182219e9e07
9ffc45dbe0b9ef80ab5cf972a176548781d2206a
f212b6780e95bb84b387d3edaa9128c56f2f65b4
38aaf7bca6d998d0d1a1839d2b8816735f9b8914
c071f6fef4d5d2632cd4b535c7acb6c559dcfa6c
10b77165b99df01b046547958acec9f814c9444a
c5f58e45454d1ffc621c65e377cb91345018e087
7fc2993c427ef7c36430a4efa5d5c1d5dd5e0dc9
ee87f8036f99fdfd63f8ef145f4478907682db29
c358656c8799d30fd422448153e99a5dd37e298a
b566d998448339c02b997804cd60f2558b74f8a0
e31cf463ea62454f6b0102290f187712692a4736
4fdd055d174448f40cd853ddcd8dedd146d468c1
1715ebeee5ef2c88437849cfa2a3793b815b8a29
f1d5159b6b61806ae742b77fa602b4ef8197101e
e745e86571628cd222d7dc279fa71d928480f927
e960f78ce685bc67946816867ee4ac545086e328
b1a6ba667a02c8454e0f6d242574fc15785f59c7
ebb000396897ac38f41c7037aaf236b1005e837e
0fae6bbb507082a3e525b52920b2f4aba32fba81
6fff68b1e9be384ad134812d3e14af5ae7fef83f
8396d21dfa874f84067e01097df2b0db04ba8f0c
b93104c9e6869443ad15c9bc9df338944dfee84a
c4850974767be72e16d06ae19c303eccd4e13960
4262a05f8e858ac9c39599b2e1dfc53c03020cd2
4c491ccc108f850d92b6c249d6c90cd6dfec4289
ee1dee1322da49e14672306846d477eefe5ae41d
c664d1864b466a9bced4313151b459a37168d65f
a4c443bdddcf75ad07cfbdcba3c96ffec66602a4
94ca8566b29d3bd0d274da3db6b6dbaf360193e5
d0a381edc1a20d8d3e17bde0a6eda598334162cc
8724227ca9cac432b2764434f5662268934a8860
cc216c6f731f4f08ac29e5619943f502c50bfafd
bf560c1b253c1a6d157ee4839f4bb1b31a790f48
e36d7ecc26be18021da3555fc8b14381df7af34d
529c4a36bb21b3fb7717c27f8a31c39c1b603e9d
607f4f432216c9e19b052237fd1401fd2aa903a8
457fb428a729c50c562822571ea9b13e689648f3
d7a09309104f1e59e550760c08753d660acac545
38df77497a98ed67a9fc7bcea263f4641d1e615b
0b1d20c47cc608aa0a68dabd4f105adb6b690afe
28dbfc6199c559ea0218db6b011e21e8d8905991
7722f32b6cce03d8c35d19ab7b5b1609bc47760f
49a331385343f3ca49d26c4ddd947546867bcd3b
f92348de5c11bafdee25b172bf053853ad9831d4
8b19bc471f66ee45c5eed3df6817411d074aabe5
f4feb0adfcd8e209f90d4fffb6facf5c07f57110
868ee844458eda9ee7b1b6f9a5238b7c3f84c0e4
38c6e610f13033bc40d0307c0a2f2e86a49564b9
784fc03fd41c6350943e0dcfa644d64be173dfa3
bbd028c95f2d2e54deee899519d0deeabe561e8b
080e7536ab8c2d07db58628f75a4140012e2a581
a84e9c83c427f0004d1ca5a8860f8c9d2379a636
bebea4679ead5f9779ad00c3570ea68eb2a8dea7
e4dd6cfd63b251fba7a37e773f91c6bb4150b6bf
5c4f2f1ab576117f2398fb1a1f7d91adf41e7269
d517842e59737b73c7d6cfe850be0db1429845af
0c1481a2d3d7482a3e0c4e63f8d99ba6cea9c24b
75e69c3f493cba7f2f253ce9c69d76687f785d6b
8a7516cc662ecae705efaaaf4f484e98e9ecf192
43be47da698aaf431bc038449875bd258051b3af
a9015ebe7dd5bdc3d29f41edfa24edaddf316836
410cf7dd34491d81ec7311cc5116bce9351ef902
af6eb7817d53b80110717982a412e7e7e5dc18a4
eea233686bda74c0f2ecc7175ade62cbe48d8401
16f1d048165d2bf0aee4833ff7d8b415f537ce64
2a13fe9d83a596ddbfe8299dc75ab33db9130d20
5b23460bbbf6577f6e250eec7434d916a873582b
f04c86e143c6f0bd07c04c81814ed1eb93ee807f
b74d7a398d1a1789996f224ad492f699e9948281
e490434c7cdb0735166c05f6b283b23e5207f3fa
bdd6c6f172a1d8ab7ccbf33bd7c878a221a7ba26
db971587a46a0ef6cfc5528bb54ca1de11200b40
bffee2336725dde0f74933d5a7d12536c9bcbd06
40a6dc7dd5ff6843b82f904516181182d512d0ca
1f0cb4e6b682a29eed8238731bdf866124a60cc0
5a37e2c88d7d654226891a0fc45749f90c6d75da
8e996aadc5d7839f249399abac657e3c9df1dc4a
bc0ca53466faa4ffa8c1d92746371651e3722f45
84f359d025d6620cf996c7e15c076e5c13dafc1d
3f1ac2b8bc9d33d5a2ff3f52c3122c7e9649ba7e
ddc3534787a0a53f4112e238bc43f7f255f90c51
b0664e80edfc58e9a66051b803560f3102aaf0a0
9b6cdf311a017dc6b6977cdd7a39da7a5680f213
347b37cbcfc6d9245d10fa635f3d42ed0779e5be
8668b2ba3b9dfa65bdd94d5038fac3c56bdc7c79
597c279dfe51daf30457da85cc033feb34325286
651c06fa9f65963cdfd9f59da905f2171fb37f42
765a9659afab41bb61731390f3abd10d3e2d8711
92e64f0279f1ce10ddd280fe048a92f6a959203d
61fbdb04d49e2faac57d094eca9ab0ff40bba08f
1733adf99ffc8081554d8aae91e04ff772dda386
067aa1f4495f9c93bafca183a6d655fa81b139d6
1529e68b8725bafca0c4578d304d4228a045a845
aacd0289386a4cd0599d3e63ccc7e0cadadf909c
22c6eb7ecb4a3e6115f70f5f3c1c5c4e0d49b9ab
8efaead13ddd57896733d8df03c3b326aa50440a
f36bed41a87296d8cd641b5c0602fcb860fe7043
035e3e512afa8d61d61ff4d31a56a896e4235d0b
78d3d8e69304f8c39bc39bed577f64bc852cf5b2
ebaaf10ec1f861b2d4b455e01d3118568f4c6f51
dd8437b0a9daa2b8384c35be72459527b8134b62
5bdcda66975bbaf04562b37ab5205cd741781ae2
f698a38d42ade177c7a15218edc51762003836f7
0e7524da21b756d34e20fc80ef974f66a06fd12b
a57aa43c57819e06fede3f89a653eb6f059449a8
4c90a2e04a83646597a506a80b5a885d5c515bf0
a8949b129df558bc90672606bcbcd3cf6d9d4912
b42e73f497eafe147667117202267ec756adff26
a560f721937f7f7299167a4d1c3f3ca87998635b
8f5e344aba7b734efa61977651838a88d288a187
6e6c3e939c9203ad29daa554aa92807eccc7ce7b
eeec4b8db83014a64aba85a13af2ad8b1eb954a7
dda7ce465d2e04ed5becf6b67e0d56d7336525ac
524361641cb80d8aec1687066272e910aaef3f17
c8c790a6c8862778cbf8f140b19944732316f0e7
7d59c083c1c03f7843683d9ba05508ff853b9fc7
0de14e992c228fd9de9fe78417788131bee00902
b28127c8a4883e774d69b08ebf2c203721644a15
4c509940292139e9dd8c8bbf447d523d140fe0b1
282b4184f719efa6fba0b0bb15ca90352ab687d5
33c52112cd015c1b1a8ba689e3144faf286066b7
3bee7aca20ddde7137c874ab918d2dc603d3026e
c753d2e41ba667f9b5a31451a16ecbaecdc65d80
c16d7cca93797a4eadbbf7892f0a15784e20bd88
5af1d7f449509597f16bebbf0ef6c68d7c924398
bd3e10df08d508484713ad9000ebdf5ec8c9de3b
0ac2471d0678dfa9d535fbb13a546134dc2b3089
bc2aad3b84ddf35c07905a07521958f24b80f2a0
d6be7545e6237218b07649b80d6c80de89b61e6a
7298bee253df7a9b8bf3cf4438aa077a28502c01
1a95e1695ee89ec606a0632c406e4f2637530cab
2cde6765c660fb44a2601062e2286bccecee2ada
8e2585375589d054783f74414af286fb32212efa
0b9bef71b1531b7cdbdc5a065b286b654792c248
805076f68a63858da8d8dfac2ec0e203636272f0
7f6df401808d904d7065b4e83c8c4c4399079d8a
8fe27a50c2c88d382e6dc6600836bcc57fc7b0cf
d2d8288bb0aded0a0a6fae9e38818744378fbe45
30579882a865af6b12f9028f34428eefe6d1204b
646c3d5b2192282a0bbbcdfaca2ff88f1918900d
a96c439a9114ba2ea6086bd49c22587da3674c58
5cc7dba3ad1597f5ca7f5380a4845d0385fa497f
4df674f8c5e2c07d881b4f2780922c7d15940814
26401d816215e1050b8c1cc070ddc7f6210df523
3103cb1dbc515dbdfd60996d97a0edd35462485a
65a64c54072ea9a169098ff087cccfe726de03d5
cc82a311d55e09cb44c61f989294cf8fb3547a72
ebbe554e356d6bf2c61cfa8ba73c6779ef59fb00
994b8a387eda5b674392306e0c7ce8477b145181
2b236fd66abbfffeb1c07a22dde5dcb8d3a2032c
c4498267504fef9d5c27a6442d8263b47372c50d
5df46746c1640125fea7e38c29481babeba63743
53ebedf932b71bed7b05220e31b24388301168a4
1109477958858846c091c8a449511ee6ac1def5a
651cdc83204deeeb60493146461d1997f8dc9186
616aafcd496569fbbb5d0be710d3b332e92bcf61
fada82ca036bad8962f911d83fc325e6f48e363b
345600e1a3d926fbe0d0de11cd156573999ae750
9235529746e208713732f7eb4dbbebc8b169d5dc
bc2b45bc93cbe2f280ef3af5851e02b3d2d89e9f
9896c2f10ba1e74bb2bccd9699b87e78b60c8991
b4e78aba9a4584c49dc70008796dfe5b3c29d8a6
68c41f169abafd409b95dfa36ca642c4972eb915
16d7926ad4261e755b33cd2fb244933789d5d82d
28434ce17d1b0bfb7f398d047e825f0f76b6e403
cef0ee5dc3212325edc8bd14e9c67a109b7e7884
ce7b990ada62aa9fc5087629333ec1754f86d936
71ead1911be28c1cae1eef765abf23724b776981
af671456b9d5566b49026ad2f067e5c4f3f0fe01
4a27e9179f17ce91df3a6b8518578f82cf1c8c86
70cf626bb5492e6f3ca67c22fdee0618e7fbf4a1
d3c57bd4f38d5d3944da88266dd9b474a84d802b
d5184eb9201af0744c8706ede05a6f03a37dfb5f
1ac039d07d958e6c5c55caea0e13198bce5a10ae
b7baf23d86305762ea4e42adc4054c0840eca5ca
0df45c5c4cc5909b898502d78e1e7fda5766fa69
2a39c0d282c8254be638b35412cd32aa87564656
3bcfadd215a29eddfbe56746e9894b6deaa1e24d
b0b000e29668517d21c37c696100bc8331117516
d18d8ce08a273bb73d8fe2bdbc99dfa95226ca54
a075e848c9f633ca673e47d4230b2220a9ed8dea
b814bc61eaddf6e9a4872ed385649540ef2083d9
9b8ea972bf7f4ecf6e9cf167ffc5a1fd775f7638
8bce6897f9f7e0b16508c462665e4f9d26d92e39
35d0922f46c95bd73b1d070b6963cf3512167854
1abba290f5e3e7719ad2dfead2eb45d507ed492c
2a4c1f288d284d3266b5aec4decb167a3af0a976
4e08085cc8611b4aca72a3752d983ed74d473a61
fb155c47661ede5da395dfb4e620867263b8c8e7
4f0cf03bed4180e4e277a99e1194cc17b0d198d4
0b3b594e9aa167693536a2cb3493a4f64b80c0fa
e6f42c4263fca67c287aaae6d17d9b2f4a9ed702
9338fa1109f2b0a4855ba4ace4ed48cb4b0e1ba9
bb47389d8578796e8a5c25463d7b59ce561b6719
7cbb0cbdadd16b963bc8959f8ad084fc9b785eda
c30b6e5410a2eb2c8db1f6f54b9b2f9797d45fa4
cda9203445092fd2888ac5982056cfda23ba16cf
60f5406dcc094d0431420139bd002e8bdd4ea5d5
0237d3c3f29b004f4313b2b9fd58830b29cc6311
c49eedeba374e06bc82f5aed7c67506f65dd2482
b46e681dc817faa6cc4e7fff8ed6c3bea736a37c
7f63814e911524112da2e732b009f2ce4272d2b0
a75193b134dfe02652bb90dc5cb3fedc794708df
2e07d308d2189e9ffef4fa958fa20f467ffdcfe5
9343be07fc3a7d4c5e8043a4a22f398bef563e3c
eaadc9e6bd8f02b3f93396e85313998646f80c7e
7576c10e949252a3aad58cbee75ce0d8b57c48bb
1ab086360755fcb13356617fe6d738171889d810
3d0fb76bd5641969455df20fbdbb651cd6efb7ae
e90fecef8675723b261370fd89f726221e6f56c5
f5dc99aa49f4832e3534dca6fdc90aa072ef0180
6a683da022ae6f7507b6a96b5d2790881e8c7549
49e85a1fd2ac13945be30a161286a50c0fa7485b
96ba2175c0e732be65e5235d08e5855c1b04ae35
db2721159e0b056ccb0d0a640b77b86d052c9d94
b64901db40b0d33c3347fd625a4262a091d04abf
dab882acc09b6a2c04c823375632b395cac961c0
0b2ef95640f41a3edf5faa73ffcaf340da311fba
60b1dfc169156f300045fd0e01e89b890661b5a7
f78f74f5a2cf1f73f974487816f998a6e37a9cf1
8a1e6ceec92963423b4cc9f5edded6363fc2c43f
6b46003b743f41532515975bcd1fc1053c108007
c25728dd79d9a5e1c1d29298f9b43246934d0e5b
0a67394f2a6401ae181d601e3724703829506bf6
a8a98a0fbb9c1c3530316fc774b31dd38704e207
2a6b4fe447b45c3e17ebaec32b0636cbf1e36e75
b70a1c22f9862df0404dda7e5b9be94ec666dcc7
fd162a351a0d12ceae8b3976b4b127609dce6196
c32411444715c89e9df6d398c4b32cf17ab58789
e71beb4a071c996372807d25d23708e2ab7b7683
7e5da6b0ad2ad9eb49bc0145cc9fd76b2aa737af
35bf0ab4a24d62853c79e15c62f9cd60b98ab3d2
c90f24948b3b79d494c599b53ea09d4e12076043
dde9196a49fd1dc50be65e4381518eb4cd9a953f
ef47c446a2c3dd9d4520b1cfe45283208ca9bb4c
353ec0b0cdbf46ddbc2755e482c62ec711badf90
c8f5992b7da832716e63ebce13dfce85f740b0b3
e5cd5ae623706a1e75a6bca6c681e12339cb67f3
432ca1ef31d0fb031ab3aa91438e87fcfbe86a68
cc94dea6d7fad79e531ee723c31e2d92fb7ccf98
fee27209135228900cea58e78b71fbc4fdd7792c
b92c1b9db1c27b8035157a9016344db9e5f198ec
58f6cf5130a06e95e9f0ef078abea082417340f7
4db679b39e74b7671b2bf429bd206fafd9436f6e
24767e13877f3772515ac250474e34f4d4977c48
4048663140a157c68cc0a5f56a8739b0d9001feb
c99ac2b462a8e7aa3eae6a388572582092e63f4c
b16a4b26210807b88cf367928f7025a7baefe7a7
515ae8fef6c074dc16695df37459862a49eb1d5f
ab2dbb98dd3eb22fa158a24519eb93a26e416bbc
dd0f2e9d1bcbc8528c44d5d98eedb419e4d02ed7
0b69d29ba144f5dd5673d42f797cefc07b2489d3
6e3fc45ebfca18395b2f74bd5a9aac4d8b5a60de
3a65dcd37bcc46916eab37f340298ab9e1ca49dc
e3d39f7ec069ad49bac7c59c2f2384dd2adf71dd
285ac49b6ac37475e6efd12f3f8971724c9fe4c0
62efd9184c86aeafd503119a3e5721921b941aba
6a5a61a47a6a54c2ecffe54a234301cf4508d370
9877d1b4daeef0d1409b2bdc1fd5d7a71b320cff
e97bb77a0efc057e47e1692fdf7f858bdbdb65ed
f7de645ded33835ecf499ae5db724816bd5e34a2
99f2bafe1c0abb2791131dde5a702d3bb3ba28f3
c9b0262c4006f4d547726c03d5717bf53f6f4188
ea565b2e30e15cd52ddfc2ddc6db4ea8f1c3de88
6ca86d4de171d285a0fdc5456d836d323708bbc7
f695ea7f23e1df67aa28756da47b39b0a42cddfd
52454c61993e4d4376d429652104ae404503c3ad
4ab6a8258b0df3a3528029f810e1f48952dba2d7
c46b61d56533d392246ef2884b9a6e552cd6b94c
8f54a48ea5397e70bb81155e298f83a6b18623e5
c5c4e7857cb25af822b9b3b1fbd158cbd168f48a
8e201297fe9e6b5c908848c3cef633966e49c0d9
5355762a6f90e3ac5f3bfe4d2e8e2b862f91d21b
9d4b4d9aead6b11f260c34862f0d63e28c016185
da95a56de7435bffcf9b8cf2e9494b2b0d209cf9
43abb40f6a3088f3092497eed73c75a0939d0fcd
9a5670beecbf43dd34f730299c609cce9fc7dff7
cc7a26574d203121a5abe46f168521b0e5b366f0
6f232fdb6d11e8d030a6c986faf95636cd71f569
36b844cef550ec834045a7a50440e2d49ede9cf7
7a279cb3853415671f79fd47de72eef837950bfa
f6c3ab9b16d1026d810a84c33f5476b26be5cd8d
8b0bdf3155c7c2d656cb158493118e9ccfae1009
f8c35e8ce3bae20d234e7cc37f644c71a93c9e03
b32df4c18b36caddc958e3e0873eee7a6aa106a8
96dec382e2369b54fe08890f849ab996a59507fd
7361b9a141622818623fe6b0ee49c44c2ef6935b
6a7dfe80bc99ba7cb23cf1daa6a25de406e6d965
b2c657b157cb53fffa87d758c6b646a7e890dd11
a8d11adf46c1b3d8589c860fbdd5a1c5caffde3e
c3f5112d992cc54d8e1e9a5bb9f28a5b362af988
8b6aa0dca55576a54e69fec59f40ddfaa3561adb
4a3226a711d2a156ac3becf40b184ab62cec8e47
c202640e12abcf7499e5bee9a216f575b86cf028
a9a1f736b1ebbe2d44de570343685241db62600e
7049b29fd5a1c1a3a187ae8a1434640818827b4d
9631227619ffe9497c67d92d20428682e5df8862
31ec212f84edbe04b9b705f521ed7dc3bd7ddc3a
5527a1764d973d293faffe31faddf205e3f37641
6909923b89d98fef39600a170aa50e566dbb730a
ec572201658b566373845657a8aca7bc6d6214a4
1d86439e9064a223db49dcd08f48bf7f772f1f27
6aef5ab3c5dd964156be8e3a2501ff740dda1516
487c7545b6b7280c40f5300ee5a8effc84751b87
8b61d49c3ce21f34baffacefb17e4201e69525c7
786e3b3048b84721c73a046b02a9edcbb6927686
e49dd7a2f08deac92fab3de2b8a63e90b588f746
dcbb199247b58cc620afedcf834689b933390fe4
1d6f0e75d599e2cb02f0fe182f7dbf966cd5cb2b
a409634d3653f494413366f875b25bb6f7daf266
c6503d260419fd3a042830c85ec492a4b37cac62
755bd91f75ea56d8df25148509601d29a04a756b
98c74ace40b089f2769afb3e56c59a64eef327cb
39971631fe865fefe1524a6b1cc5b9f24884ef88
0de100dc1ebef241a1d2afc6a544c8e65090217b
5f8697391232573026bf0d06b5501957b6c480fe
03bb6befe2867d69f631c2ef03c92b1d5a9e47e7
785d9e94387f404f571775a49c3a9438508bb659
8c7c963c24c3e347fd0d0fd641c27058d4eadc2c
0a4e510a94a3c8583c9348f8a90772b4e4bd7c8d
0e199f608909793892b7883614c0d20a94c27916
4ef805fa1d9f7451a0a8498d03c45c289c3703e1
8e0a87a37436b645481b58216df84f01fed10d3e
1cabb0f58eac514bdd4528af6791d04cf936a05b
cd6ee52eac889031b8acef951fce61a69e28d876
3cd57ac7ce755afa51835ad1961ce380929f3921
15c81fdfc2ba4ecfbadac5a7ec73fcc61f6624bc
94db3ceb0c071a2d0f91f4e25e1bcd1b2285e41e
180f6575735c33247ed3c5a53fab4572b4dd0f3f
67ac248168089574248b040aee68e378991539c7
41bee9b70dfbe182697e32d2a8ad1f4b2885af02
eec5b4a8c942d6468d1f6ba389185116228de63d
5e62ed01a7e3e04e5411cee897815e7231335619
27c6e69c82a8252aed664b4ae6e09e5627778586
32b7675b726a1ca62f5080581f6daaf9b7c6a48e
e74e3f3bf744ef7f4d8ee724a7cf2347e486cfab
53ba84f06d7a2e8f209257a3d013af71757157e3
df9001cd69cb7fecd5e6144fad1d00a67a46394a
8b657e0d758a5f43c359d895c9e77e58409c1cf8
79d1568aec4919bd7a18a28209b2371645a78599
a8327d121b9eeb3b61ae63f06095d423936a5da2
6ffd38e92898d4f02f9a8e5d8ca638bad297fbf9
117ebac9e235cf9e614237cd6c246d0dac5e0142
01d683637d29d804fdeadae68651b0dcb4a923ee
0ad37cede4624e3d4764c400b1b46fc195420941
4d068212aa1d0bcf0afc45b41a272c772a5b955c
b78030a630dc0b757d77e8565241f984e11feaf8
1302835928112c85bf427702847ed5fe1c77f9fe
a21a3d38e362626381e0a47cc9fbd349b31b0449
6184a7f5cf2a1d97072aaccb9fc00e08003848e3
29ad4ba943710033124a6574142346b5646549c7
e362aac2fc19a81c10350796dc8a441cbadfdf47
090b2a1c2c130183ecfa6b88b2ebd1acfbe27123
986b6b65bac1d825b1c09079625f50dbd67a1e32
a89e492c108bbd5f68f73149aa38de61ffb77118
28a2695e2b5e73550baf4c0cc34b318a2be69e6e
789b536cb34afc90f66c82ba8e3705c4997f1507
9abf80c98ec19a4d195ba49e3f450b095f1ccff7
cbd185f592f59c23a650635041761199f12ce64f
d95341bb7bc13ee2a4c7a08d6c7f9944a8a51ae3
7a3bb19ea44f6771a20d3f5c323cc8bd15d73a56
d003dec9ac1fa325bd5ecd3408b14eb81670a253
122e99980d6f16ba4f13fc99135603600cf4823d
eef290de39fbed723b666dd0ad9cab1dc5553845
9aab6489d788ab14ac59e2f1869f822f4045036d
cca45fe0b5e147b6adbba2594e2f01ea0e5e12f0
a72dabb94b29bfad74e82955b331c25809a75f3a
41e6e51a8bb8575bb4a78223797e78ae5e9b251f
7ec881f29b1ee6f7f210c36919720c9f43a06243
64b607fc113cec3c18d04574ee1c024192d8cc43
9678a24611cc732fd4fbb7c1e47c78382db878ff
426c11de7b411bd47e9ef5ba3ce08d8589a8a88c
fd3f99a970b0857903fc6385404c1e51e033ff5e
f6617dd103dff6d494fce6ff9df95304375e862d
23602a85461e8deab52d2c943316ab5ab9f62369
a5535bd913324a2e0be4526f2d7129618e36bdde
c0c73046bb998beee981431ad9f24968966d63a2
b72c9567df964696afdf4335b9456c28d017afde
9eb307e586adc21ffaf90bb640da0bdd725b106c
424bd58b21379f4300d5aa7c9b2f2834d6bd6d11
ec1b266f1d75f6063b1b84ad06d5c8a689742150
7b6771bb2939da2e7d42ca359a7cfc0a6e86272b
6648193cbd7c6c1901a0a3133369a4d6088bb7a7
027618dfdc25f28018286864ddf0eee5950d1c41
a4a79586d8aec87344ef81c0a46fcb3c8b61ce88
0316426ecf0edd40675d85a7853a1fa89a16f4ab
d8eb48aa55c34a25b581fa29f401cfe350d49de2
187588cd42b98120a211f0bcfcb7f97e9fc9bda6
92b6f571d7f28c8c17bac39a56509fa82cf3cbc7
1962206a01ada5b0edbaa13f2a9841d83937c27e
767051119d7f2238b8520bdf090d3455d7e24239
3820b5c3355a0d5e48691c43481c6201a033a62c
c3bc8e25c831be4a844569ee431ef4dda60115ee
5f1ab03cd58eac2afcc01146f425cc3e533358b3
5991ab1ecb9ea0b31826bab38ec855a893475562
12f858caac6b9215b7d3cd84a781c812fae6c2bb
b1091b3f552a7badb7bf90faa68cfcc699845c94
112f020c411c9d14f34e480b98325777b25a7434
ddac0083db1f4d8fccf68c23254751c4167565a1
f80b1f3a4a6a5ba3fa0366e8de425c5e229b6c5d
40c2e6aec09d139a4e96b45856020a5b324b01ef
8f1bc30cd1e821b8b3745502a0f442f54cdebce8
9cc7a5219f8f88bec35a073feab96abab4a9b42f
36cff8b86438a3b0f3bd3e701b374a1404a9168d
8d4230b78d283924842edbe963b10cfb43737338
bf47e69d3d32dba720c743aa2134be7739a8c293
1ef2c93ec134234e72abe254b1675bf4236f2300
23d5851ebdb4d2f3aee160a19c3b9d1cb4b23999
39903819e93baa3e881dfd1e2e8b12cd31af5b81
c27e0fdc165282f1c64648bdae2a51ed10f14d40
83090befcca69b44c257b96afb519ca66282ca63
712e56de25c8c212d8c85c6b316faeb8789d731c
da1d7f23ea206d3ba96c228343d08df6f4abc3e0
bfac340626520863aeaeb079dee1dcf3769de2f6
b3ecd1e4e34d191941b152d7e7c4cb08e1c0201e
e69e4369004acd618d53b7f172a06c449bd8f18d
a3ce2d33e6318e6d7cc1ef50000a2f8f5727b46c
7028195274f67d2c72f4c5ee472d0dcd6a97c1e4
38d57953ee7a22a6f87d97ed15e69f17abb2c16f
ac5583b24b25fa23c8f035a6380eaaef523eea68
de619f429f4b07f8cbbb04eca912ea818aa6c102
973cc9338ae5ecad033427a637e91565bcfd3465
2a9f9fd92f571115ab92c6a50160cadf59d5a8e3
91c2c7bfc70186c82950a8db2536f8d7383da20e
b44760ac64862a09bc95d82503a32e15e45a8cf7
b16c9f29a8e21c77368f9970db862ad8f7af9f5e
b6b3d1f2fc405bcd7b616a5f36b2af9c66ac53fc
3a4c135529929975691ae4a02bb3bd80014bab1b
361374300ab3006b2fed712a3caac595b75e283c
aaf2695b00dfd69df6fd915ba16665eee8c1962d
fb93a578ee074542fd2beefb1ab63be86fed83ae
b36761b7dd5a0743ec5d89fb9adc36b602cc3b4b
c37660973807a2120e7af27462f6a83e00af16d5
84f9a172f93b041e482003bd6b5b080513c23c91
e2770dc2d3a166db7b3397fdec0142ed85573c33
6d9f9cbdf8069e504cb58908db23b4f327d1826c
494afc1969626baf8fa6063cc8864bbae394cb63
02bfad2945466fb8a30bbfbb0e9f81e77f043e98
5ca07ed95569047e89cd9ae7d4b7c0908950a88b
ea13e5ec97e5c8a25cff17612648bed95a5f8f57
4c1436b3d6e6a7f9722bbcaa4d9a286747168ec0
9a35caf73356aa9a0142f5c5a0c50fde60d6ae02
a1c0872a3407c947ec2ca7b88e96410f003d6c15
83e42cb9288896f88c934faa116b89165b3b9689
7bb06e78bac05e0e24c6ea81b34aa11f498ad61f
3a8967322d06ff2d8445aa277ae103653adf4eee
cabd391637d9fa4fdeb7238c844b0c528722fe1b
58c7b68cbf771e34adb36b4c141ac0d1c9f1e80e
a53cecf5bfb934fbe0e5d8bac20079179d92e99e
7d5c42a1b2d331826c3ae44ec86749e5d1ed78c6
f835806590c92b4c1ea7715da09de5f427df96b9
802b77399480cb8f63c4493fcfd16754caaa2aee
a87147e65424df05b7d7829555eef1220dbf4633
55173ea4e69733d14908894a3edb84507e5e8cfc
f2d5fcbd40d4712091c4e95df0033ba51a975286
a3c18f69c9a903b9078fd08dffe819f922b5833b
081218f448a4a8fceef79068ab8b87e1a7e343c0
5794a6518b9d3861364c968f2bc302b651cbc456
94f9a1719cc420be061b16e2da03258552c5060b
e3bac1e4a35f6b989617957332ef1ca5064a9365
bd055d30478c99b2307c275e9d47902c701df0c3
6171f554512ce314d5b7008fc660a1697887581c
2e3a253a5c7b4bcbdf9836575103ef86c6036eed
cdd71f1bbd32f20d63d7100787b91c327d1b5b0c
1d9bb81ecdaf4fc568383d3ae0937105dd6fd9cf
6afd57683c651ece727e26be454f6310812a205a
9bba277483bdb61aabf85143062194e76ef460b8
a8a39be3f68e76589f209b99a38644f6e685b792
9375aa8c4f954c086af05933191a5f9eed6c49eb
2cea341be1b6d2753b82fb5fe396313cbc44181c
f171096b1124485c538e0f65059d564ed378ab91
44300bdf378e70b00cf3dcab5c1ad74365ba9b53
a889f71f7ca0a7f0c243dc568e47acd4a83584a6
3469c11d3fc2f8ad5b01bc401724082a374da7f3
543b335640cc3feff84643f04447164ec5cc3d52
bdb5c2f4e96fb2dd6dbd77dfe7aebe1634649d42
97a01311da455eb392aea2149571de88cbfd9259
aa7e7a751c8e0096e18f792f3a737ed21d265ead
1ae96798cbe80e71a4c9a79200a52d477275d323
c5f1ebac2e35b30fbc22926d18d899827eec8db3
51b90a6b5c34c0368cdc688058f3b63161e8b7b4
8f7f3b29a73e3e7dcdef893a2094aa47e2951046
3ae7f7f9668a7948e61fbca9dd4006efd30d5711
8a43a253358474a8ba1599f480de6244714f7cea
6a2242ce3077291ee4311a91bf69df08cb15e678
5641d02a8d03afd8878b8f7a58a85fbad81e07fe
baba1c090dde4d2e40479d9178bdcecafa76daa5
30b0fd62d297319a8b7d862af4e2d91864de3f6d
0c837a4f1c82e57652a03241c96a78148104f3e7
ea9103a2433b9c15b69888f20db0bc629f139d87
22bb048e13850e0fe8a7987910002126326b1dd5
4c77a1cc53cc2cdaa318eaa76f010cfb63e7bb91
f7c3bad89feda8a6b380c2df732fdfd762f92175
1ba78fa29d1c0667bf7fb5efac2a9898d1d98b43
2ec2027fc00e24a83cd7bb7fef8b11e7c751bc13
91f36c75af70af01b790cb1d97a3ece66f8318c0
3226432039b31c731faeccccfe92a85853bd487e
e31b7377638b8d36be9b584e757814afc259748a
b398a4073dc098ae44c2019618a07a5469b96b67
8f6a21e864bf9059b70845f9c0d8837be997bc74
84ba90faf8ecfa80ecaaf4292caa9db568804d8d
f6a46b8992e486fb881b77c2fd533dc4d71dfd5b
95ea889b5bfa3e343b81ff21db474dce334884e8
1a1cc18f26c381f405d62f5b9262b3113736d014
e870d2645abab393f6f0107ed68fffecbf91dcc1
cc92c4cecc1e009e43383a600c99e783cfe86990
8dcc74d339e0664580756063ff47c65c6f1a17ae
dbbdcd3a3985d7f73d68c4a3f69d75c25f355cc9
abdf14c400eb0ef51a3065a958979e81470b0a67
5d159027439fbb6537b4c8b11ac1048bf84f2cae
5648a6868d64ac0f7e25550d2d78516ba78eafa3
e2884a722b0ed2a25269dac33d5708fd80325409
efc791b84afa4d6a6083e0913dc550c8698d1f73
9e233ca544cf0475bfed689d25555331a8d1145c
ed70981925e64fd0cb593d09bdd401ea4ea19848
3bf2e371228351e35bec1efd04ef89129fca0dc6
e40af071ebffa18f39e5f555d6fb41b2e31de0a8
4eaa9b5b703bfeb7a6a0cafc9606d4f0b04cf2cb
53b9f84cb694a6267373b1fdd6d2144a6f05b68b
630fd7fb080ba4843a459b9833e8649a30d8a45b
900a0d3d409b3dc20caff73cf61bc279a00fbab2
22a03b59fac9fa58cb59a6f240c8280a2a1eb801
d017be5b0042d2142d9b541c1403aa393c2c7fdd
9abfde9e5ad7c67ddad907c55bfb2378bc65082c
0676d8b1733589a869098b9980118644b3bade4f
271cc7b632ace0ce5770725d38abb2413af5410e
8ee5584a1c6ff170fbac8222d0bda95b82acee78
b21b0de3044d495ab42863442e4ace21d69180ba
d30c48a1943f165cbd18a33b629b15434079a15a
2bf8aeb420ff7ccfa19b19934487960c43f70cb9
73aaaeecae3a499ed572bcd76516d3881f973bb3
1ce14dad4610c4a25929ffd33b3064306bc06239
d111f4cd19d3d69558dd2186d778efb69b90b1e3
84312bd93f895641f90900952dba6bb48d0b247e
9fcb67db2f20bcd6a2f7f870e3fc6f5f89589262
d614f056145d07cfa77140f03027f385afe57c85
a68b85f7ef704dbb6804b0fea97552897a18fc8f
4044d787c617d8a0a4c0e6e03bd44e8a11c1546b
8ad79965defd8a6630e78c87ad02059040b3842a
8f49f0e0147d9158ea635d8a22b17911719d0c6b
ce424f32fa1eacde71152663fa490e3276a45100
8fee1602bc57eb8b9b8b7302846a2570d0944c4b
ee2ed56c9ad4563f5713ff0f572a5454af16901d
c85153e6a6a2fd93d17dcb18352b42698cf7d814
80cb022e49e63cbf304654f41153d5d4fd2cde50
cc38140be4c7e41330cf7749c3eeba23c85f9522
069dda77b17f25770e68f4460c27d1c0da8d0f3d
c536a8db8d7638ac5b967cfb9fa8308fb7bf26e0
0466edb4ad41c8549ca6bd7be16b064274bce4c7
5ddcdf54828b8543613d2a07da1139cc4c20ea72
73a06499537e700fe10a9465cea53b583b91a0fc
c26f9af0489869a9e1873ed5010c65f8464cff26
1044d9eea21d8be54c195fff75ca0a7b9bba79b3
853b4e35f1ddbf3c5db1d91c7ff02c2d979da86f
329750f91730982a02e9f0732e5d1d84eaa97db7
7e28b1d6b6834879556b9c3caa62e49e428351cc
a5b7c3b2f31164e20bc3a19187182af57bd3a330
770a1f954dfbd1b956ffceaf67c38f10a4de4401
b057ad2418fd2d74656d1f56fe44474266b47ac0
022173a44406f1492c674dc9450423581a21d675
da7ef589e1ce8a7a0c9df1922285b69098495382
c908bfbcf66e6e27a5c9f708e6a52cd883015346
7f3d9b43b79c96cccd2ae42ff216fd4b1f316a73
550c5e3865bea137fbf6a9c2693542edf34fc69e
bdf42b20e88e6dd390448c5e7dbb299e8757d955
b7542587b8e90aa4472d4d9e4b74a72ca0c42cb4
0ee2cc330abf0658814d77b89999e7dc3a85aab9
520d9fc2bc6b251a998b58794070f8bebee9d682
c3e8a5d326f026ba6af20d0bf7da41c005ff1915
38ea820a73eb318254e9722653aac8878598c266
63d4dfaaa622d4cce72a09cdeead267afa3453a6
7bfcaa60e2d27f6861f94b41d8a1ac30ae0716ff
e19326c0337758817e5879f9e1bef452d27f9a4a
0b677ac70d37f9064d3a0c0914794f60f66d64be
92e427d7c66091c9731afd02f83f2d4ba08dc395
786423c8c2d6c9154c5dc4fac0caeb7fbe282220
1ad3b6d7499160075f4482b4788a07359ffd7932
5b6f64a46220911466350202ae974f167497225a
112dcc40900d503ea7e416e0da0a8fd9b08a9c17
9146c579dd9110d0028144c59515da9be1ce7108
322438f8b034ed7b36495ca6b15b71bdee46663c
2d47bc2631048fc713dbc7dbb6e7603619fce776
e920196fbd71822fc284ab76204bf75f95d3265a
d5d540fac75ee21d4c406537cb8374ec44a3bb66
b60875421b0f67575970b6b63582b7e5e31c4a06
6e373d870e1be071cd67c350928e44745c72f499
da484932625ab15681e469c1680b6371b8f67080
c51382a430a2adb8a29cb59976af76b2cb48e386
a9b4ec6bb771472136fb86562ab4a3d9baee0390
986fa834238821709311c1dce738225740dff81f
996e9c95bdcafd62e84c79c512d6ccac65c30758
aca1ff99afc235702f3189447eeadcbf15d5dda7
09e734c81219d5ffeb5e0d2b42206d863df4aba2
9db4b86e7559859d86b2c42964879eb1a878894c
ad1286a09b884d378bbf932bc00e0963c7633317
307c7a144afc1262237ab6401a3f3f3b2491a124
9546527a1c34400a0020f50fe58ffd1f109800ab
fa42933c783271d21505a5101b5bef61576c335c
8f9e50686d16c357060e49ae9a0ccf54c4a59064
e9b5bf2a1dd8c50a919846713eac16d6be35d715
617641d7d77e0334b41486d0519e169194c834f4
e76f8f651dea7c2c2e43185b078f7854216bc37b
2d3bdd9d9269ab21e8acb191ac46e5c846f08891
58717fdc448c55dbf7efadcd20f1212a74dfd237
ab4927b857b1feb45d78f2fec8ae27ab6ad7d541
411a33810512340fd68fc5c33423badd52d290e9
41aa4b6805141369d614964152d329a686aabdb8
9549fb4455f54d96a307ce17d280ff55df855470
8e9d8f6fbf4a505417ead296b2c2a1bb15e6ba5c
c676ee28ef959979adfd4fbe6cb183822e31e1a1
889bc764a5f1627090a69e6e100bcd18474dfb86
9babb8d8e5578e2916d414e50ab539376581e4bb
9d22181146a053cebb04e9be4a215bb43255f473
ff7946416d86aedcf154b868ba869241cd4816e9
af812cbe0fb290ac7b825b4203f2079b753cb085
34ab38d63613f861f7d14b6f572ac42b57b10b0f
62a7ea2d2041ea4cd259d74d16714e3f00ebcaf3
b8e50f57d34d84710493acd3610fd545b9aac88a
fc6c47fddf595472f7a80d10fca57d3bf592b82d
a2a9fcb567be89e3c49f2c2d932276ecb634fb7e
0b0fe2e03f4a45563b9f36fe51ddf73dd74bbb59
b03026067b3686e45d4e11886eaccf084c36b01e
b2420242161a6098e28a3bf1809c0bed26771ebc
825b31dc5ca5be249b165e8c6ae90340f3c678d1
1fd77e07c462d9d077bbd4232b9af8bb4411b41b
ff5390d6dcaf79ef09a3ef94dbb7e8ac39572a7f
875cf4649412efcf231074f0ad745f8fa08bde1f
a84901e7c10552fe1bbbc9112d2341d8721d741e
71ff30ccb8ba6e7415d9c8fd6c2f01340987683e
9c302131491d05a4ca0209ef21770592c01f76fa
358c0c016c06b09fee9e39e9f8a5281fc9225013
4c86085429edbeef0a383941936ee7b64cc3805e
6c57d76915a7e79cc8b8f743ccd8ecc35889ce7c
67685e1b3d3264c369418855b5c96a2fb3e5ae46
64047a14abd377dbbd5d51f714cf08f33e7817dd
664b65d18e164a571a2c8498fe372d3f934499c3
bcf069cd2b2e5ee6cc324921e68ac6a8ef4f94f0
cb7de5bb40a506700565b9732e1574ce9161b442
6cf56de5d0701ff26aa6043c552e17c4665c1287
e2599be9e073f1be8e929597c358e2664ab0c9a9
1dc42da8d6cf1727c118db5eda5ab8094678188f
d4388929749320488237ae0259e374dc58c36c00
ca0aff1e48984c1e588a38a6ebf72b287ea5f2f8
5778892f7b54e1738a706e039c840cb5fbe24ae8
dcb5dc52a18663429a63d8a4b135f8bcdfa9899c
8d78da7ce7e60d93fe8e299a83b963cd220a60ad
7a43728529736eb2350f4b2c67e8e7a828258921
087348c2c70abaa50f119d608b19d13210bcc3c0
06f09c2da6d7927fa26c3c1f4d2d8a03e6e6b780
1cba1d1e4f1dd5ef77ddf699c17d2e7f49032f0a
6191246d1996e5d4d1206683a3a096ef04658d97
ce63aa86f7f24c6174ef6c73768d5ea05f56a60f
b169dc4c272e116e297e101e6279ccbfa99426cb
6b17f9edf338173c6491cc30feeb6e4ff539be9d
8a0b263b7a8a8ceae0bf72f8b463ee78f7963b80
b8f3a029d3c59f037fd42eb2aed7ff926d62db8b
b0d4805f8040f5ac049bb448ea9f6b6fddb22fd5
abe9d75e82ee480ce2aa5525965370b7687934df
12ba9103d825b776d6cf4f74704332f4118ec1be
818d17e3650f5c0fa048ae52279c559cd255f738
d092c9660abb6117811e99a5aafdb3f2e896fe4a
6c92ae511733b3a82eff0289874986cd6be2ff69
aec9b7a12c6d6bbe0100fc9a268828f51ccf09de
b1a135d8715cf14747d75b6a76036805ba700b22
c8638813ff5f90715417e489b342aae5e410c5b2
f0941ff6eab4c90d6167cbaf6c627d291b6e85f4
cb2d297ae2688e1daa914278b0a31025a45d3c96
26b5f35718ef3fc5500b492f43d520fd42606a53
129c937fb33328e1f4ee8815a94e89676f242c2c
fbbc6942cf2f4f31d74e5cc35a0812f9174cd0f6
8fa4242d02c55ee30d40fac65881d0b60e9151fa
8f035fc347f1ba9e4155ce99242c1a4f7d6e16dd
74027a4e0bf161fa11667e6ea29fab7f0c991ae7
788a8025798b3a87519cc9bfc001f297cf497304
5f7c3bf39c1dd04ca40f3020f6866039d1308a38
1ab398fb93f61e6053ba0190fb76b2d312b83800
60ca88944f343d6941fde84eeaa66f3348e87a4a
cf63fcc48ae3e1dc3fb32120ca2fb04877fa041e
444bde0ec133a7e73c8cdd249023be88283d84c1
2a4b1c18a375a53bb19b966a464e5dc7de38399f
3585ac2207f4ce09a5f49b9d18dccb73dc208e49
e2d95bfaf2f3e3623bbae8937b79306767d5af78
1e475f9a203b8a7cd7948e34600fb0cc9e96dbab
e5b90c6e3d83e1107d06dbf734fdb1d8127dc9e6
98f60cc9f0b1af08803dde269386877b9cf1c7d3
a5ba3e9062f3bde4bb6896f1db433a2408119e94
99e2dc2df88345776c48f8f005d0ee17017a39f6
c6316bfa4c592c436c948251fc71ea910437168f
4fa4694839ab2eedd314be5af46206c78638c3f2
5c3cfd9148500c19794aec4ba44c426247b7bd72
c66899bbead9dffe4381fe6a25428679ea72b3f0
8b0401eb7a01d2d93fe144bcc38b346df471b987
e40ebf8f4380c3086e9566f771f9031c486cae39
edb8164469296e27abd1ab69ff554711a41a79be
6d8e198e2dd1ef808e81c57a9e88aa6218e0dbab
110a4fac4257fe2df0e23149fbef76e750604cf4
e7354e311ca0b5873ea89a4cccc0c575530d0182
7c99d00088a168ad060311d278479c29a3032113
29ffd5237ec89577a67c781c746ce72f968efabe
fb46f100a4d66342a0b101624fd351a51b6f14a9
a562b99d794a7a8079a09c9c79b55175dd6bcb9f
440fb302ff9c7cabdaae954f64683e92009df36d
2681bc424719e40477830230dfc84913b1f8694c
416e59e219804c8eca46b9317b19b8f8ac3cf24e
c24e49c4421885a6dd582f272759db14bc00e095
97524fb5c9b94b1544a641f115318a41d976a801
84184afdb26b42ff615896f9c0161157cc84ec73
c16436f8b2020e4bb2cbdddbd0eddd5ae5c528c4
ab78dadb4bb94db74770e179e04e2ed791c4a51e
ef1fdccbeb6c9ca960025844b7af7d1a5b4b276f
095448552ee41e62e58994be0f424df750c6822f
9080b73109e2832a1487a667461d9fb48cd6043c
2581c36905db13dcd1df9a602c6201e3a9f80965
7995b46276295a7c1d8afd920d6900777dfeae59
5e220ac5160013d6560ac05d1c57f75d11564d9d
5ce96235151e818cd0d2af67134da46200c4a143
6ad4d9856a7bfcea81d39c900eafaa226ece4bf7
8377182cfe5ea862516726899dbef5bfb699176d
686133cc893b2f2430a146f3eb1363766c769f4c
cca9142903097dbe4643944bbb4dbe5e2b87d922
f5d07820a2bbafe2d5cb6b4ff8b067a6dc17e41d
f41e2c8c0488279a17b4b7706cd6cb6bf3efee90
a3e9485b81517653ae5a2f4a37a5b56c5180f83d
e9d95f5b8ba5ee81d0ac53cbbbccf70cbf26679d
ccd54b7025cc96d812f72a303831c530e840b1df
60e68ab19876d2e815a4c02411aa70ed55596c61
a669069599893a774748181a238e0b009a4f3e87
167245bb4ab0ca21bb47c529b07617f6b29ac812
415841c48f1d15018338f0c0438a91232a3b2a22
dac5aed3d5f9307b9d1ab0a8c7840b232d053ef3
322e9f3700be4b9ebcf8b004d82868da71f919c5
504b9cf55afd9d642e2a5323e18f79db607ad1a9
334584b8349ed62efac23c80062c24b062d00d4f
622e6a23cc4cc2f97e4437afa78ff99607d562b3
c8507d05b45d9699b6501aed74d735eb58a8fcdc
9c6a433725364dc8d4639e712aef8ca9c9eeec20
72d5faec97063faec64403624740611a213ca60c
d60d8e143a337b48f2e9a7373cb2a9e539423b19
6587a862cf4e60832a07dea2c1b420493b5a7e93
5d7fdbaf30a411c56666462bd032d86e8eb4ddf7
acd45e124e05b3f1a8624a193480791acfb51419
cd16580d2ea22901b8273b22914be9205af5a9f7
1f97e6b74cd1f8a880264f6da500087172adfa7f
2c6f99dd56c707c5f12f72d7c5fbde54855a7fd4
0ca4c82dd1032625831a5814ea2ddcf165029bdc
fdee6f13a4c5bf5bd24f2c237c2996aea01cc5ff
4313b7af81f7023aa7210f08f2992eaf9fa15633
220c30ba20ab4ed80788aac18582b989ccf2c1b2
15099af48064c22bc3357b01c9efcb1aa43c4819
99841aecb4273e0cbd22e7d67399bee20b806c52
18ef05d70d3b5ac90e8df8b80cd83af82b82197b
66b25823795f14f156576d633294eb8c62382c4a
08bc3c8808ec4495a1284ed6eb2325d44b435d33
13ce4a09bec4cb9c999f5e45d4cf3d3a90c1c95d
7c21992db56623b9d77f682d7e4edea078c3985b
9bbdf3a9245e83dfb2a2f20afce7fd1dc41f95fb
2d01579a18cc50c33147e3e51924515dbdbf950b
0b3ec2b55d4ecbaf3cbfecee79599a71ac1481d2
855c114f4f6fce3e0e1ae71479f89c9d5ad066d6
25cb503a4116ffe800aefde81bfbaffe5441ff7e
bcacc38f7ddd87adce636610c6c3b9d4d2b29873
d152445db7f7c444cb6e79f659fbd1a1c6facc2f
b77e76c7367af5a09097f407c0066a227454dec8
35b031fb63534b9664e622ca4ecf5b19536f63a8
358169b89f32c00bf229b4e42ccef756588da71f
5fe67f1bfc00a1c2027802515079137f6fd70bea
32a2b1d8d000a19d4a340cc1d77a68973a9d65dc
d990b5819cd6282923134564f3bcc59263eb0616
d4508141fc9fa1b816c5a1ff3f39149d4dfb22de
2207d16d458d5f595a2f3dbfcff3fd6f64bed396
a26ddbb76c8b02ba61450dcb7261e986e6ce3735
69cabb714e2a9972a69be991e660bae99b356824
93e079b9368190561f46b56c7528b82dfcc9b1ec
241814257b774f39896d7384c3452ef22612307f
08a3845a599b51d4f3bcc81f4f369ec497bfc055
b2cff2e9163182b48812f8a01ffbf2eae5720a37
154cbb4b9fb52b92d46ad01ab1d81c6bbe2cc236
28017b150683316ebb60b6d5be94c5c749ceb9bc
471ed070e9e0b0860b0146f26458c5c0bd8169e0
97741e94fba896f2aede30aecb789efe409202cf
ded437b77a08ba230a789c7a86f378aa8137fb38
5dc83fd2b8eda3e0b880b8264f118113b5389206
4a62aef3f8a0bcd42c730d02191e89f2d91a2dad
f214cf9670339b850f97da4a2d4ad64758fd0e4d
0c5b5454bc8e9c24160a5df1f5b83a0532323ee1
9110ef83bf35a006368ae251ccd170cd72ba6415
4fa9814e3018a3c8797f79485f0132b4d9b8b690
65ed03e0a091b03971dd646a38ef0af8c30b32d0
3a21915069bd7930f5d1d65fadcaf841ba6f1a80
c1458f74d8ede24d188dff928f13376188f9122d
4a627bb009725d7fa938c1599137cfd77d3fb6d9
27463b509fb6d468d3ddfa71a1a71bef509128f4
b95a0ccbcae50f92acc923d62fc6c9cecc6bbb63
9c15cba43d4d097d00a6f558916362b96ab55ae8
8da2510c3cf6965c685f8b0eabe66ec8f9b3c223
7fccb687b261759e7443900befc4bd1c1f3d2fb4
ef30f7efc61ac249c1a8b43e41dba03a2bf0bef8
5843bd35bd607a189ea7cbc82462dfd10f0488b5
bfa278803211f759dbfd5e6b4884366beb189d60
f6f3497ef7d01c2e11b68ca96b7f84e566e6c745
04e1002ad11b41d6483e614c673cfaa81ae1a551
ce40dc702d3d3f6e2d8c56ec897f5e1e969c70a1
9766de54dc8be4560b45d89452b016998277dae3
46a0852c202acf68cd890867a35f8e51b81c2948
fb21058af36c7c500e5c73407e9ab071f001a4ea
b7a07f0fe1164b88b6c7bd2e2dc7ab704fac6bb2
8972a94aee5b1a8732b4f8246c6ce43fd9e5e1cb
a8e2f930ea2be9393a12d0000ecd966086488a78
5c84000ca35706bbdeaa3a508c2b2ef6124d9803
c05cb7e93c463b23a06c0d93aee2acac309f06fc
c05949c4832f0b9df088d315c18a6438b36c1991
749a65b776c8fc4b39b6463695980275da34da51
faea360ddf7c6a3fc8668bfb3856456712e7f71d
f7af480a068c20d9fa844b4c927ec951ae68fba6
1b8a7c02bf6b7b067af07006b3e9a99685a0db96
684aa14bca9b1b0f2efef96317ddd9aedd8fa19e
c6888734b441e2513fa48de8b0575bf160ec8141
796467b43826022dbc4cd5da7c33e29f01a41784
9eb276043fc14cda856671ccdba4065bba2a7bae
8acdabd3b365079b481ad2c9c9c1b9d6f58babe2
38a5b93da06f6dfa25a67e3106cb644e3f5b73e6
287152568a4328a31b575dbc5c1d44c1164ddd6e
ed2ee02570bac36b89bd93836e200840cb8fa59d
3aa708978d83c272e2a24348dfdd7d6695c3d27b
576530cdf04ef9abb69845e1ef5be2c6a4a6a197
2fb9064eb6ecbd5bafc0bc8fd0e42933dd13fe7a
16ff09a9ea24bdc7dce883681238a006e6a2e68f
379e4ff19987539fdf8fe397a4b948e327ea7600
efcffd0c1c314ab78943973e07afbf6f4627d232
9cc440480a3a4ba9231ff8e98e6b5ca35254bfb3
3eda83ab14d334bf5a5cb900674df1552de74e73
5c787a0b9d5c83c764880da4b1503a65ee0ff267
bd26cf927a8ee69aab11890c5d0bfe9b9312404d
89219abb01224a6cc26eb71b79861989033bf838
57c0b5ed5b98180488f937d6dd8dbeed3ace942d
d7444f5fc4414b51b2708606257381cc0de404e1
f3a450bf4f0e9428cf8b3c2780236162bbeb803a
656bca2dc8bc9f2f13b8aa42e0bdd3b94202f527
59a6804c91328c2d1eb096054590b213ab711d22
6a2062cb3fc6767459b49b28500725c0f6e847d0
a31a5192d1604131d5239fbf2f5280f1ac5eeeaa
86e730f612e4daba3ab83550661d390424c4d6a2
68de030b356e83ca5680986a290e98cfee8fd550
7c9300be5f62117ab048ce841cdadefe8e36e40d
1cfab333332f8e64b10d32bf133b37cb2ca2f974
9417fa5c2e84580411e0fa4905b1f109e2d49533
8ad6e962e8cdf67f7fd629d944f0f5f4aa47620f
b21ea3a7daf9de0a5deb9bf7cf6d791c2ff63d3b
d451e9399442fc52db3435320227dbf5568ee0d8
0ef26ad2e9e6b28a181ebc128f96671cff295043
262e3d43b63083ad9f87f3f332827b2ae37a30ff
dbca0acc6f8c188dfa48f07bb5886606bec8d28f
957537774b319bb0109819258a11af78a98bcb97
29fb61cca0340598ec28a0f8240b055d4eeb5949
fd0d3c93f2872e20d3afa6b93869482652bc9882
4831a8dc6577f762e0f21fd15dd9700fe824740d
60f20dc23cb08d598d605f51f7526725ec42abd9
bc259348300d6e2dd735fc3066773acf8d8e8d53
14b6e76e7d7af9b99a7fdc1a56d7ee9309711722
350c43b6fe02401a73f967d9ef322061638b372a
30ecba897fb624df201f0a014b54a604418a0e73
e2bfa5dd6c0aee7d7e34b224a649500b9e5c267f
37c01895cca5ec2bec26a3d381611f0938acd6d0
1c90331a3dc9856e31fac14b58d856cb2dd83d89
b9c3ffb26afeff02ab978c8e42f9a0fd242cdd51
35ead0f5d17b0c53610b0947aa9bd8fee6da50fa
13c06879f4e98c86436bdca765046ef815e34838
d0e49527c78974841511f8b028815bc79848eb26
4db72885614c8e9224b0836b85f58acdb4f005cd
af5e60af84da628125b6fa832bdb45093c4bba71
f7d96b25631612860a1a3e3ebed76d5a4511b90c
39ede8fc00acaeb3c8f689765d7a1de15a14b0be
998202c0097c9623b19c750b96680b9004793e47
19a21936ffbb5e358799af9e4fb7306af45f3824
98c9288d8eb14f7af93716aa50735d28c6aa91eb
f2a6a6496fb90f71d2f7facdc1798e28b0737248
adec488f99795bcba135cbbdb1b9821880425b4c
a4f22a2168496c991f901a20aa3c78a7bce8c84b
8161a89c8f5d4566929beb243dbbdcc5a4cc38f0
7679acdbde7f311d0958c52135c859edd659aed1
c74050b71c0bf06693c8c772fd9e30ee6a68317a
cd727cd34987980da5d4e1ca0bfab0c7b2e39818
32a716667db8e1be88ba4ccd68a1317bf37c43fd
29ab48bf0dfbac1b249f2233de08fa948bad11d8
2deaf1520a0bb0864547b7ffc035c065434fbff1
40d0bcbf6dfd0c5a915fe355268de24f01b02256
357f77221cd4a41d06c6c84b7bb26cd79b307190
742cee9e41eebb3f8af3b830f7b62ef898a14976
8f03548249d3292ab95fc5cf016b51133705e771
98920e22a7f5410278e97d9d5a1111481e62e8fd
8dee226c7c974f6c3dfaf54770c1e87bd6fefff8
a1d42ed5bd895f964dc0881115c9e3948613fb74
155a516b54ed60ec796cf5b9f2d8705012c5ceae
a91124b6d4e2eb1bb3c71a7a8ddff7d40b7db55a
638ae21c7a6edc0e51bc624a80dfbc6fb8aa4236
1a824f3c644fbc7f014a910d3c786677a260cf7a
3b83a3ba3e735fd92a7a61936feb78b54d429d2a
5663f815af072160f344712d5b353439bd2066f1
a948ffce1eb2b9ec46069722f6744f252d6dbfc7
ca7d09b4e84410d743a5d6016dbb25f2a988e594
4eb81fee1f807cb97bf8fb39d23652c947561bf2
e0d360e98c230f3d06fd567b23fede783199bd86
4ed57b92fbf64e0f7e39be7533fdeea1d5242cdb
64b257183fbdc620b6a255ff87b9d61293ede9f4
787ec360de379839edad577bb21fd96e7a5e6014
6e382aa9b807c61adc88eb0a2cddc047382e36d9
2f31d7122d8806b6c32d2d1e181ca635fb80bba7
39c0d7d56397ab14892db8032464cb8a9f983ff1
d3a92ff9d511b40ce65f24f95901f53a1240dc74
5b076fbe4a0d2d8f93b42a61fde0baee551086b8
6998bf3b87520b3b86370987b05e71dd51df4de9
993719684df534525606d33b0db545dbf3f91cc8
db3b3f4d2a910360339ed115db77ac024a72ff5e
f7699d92436ccb8f240d003469b128bfdedc378a
f6ec6f74badc8538f1cf3b48366ed5d58a639d69
bc3aa64462552d3e1c2e621e0cb15880b71b933c
490019163fb28fc2b0d92373bd81158054adfe34
9ddc3d75de2b4ad83e2551c1d4dfc7fa5f4f3e56
542a2912b22b61604cee88646fb054eb8d6515b4
21dc92f967d01c2da3ace57b7cc04421e2fd296b
3626d698139b7b95c91b0e802fe7754ce5445c21
ad928c668de84199f277f083627a262485a987d1
e7d13c48027f676ef5a6b5abf2b8fbfdf0cc3538
efc95d993f813cf5ffc22a66ce99d97b4ac9651b
d5ab35a272dfd9a7eca1072a72d3d57f29c438b4
00a50d1919549b51d941aeb893b2a5ed465aa472
8535f2447c4269531de53e9e37aa37f2d4d1da51
60102293782e942ec86d7e2c26836ed6fa992cf5
3c0faa9ca18de3be0a178e590086888f4f89612a
c2366b7658fdf497cb7277e89a640eac56688c8e
de1b5f244df1e29c457fdd87e91b9919c2336da7
a87b569d0140e77650e95c47a3a9dd5e091deaf0
c7a90b13f205ec0374c5ac7950986ba41b4a60a3
8035fda72fd7c582d2f1b7df52fdae90d3959909
ef09f798a32dc4d0593388054e446f199c14ec8f
63508d956aca8a174c5808697e5518328197956d
6cb214f0f4c634479c09bf771d084d80614c050c
d66810bf0efbfad5c2afb9b304e1091ac6107a65
7e3e8bb8c56c701aab2f0f79d14425b4fe5c0c55
5f87fc19ab269a929b61c088a806a674644caa6a
c2da9cc6450196c0c0c1067ca62c82a71a670a3d
39b3b59f6f6cea6335f264b56e370787d92082e1
1bd4dd1a5579009e06a2485bc8f1b86cf3d5e7db
76275fc9733168320d9472b8982c7d38956058fb
a43db05b64bcd59518f3b34b3e8c61db98597096
c3652689c4e645e680af39fefe401d7f0dd02748
03902bc48fbd9dfbf45f82271c7c9d0b27125091
c8e37ce19bf439a6a36931069fd01921ec67ae0b
3108f7c233dda01f2f41bc199a65da70a95c1075
53e12cca33f7d24cd8ea6c6ead262559b3553fbb
4d506df096eca1f624a7cc127aa2a211a208e845
27861c698b24931b7698c94cabd2746f705fe82d
ad5ac4a57f79e2b96fd576d4bb03b06b2fbdc0cb
d439855a9d061a274730409e471310ea9291c693
a39032cb0af0de4cbc1c18397c64f67074981538
74b4d049d0bebfe3da09e36e875973ac5461da43
08ac8245dc8903e285e1e7cd8ada9578b4a27c46
5516526004f35d78daa657664fc9d3a237b535a2
20f7eebbf58109009577e3369f68e0e241f2cd61
c24a62e32599cbe264c1b54c272e2decee6a9c05
07a97dc250bcb7402246f8bd48ac6d7806ef99e3
550a4148d36597d6eeb2022588534ac8add55d64
812ba5ea6314b1b439166bd1d73af18df5fe44a6
06e6beeb3d96214694310f116e1f440c5db18288
929a15a55dd13a8f24b2dd8ba5d899f19a9207a3
76eaa1b1bfe5cca0b9d9468bef05491377e7cc13
4910039a572abc6d20cac48eb2c5e92591520537
1192af61fd1f6a102a7d74422e83dfb1fc9a94b9
f1639153468485070271412ca761e080f59068b3
f9f55b15aa3152c5b3d3af41e4d60257c20a309a
f8d9ec7c31304ef0176a8cdd7d2f7e354ba969cf
a6d07d9b68236edb028d592631a6e1871e2d83ac
5bb8d57ffbb30f8762fb9f1431a971e72ea85fad
1482bc403285dcc5f49e24041abd1127ead3afa7
34049c1c0f193e293aa4466acee774e2bdc7cb65
225a39f47d363bd5ca2c6208928ca7f3aea00665
d7e24381a3879e8d5afacf309deee50278f79243
70e13c131cf0caa063979feddca39a23d53c8c62
3ba54eed34c9d5e41965587660a76a06806180a0
bb1b1a2c5c6c93df75526a2d5bf5c19817402fbc
570385f29ab96e1041e4bef51bd3c6c1e852cbbc
5345c1ab20add48e164b893f833a95c76ab5da9d
fcf3264d4d35a97990881e1f0918be284168077a
7f4d253579f7252dbd610eca5bfb9c12ac94a8d5
e5fc585341b90e8f92b9bac3eaada15065bfbe66
c9e5bed993a365fe50b82e0006aacb7510419c59
a67797405d43e313cebeac1b085388e28cbe2199
c34f66895fa2e26d9bfdd5fdb946dd550f33a964
8eda9900b576a754f6f1505a95313a3232655dfe
b5ee64926d7ddf7d214553df2240eb8b2017a0bf
d49ddf3414bc73ad84f4c5e72c0ace5f8512b361
66544feab64f1e53796d261c6820565a67425803
eb5e72280b56427139bb14ffe14036f8dca6dba3
ae9d97110b6111f374e078eaa34694fdcff93da8
bd2cac58f3d20102ac99021d9b122c5180c93253
d95ecff5423f19e019e178baddfe4211f2fe57aa
8f988a303b24fa44ac942f1a3bcf36973cb38adc
25264fa6b7b925367a01c30e99d3b740fa263094
ea4297ded736c5b606a772fef9d0d7929697e159
37a513bbdbb179585932c77072e7f597cd2a349d
43c55e393b993027dbd23eecd9c20656c75a3d66
562522f7c7ff8b3bdc3d65788bebd106478dfc72
4546383a2c54db3c4b2aa0e42c41c0d6b55a52df
31ff3d56ef48215cc58297d6178733a98d0ac8d4
d9872fdd71a571f1e5b18a6e54521525cbeee19b
59b1c1dc5290b9f96ebeefb7ea2369d58042fed3
954e8f5453a23d52f6a2a09aac469ca73460e0f5
870ae218c705eedc90a1e6e5e8b3ec83c67a6320
19d3b1658bf9c8dcb235fae44bae3c16002d2827
58c42623d084b05c249f1948686f250413a3611a
8c3811dc2099c63e50751a21a0bde5664bed1308
aee4bff8044f4189eedacb78be37d48cc7ef226f
0ff5ce5a6dd22b24c0c080e6fe8b734ec0859418
c3d3ee79f8223a92e19176a7cbf3f0704d42e885
03c351be3a6b2889b70a60eaee052204bf6d60ea
4235e8738eecd8933d9be1844565e7192051c6b3
63c5a42ecdc53d51cc6d617d4fcc05cb2e7a9dba
cb7ade556c9ce90e861e947380a2bb380101b05e
3344cf326e566daeba5bd387711dec238c100d71
13d8b5f7bfc73c8f4064a57f634b6155991eb961
22e45daefd3a3cd13a5d2e5e1c4e3533582b82dc
7f58c97ab215e9fa18762d3b66e4e2d427402858
6ed0f2c2cbf5872684bcc50a883fb6d5d0ac207f
242be7e5781be67fc0b570f02adaa522e48ee49a
12b35d6a62747970f98a7cf7eb5afa2eb195690d
ba31ada6f31c67ac9e383174658d4d3446deecaf
56c190404b079bce1adf9c979829a676643b2a7e
1ece746c815a26782042b1fca6069eb527d1029b
923eb55473a1f4bc2cf5ee51c1448455d55a0b55
d7ed3f8c440abc32bf49ceae203428cb019d27f2
4e3da9d43076937819a397fadddcd6514c9f6f2d
e218ed8cdcc9f0b9a1001f19da38406b200ad863
0c075085b1da333eb5e43218aae0ca0fa543fed9
2eb0cdd8b39551475520eb5e9fce5f72abb40dbc
1a0531845e49a5d5a76fab59398b16348971142d
d704709fa98684b54904978cdeab54115447e05b
e1d6d3d03009e683afb2d34fbedc3a1020513b62
c0df29ac0b2e3f78c058fce743f75b25c29975d0
621bfd7710a1ede10c5ea6bda793068de79e555e
988f519754dfb5c26520c59f3889ce72f65854d2
d60c084b990141c05e7260e31f2555984cf2f8f8
7ccbf48838b7cfe42759c67790636d442ea5daa3
780a2cbd70090bca1a1ed456f75b4d2dc5964b3f
00d39e07e32a95bbd212cae93efa3110ef0ea8cf
aec268f46cff2a5a298a353cec0cc9403226e339
f373e2d6e5bfaa86afc147b877a72d600c224c5d
0665b628fafec38271d7a66421ae04c7fd35dd29
220b5f9a3bac6b78f6ad2d2e159057eb9bcb9908
5a4c7c34af0574a2a3c22675c42aea0205bdec97
2aaf055b3d9279b8a1d33f30b1bbab1efa1411ee
36c0a8048a37c0567f98d86c0059c877f5891a87
38575673e4726ea68fa4f4fde22603a8927ca09b
6fe24773ba865145743729c3620f27f99ad9fda6
c4efcd93bb635c72e4f48d2076d52e5e2e192eb4
b7b02997957fef7f8d0e167194a041f5363ca98e
c8cd2621854e4212694bed4f94077c71e97c040e
2bcffdec4c5a1e705858d977fc26177ea3554744
fcd40ec711b9b956a0e2faf7f2ce000acc5de302
a9311208f9a130216f5c8ff4dee106a945e0a8d2
7e7a3896df109ef442af9ec69423c33ec667c9f5
c7751ee158196af1eca54fa4ce86c4b0775e5065
92fcceedf58e191d8e9decb53302491a942f56e9
045867ef5dcfc0b0cd64f2a1ef356acc24c7168c
2d45a13249943cafa73460b35c3c366e5742eb6f
6f6d959fdae64065521990413f86bc7ab038d7c1
49082196be780486c97010533d9a1206f999e240
5bfe7124f6ea01fa72d01da65c73239e40be4348
637783ce8ae3ffb9805c2f78b436703c29b2220a
989652fe068f44815c97cfefe3af2548e8353623
194290e5f3819bf91d87c5d08c152946b6aa3509
3a0874cb220a26170e7097432676307feef4504f
0d0e03b0859a200ea3da258bfe24a1f732659d6b
b9580d68e9bc34eef397e9bc7f13091f1e3f1528
1bd9fefb5199d1499c8dac6c82c18c82e0678428
b1c592d7c9013a0b5e18f83cd5bd4b56f420b37c
06579c5bfb6a051a9fbca5be2d15a52fcf77f38c
43f7cae330166c3b73c9c20e0861ebf0ad89224a
689f66222bd8984dd69229a4ee9caf8da528ae12
7a28500a72d6914c6be7d9d8ee47d23f92f35d64
0c550086456f75af5d21a684f98fea478c477fa1
86e5c34846d810a258952d966d58cb34ad483a14
b5719b6d7faff6422e33897414c0afdf9e63fe95
7f4249625960b7f10dc61aae4d1896c2e126f538
60d5852c6676ece85b0e3d0c6e45fb0186303f83
768059cfc4c611f3212d0b92ff5073541a852faf
e4a4cbae4f2f850ec43fa15bee70fa1380d9354c
dca5d83027f2e44719fce7395e3a882f0333c0c4
e3b90752dd637dad076af866c8e99792d2646847
67604f618d96ae00318ce696ec29a66bec6aafa8
78c6624b11d5f33504dae8211b4592383468343e
70e64037ff295874602133a1d254e5a0440ae4e3
3d2547f18886e771aaa9baa996a21136c93460c4
7bcdc338d6ec7786f342f1569b8414c6919e5c6e
1c9cb2a0c2fcaf87ecc956243191ddc1ebb28303
1a1e1b7e2dee58fc9be947dec84126b0e35fe527
c9d183636ded71b78b1de25839c2f953785f3fa6
cb5a9a4ea384256f94d04d221f0f9979c98836ec
50999cceb5f5bcdaf79baa5ac7eeef90c72bda8d
7f7aa90bc5d41d8f818fc988d2a91d22393c7329
04d742bd3d6ce8ad24b21f2be2d6f3ea5f8a35a5
bbea4aaa6f81bfab9fc24c287efe2e31980cf304
9a1da9b4209955072d97caeb9cbcdeefb02841eb
084fa33870fd40d3bdedfe16dbcf773128e0709c
51e5320e7be7aaffed13e21f3f44cbd6d67587a8
1a3817c8c95ba79ea57fa511a6f1241a30963ffe
dcd8bd8ef1366507b908fbfe5f92d4346f066820
3355d0c99bb946a6441f08fe6fd1c9881a9ea96a
e5b78cabad22ffdfbbe2755fece9c6c535438cdc
0ce37b70f8c19c4d9a509a8561776f0186e9751c
40ff76547064c3fb5acb9047a6f679dd4379a4d0
2f5e25e4dcac2f7d62a4ac5ee8d49e92de005866
cbb33cbd05947c7680fe3519678323641a56fa8c
51c7b6cad20a39ec365694e66aa92ec4bf47e467
df778b7b80d290802ec8268d40ca70f7182cd118
757f8ede8936402e576a16988f50994eda41f7a1
99fb988657263a77b9d9b26bf2f64ec82a0cab72
961d797e9c84557cdf56f7036558e72a54c578f6
d2fc60ad18bc16378bca018e38f706d2d4972e42
48b087d327b4ca9ed4dcd37a4f47475cb2216861
747da632ad09a0e8fc279bf3b1afa2544141d01c
1ef44259dcc7aa257736efd359f4e28b86aab9e0
853c4012b79711f123c0b9780e565062b32bf1c7
68ebb704fb73ad1545ae82287f8b2a5f68d8e69d
60b3a6dd6240f40c29fffd897c2dac314af49836
ac0a0b98e425be757b04b93ab9d4d7b0600d3815
b3405b09cd672d5d171d32847c26de56ff092848
2bd54fa72fe72f92212428a024050838c2b62d57
5f239296e9124d7181e41c4af44a64bac7770132
7a7ad1cdb22ed381c468ee38d757da03b4b1877a
5d4e9ac850d45d6c4eaacce502993f74aff895d4
b8c51dc5bdc89d5487cbc110d6fe40389de16480
5aa2456a145883f6688c6ee325635ed0c6339076
00c0da5ec57958bc4d926cef41ef1f97be4e9bec
d79a5e23a78b4b0d91b15434ab48a9534e048b19
761619286a69e3e56ddceafef79802ffff521abb
8d06f6860065276085345e7ae8691fec094abfd7
15940665526348d815b26d509ce44c79926c612b
1bc9e2ef26bc0546f0491e7234de26e31fc38c72
faeff7f10548151cb2310351b3975f719037f217
ac21c326779cd0170b26aefff3157371b3b985ed
85e568e52d841c20ee5ecc68e8a589c9eabadbe6
1c13de7a344090349b1172978e82648f26fed0b7
ede853861795d04f787895365f9cebe9912ea37a
3748484ffb160810d7f94c9f25c5566c210880ed
47e5ea23b04ccd4b36b7690d9e2812aec5005b2d
1742e1eea04785dcdcba35825d5444d8c548db9b
889463746b9d426c6f0703c743b07a41fa5367cc
c71fb83d25b523d4ab2f16cfadba423cb1dbe8dd
a96861224bf566fdc2a31d9f045c8e163a81fcc8
57edb21a2a7b53ed9d996c9b7148f7d3bc7fc438
43a332bca4f76e4757d3d28f8f467f33190cfdef
187d3306cbce3e20544dc39459f4e51d7f71b96b
df2e128cc933b7a8c43a2e2a40d08aacca2d9d41
66220f81e3c4b5dfc0b87e45ebefb4636bef2a22
b5f749f202192129db468713e642bae99e8d5fbc
3ff6ca140db7d7a06cc2a97902d1546c1bdb80e1
33a0c620e1c1997ece0ee3382ad3e2145ee061a8
abb3ab4f50a99119caf0871fe95234a3e619dc82
ec1f3e9073439c03b22de4f2314724d6066efb4b
daa9c93ce3b04eb6351719be302f2f5d70296c81
e9e2f742d08d767222685b4f0a38c4d5f28121ec
08b1d7f3206981c69e72680e94a220353a8db7c3
2b67e7069c8a547210bc78135ef7aec92f598833
f984c3940d3352f8d9be42e0e110cb006624762d
0a1d49b221d3990fd1559f4705443cf8b0cab5e9
ea19431b816c6350e54cfad1b659d034edebe6d0
53ef23eae2c65997bfe575fb5904cf6d32e7a091
4425f3ec2ba8004d4f2afc271dfc0f1f0df713ab
fc01d7e54dd52bf454c0230009834ae30a93538d
0ea4c8fc132d2b452b2ea57e06fcab67ae317473
ea63463c2ff8a67f63e541036f0d5998b5bb1f3e
063964211c05103bd10fddeda9fafe93a856506b
d9f5a075792d4064c62f96d0a411aa55f37e3cbd
cdf6c30558bc15857a069d981a8fd48662cfb311
263a22e0a6af91ca112ad07969461be3c28ce60e
4ebac2656c870a090141106ad9ce267d25863301
7bb99fd0bdc60bc5824aadc2b3121f6dded6a143
f003d2260df800fa695b73acc0df21b20f5720c4
739cb3ec6c41f58e6b6a75d18c912ad1111f8061
62177b80f051ffa1f0f95c15fd20482db2006b24
972a2f7556d4c3b759b8a9dca6026a9a819fa0bf
7cabedc08ae38c6e94b88a0b72d3af46899f6882
0c4790dafaf6ccf7d8d34d04d24aac65cac910eb
6594b2a8999dce7787010652d6767cf0af1bd491
