Commit,SRP,OCP,LSP,ISP,DIP,Tangled,Notes
fe0d2bbf14e2c07fd0c4b5c506dfb997a0d917e8,1,0,0,0,0,0,Extract classes from fat class 
2fbdfadb05aefeda57e7499126c816027f75c928,0,0,0,0,0,0,Small fix
c9f5ec07de590fccc69f3a3f3500156893ccf768,0,0,0,0,0,0,Feature improvement
039eaa603256850cce0fc793c72342d525eb8856,0,0,0,0,1,0,"Encapsulated method parameters to method object Added hooks to interface to be implemented by client libraries (further enforces DIP)"
3ae2ef55412913b5be03a00befa86512cef0077d,0,0,0,0,0,0,Feature improvement
79dd9c7da0d7864aa65c5dc1e3f3231af6bbb2de,0,0,0,0,0,0,Flattened package structure
4d4cfb7656eff80446db01f7b885d5096d998d21,0,0,0,0,0,0,Merged modules
56ca30091f59e7daafc7a221e3ddda46d730d17d,1,0,0,0,0,0,"Extracted method with common functionality Extracted inner class to separate file, Builder pattern for object instantiation"
ae8e38d4461ba8ec0d28d486b7c6e610cd589532,0,1,0,0,0,0,Class dependencies migrated to a more abstract interface
b10ae7a625b74a0f4b8f76444a19d723f4104f28,0,0,0,0,0,0,Applied singleton pattern
4d5081891e0d9f3968251842acdef41a45cc2330,1,0,0,0,1,1,"Introduced interface to be injected by client (Client), Extracted inner class to separate class, Class renames and type migrations"
7232c3ea0e6ae24d25372e36f16410858fe098c6,0,0,0,0,0,0,Feature improvement
857f2f1015a73046cef0c674dafc0e5a7f9b828e,0,0,0,0,1,0,Introduced interface to be injected by client (Headers)
07762cd772ffc29d9e23731f19c0455c5c5d89c9,1,1,1,0,0,0,"Replaced conditional logic with polymorphism, implementation details abstracted from client class to dependency subclass, subclasses can fully substitute the abstract type, Moved responsibility to separate subclass"
b3fc3c32fb548a9247cfbd96a101eacf8261a892,0,0,0,0,0,0,Bug fix
365a0cd97bd8ee597e937ebf88170b30685047f4,0,0,0,0,0,0,"Added implementation of abstract type, Returned as alternative by factory method"
cc8beebf656e6ab6a57dfe4c35defc87b24679da,1,0,0,0,0,0,Moved method to cohesive new class
2ef7ca064584f60416581b0793557eb4277136a1,0,0,0,0,0,1,"Class moves/renames, Rewriting of annotations"
ef71254e5f8c3db0aae289a15d47e0a3c457f26f,0,0,0,0,0,0,Rearrangement of classes within packages
5da95585b59bd911d1c147cbddd171576ee96f98,0,0,0,0,0,0,Feature improvement
8d5e022f4866cadbab4c5d67b28bd2fd6f7bd71d,0,0,0,0,0,0,Feature improvement
dea55b54a1ea55d7324cb76a53332f54eae30cbb,0,0,0,0,0,0,Fixed potential bug
b50e0a84e67331236c66852b4496820dda0a7852,0,0,0,0,0,0,Fixed performance issue
411b9aefe7e2472eab6587120c4e30ac02059f18,0,0,0,0,0,0,Feature improvement
2ebf5b597b9d72121d184079c2c0467a7a069d8c,0,0,0,0,0,0,Fixed performance issue
2e15cf9e75e4204aa492ecc1cbe53053f95a2a8f,1,0,0,0,0,0,Moved functionality to separate class
d6ddfe7e7e2aa70d274c1f10310a6a34b63963c5,0,0,0,0,0,0,Code formatting
042c148ae9a340334590a865a2f6a2944f552e4d,0,0,0,0,0,0,Reimplemented method
4732786eadb5e5d8afd23461ff40077f99952c15,0,0,0,0,0,1,"Encapsulated class field (removed getter), Feature improvement"
b7e9f27ba451ede764f3fe51528c4ff192f2a79a,0,0,0,0,0,0,Replaced class dependency
77117c7e6e8f51089a41ebb1d1b07bddb24e3e66,0,0,0,0,0,0,Moved classes
56f11374c2f5d037e57d274a3c72f9694cd9e05c,1,0,0,0,0,0,"Split functionality to separate methods, Changed published interface (Client), (second commit with same id)"
290c171cae59a6dd3c8416b69ee2985bc0097db9,0,0,0,0,0,0,"Changed published interface and implementation in other module (method signature)"
f044a78ed5b137f1e750d238f4e49803cf83636b,0,0,0,0,0,1,"Abstract class becomes concrete, one subclass removed, Dependency injection replaced with specific instance (alternative implementations removed)"
b01bc2af87ef5265e5b2f609dfc283d7aa931428,0,0,0,0,0,0,Specialized exception replaced by generic exception types
9b203b66891c1d363529a1b2b46c8968bf54d7cc,0,0,0,0,0,0,"Moved core classes to external modules"
2ca195069c02c48d7d862913247e08000e282439,1,0,0,0,1,1,"Extracted responsibility to separate class (Response creation), Introduced interface to be implemented by client modules"
896c03a1394b28638a407335b4835412cc8f42ad,0,0,0,0,0,0,Typographic error fix
251e44515eed053a461bae54b3e79e880af87fd7,1,0,0,0,0,0,Primitive type converted to data type that encapsulates behaviou
b249f3b9beb9383136a0dc260544edd1b1917211,1,1,0,0,0,0,"Extracted classes from Builder for different object configurations (one subclass per configuration) (SRP), Client of the Builder class is agnostic of configurations (retrieved from its dependency) and invokes them polymorphically (OCP)"
f15eee44eda9750b9d1341ff0801385426775e1f,1,0,0,0,0,0,"Object creation logic moved to factory class, Class rename, Other logic extracted to separate class"
f4a12cbb41130fe88bfb84f390e5985ab62dade0,1,0,0,0,1,0,"Extracted reusable logic to Utility method, Internal concern externalized through injection of implementations of third party interface"
7e499539232eb68ac70a48bc6f720d62eb836c27,0,0,0,0,0,1,"Method renames, Added new functionality for mocking support"
ed7f40e63588eaa7c3e80703aa1d73da1a8476e0,0,0,0,0,0,0,Increased methods' visibitlity
4c584a5c8718944f3bd1e34bfb4d3014dae08fd7,0,1,0,0,0,0,"Classes select one from multiple implementations of an interface,(strategy design pattern)"
42b6f8c5de4d63c01425a8b5c7c4765b84f798ec,1,0,0,1,0,0,"Two functional operations of an interface (not always implemented) consolidated to a single parametric on input/output. ISP since the implementation provides only the relevant version Now one implementation per variant is provided (SRP)"
8a70ac168500cc60c0ccf8ec6c8c9e34885e3dac,1,0,0,0,0,0,Consolidated classes as inner classes
4b2e64fc3eb777c2bc109527d5d77b05b347207e,0,0,1,0,0,0,Renamed and parameterized class
138e2bd3c01d5dd67308d1112174bf210a03178f,0,0,0,0,0,0,Package rename
0e4fe60b4b5c19bb2a60e201b4518f988d4da613,0,0,0,0,0,0,Moved classes to separate package based on common responsibility
b3ae737714ef0f025663f362bc98c85a8757ca56,1,0,0,0,0,0,Extracted cohesive functionality to separate class
01d6fb1a133cea6fac18f2ef1ecab1cbee86b569,0,0,0,0,0,0,Bug fix
65bea17b8d6558d8ff89f8b4e5df1894a86356c5,0,0,0,0,0,0,Local variables rename
6961f57ab97224073743b1f14a0395a493c52985,1,0,0,0,0,0,Responsibility encapsulated to single class (class consolidation)
ce00264bd3c4b8963ae18f5be2bb6cee0f296e20,0,0,0,0,0,0,Feature improvement
728cb3b669384533adee6446e8d86d34e9b0ea1e,0,0,0,0,0,0,Eager handling of exception
db061137bc7a757a527773e3024083750982051f,1,0,0,0,0,0,"Inner classes extracted to separate files, Method inlined and three interface implementations consolidated to one"
504dd092bc0c77e4e280c840bef4c9fd7f2efd0b,0,0,0,0,0,0,Feature improvement
8ceb21ec575a5c6785f9098723b4b6a09214ed75,0,1,0,0,0,0,Extended class with new functionality through the strategy design pattern
5c17e2f6c9995c398826a058ca4a01be132b82e8,0,1,0,0,0,0,Extended class with new functionality through the strategy design pattern
a12554ea1a6b72ec98a079ece934b6e7d25b6518,1,0,0,0,0,0,Extracted responsibility to separate class 
a3516fe3c3120661239dbc1844b83e51fa5d40ec,0,1,0,0,0,0,Concrete implementation dependency replaced by abstractions
0fff59140b5791ad0f1b1c7bf7826db2e00a73f1,0,1,0,0,0,0,Extracted abstract superclass and replaced dependency with that
7e31520f844b5c8eedc3b8fe82e2e48c79e47a5a,1,0,0,0,0,0,Builder replaced by factory method