Commit,SRP,OCP,LSP,ISP,DIP,Tangled,Notes
ab8f73fa70a28674153e10ba6cd2e338d53f70cf,0,0,0,0,0,0,Changes to implementation of a single method
787d8fc0215c5bab541f61c2d69a91753d462559,0,0,1,0,0,1,"All observable operations conform to functional type Func1 Redistributed function/operators classes to packages (more cohesive packages). "
377e5bd915e80ec8c664fb4f64c92a7b7a8448e5,0,0,0,0,0,0,Single class rename
be7d6a704fab29418c3eeda6d5b1a1f2b852d753,0,0,0,0,0,0,Implemented operation within class
538547b8240d43cdbe4b1c33a0e61d12f740406d,0,0,0,0,0,0,Turned a subclass class to a singleton instance of anonymous class
9eb111e1c7bc65c994768a6ed8afd7b9842662bd,0,0,0,0,0,1,Class rename and unit test
6e50257ba11350fedf5d45a1f0d7622002eb765a,0,0,0,0,0,0,Name corrections
0c4f59aabc380a579c611f7d6623fc141527a52b,1,0,0,0,0,0,Extracted Anonymous class implementation to a new class. Moved field inside this class.
12c73c7f527f9a49774457c51b86662f0efc097f,0,0,0,0,0,0,"Made generic method more general, i.e. instead of accepting arguments of same type, allowed to receive different types. In fact fixed the API of scan method. Fixed implementation issue (todo)"
2ea065c0ef22ea7cf58e9fb6d6f24c69f365bed6,0,0,0,0,0,0,Implemented throttle operator
071b8943520dd8aa3b05c2b3c6c452a81778ebae,0,0,0,0,0,0,Fixed a bug and extracted method to simplify the corrected method
fe4fb241673dbf5a3e438a0ec5a2a9ac12d2e1f1,1,0,0,0,0,0,Blocking operations moved to subclass (BlockingObservable)
09b2b2af454bfffce0bf9105e52c8ec5316a305f,0,0,0,0,0,0,Moved implementation classes out of public API packages
81adc5c56ed93b418ffdc158f7db21a25b3402f5,1,0,0,0,0,1,"Extracted inner classes to separate package, added javadoc"
59d6a57f9a5e93146bcc83bcdb6f7c26ce644c51,0,0,0,0,0,0,Fixed NPE exception
0531b8bff5c14d9504beefb4ad47f473e3a22932,0,0,0,0,0,0,Renamed method to a more generic name
4850c862a7245a40dfa6dd1b5ddddbc32f71b5b7,0,0,1,0,0,0,"Replaced inheritance with composition, BlockingObservable wraps an Observable object"
4c0c4dbc54aa40619066a19c83cb21257fa3e07b,0,0,0,0,0,0,Added a new rxjava operation
b407e6e26bd0708881e3bce14e4afc9721da0bd1,1,0,0,0,0,1,"Extracted Unit test for class to separate file in test source folder,Extracted method functionality to reusable factory method"
e6a2951c78d1e0a2365ebbd4e5d956ba7ecd8d40,0,0,0,0,0,0,(SRP in method) Fixed functionality and extracted reusable private method
21f7d526ad38506c0635576f54cc710c2e78a7f7,0,0,0,0,0,0,Bug fix
99ceebe86c99dd9a66c7b244511b6dc8996aef40,0,0,0,0,0,0,Changed packages for scheduler classes 
d7997fb7eb2d9f20891985007331ba8a7f45e467,0,1,0,0,0,0,Observable creation from Iterable can be configured with provided scheduler
4e4c165d59f3196044a7a79d35e40e32126d153b,0,0,0,0,0,0,Bug fix
47a0e1b719d7fe28a3e0dec276b914e52d1270bb,0,0,0,0,0,0,Renamed Observer to Subscriber
584ef6e6467fb2d58a27574269b0a004efbf8f04,0,0,1,0,0,0,Subject now is an Observer and Observable -> composition to inheritance
d5e5df402bf4d18075dbf11f311793399a682e2e,0,0,0,0,0,0,Added extra feature to class Observer
dade7e12f304068c233abcf2decc562860067422,0,0,0,0,0,0,Added capability to class
5d1006ea07432e34f1ed4b2d75c0024fa8cdae78,0,0,0,0,0,0,Public class encapsulated as private inner class to its client class (SRP violation)
4258d776b0bceabef67285a8c48ca527ddf61514,0,0,0,0,0,0,Added more flexibility to class
4328276cf5f287c0062bbf708b6f56729d55def5,0,0,0,0,0,0,Renamed method to more descriptive name
eb92efdbcbe49bfced1509012860345ee8729488,1,0,1,0,0,1,"DebugNotificationListener interface consolidates three simpler interfaces, Type safety (generics) to Actions with many params"
b8a3cad8b684177be06e65a0bad7850d8e7e9382,1,0,0,0,0,0,"The logic for creation of anonymous implementations encapsulated to a new classAn inner class absorbs responsibility from its context by inheriting from a concrete subtype of its parent (SRP)"
3520445b61b7f4f483dfbd742cb973044e5fde13,0,0,0,0,0,0,Moved classes to appropriate package (archived implementations)
5604c180f173603a8385b130a2b5e5b60e00439c,1,0,0,1,0,1,"Class responsibility moved to inner class and interface simplified, calls delegated to exposed typeUnrelated classes implement another interface (previous possibly to be deprecated)"
bf976a2683fdef06fcbaff8e12edcc80c27f86bf,0,0,0,0,0,0,Class receives a more specific client dependency to provide better implementation
3da91351e5b24d3738661672ce2a3cfa2fa9e588,0,0,0,0,0,0,Renamed classes
79c07ee6c8ed9a6a06b21fba8835d067b597dd09,0,0,0,0,0,0,Renamed classes
b4b67623dab336a61c53d63d55db94640fd02105,0,0,0,0,0,1,"Tidying code (javadoc, line endings, suppress warnings)"
67cae348ece850b7e89f58714c5c4f9a4f651d5a,0,0,0,0,0,0,Bug fix
992ff293a9dc7efbedaa8290316f0f4e9e030439,0,0,0,0,0,0,Inner class and member renames 
0177a46e8423f6de91bbc000ff78f9e3d818b384,0,0,0,0,0,0,Method rename
1c00aa6cc578bfc5e792aa5409ff1f336529ac6d,0,0,0,0,0,1,"Cleanup, implemented functionalitty"
419c0fe6d97a88941c68b30cc333274784b095f1,0,0,0,0,0,0,Field renames and minor implementation changes
935b63527dacf2c380a53ce83ca5b1d06aadca75,0,0,0,0,0,0,Method renames and added functionality
30e7afa3d913a828672b503da01e89b4bd2860b6,1,0,0,0,0,0,"Introduced data type hierarchy, each type serves different purpose and reuses attributes of parents"
30a3f2b8c612c91e5037a8bcc7935b35d9dba059,0,0,0,0,,0,Added extra method
0475f5ccd1be776c9c8355ec8ea26df581766866,0,0,0,0,0,0,Class fields demoted to local variables (final)
d71b76459b88b5a14d18bd60e77498cdecc5f6f0,0,0,0,0,0,0,Migrated invocation of deprecated method
49c0032a11f2bac93d4ffc44be9fc80476a55968,0,0,0,0,0,0,Fixed issue
2cf434944540d66ea683bdcb84499eb5f7edd2eb,0,0,0,0,0,0,Fixed NPE exception
0a229e42bd8ee5aee14f56869e121fe30cdd1d3f,0,0,0,0,0,0,Fixed issue
f6fd5deffde08b35a6b01a3ac3c6f58066b3a1ee,1,1,0,0,0,0,"Factored out experimental functionality to separate class, 
Introduced interface for interaction of this functionality with its clients"
382d6dfa95e9f55c48d99883f9db460e9c16da18,0,0,0,0,0,0,Improved functionality
94b53d6b5da0d0c0b83830fea42a99cd2916241e,0,0,0,0,0,0,Enhancements to functionality
f8373d3b9bd94571bdfd9d5cac53d3ccd8a036a8,0,0,0,0,0,0,Bug fix (NPE)
da6ef514458305b2c26acc910175c336700b4636,0,0,0,0,0,0,Bug fix
46f9138f509f22be61d435cfb79335396fc92c48,0,0,0,0,0,0,Reverted previous commit to fix issue
b51cc2152c2f110bc25006449caa896c12afa4b5,0,0,0,0,0,1,Fixed class behaviour and added new class
f1566d6ec65575d8eeb91241513a61f459e07049,1,0,0,0,0,1,"Encapsulated class capability to appropriate inner class. Also, added tests, delivered existing functionality through a new method"
13df09b14d97820d5becb6d9ceacfeff5091a8e3,0,1,0,0,0,1,Class supplies different implementations to client (Template Method)
4dbd7351c9b514e2661930c2a9dea222cd91748e,1,1,0,0,0,1,"Common functionality factored out to common superclass, Extra functionality invoked through decorating interface implementations"
75c40b58fc3f56283ad88ce299c72419975f6b00,0,1,0,0,0,1,"Class supplies different implementations to client (Template Method), Bug fix"
059c7e6264de04e2251ea77e39e3fa9d7ac47625,0,0,0,0,0,1,"Javadoc and code removal, testing"
bffcee7c16442cb9f4a9307ca19b00a0502a1695,0,0,0,1,0,1,Classes refactored to use a more focused interface (Emitter)
a856572327528ee05c1d1ab05426343aa0c5224b,1,0,0,0,0,1,"Class renames, Constructors replaced with Factory Method, Implementation enhancements"
0c30b087277850f637ae156b582bce8858580b17,1,1,0,0,0,1,"Migration of method names (Deprecation and delegates to old methods), Enums converted to final Utility classes, anonymous class turned to inner named classes for reuse purposes, class extends functionality of interface through decorator patter"
6ff866ae1b9ee08194c01a2f3b2d5cf091f7d78b,0,0,0,0,0,1,"Many changes, comment fixes, constructor visibility fixed (unused), cleanup for release"
df94c0d23b8f06ec861c2533313555cc6f8afdcb,1,0,0,0,0,1,"Enums converted to final Utility classes,Bug fixes (simple corrections), Extracted anonymous class to separate class for reuse"
d320d5cd7227fc34b7e53eccb8979d64d29213e6,1,0,1,0,0,1,"Specific error notified through an appropriate exception subclass (instead of IllegalStateException) ,Narrowed down java.lang interface to application specific"
637978c66ad9d461fbee298f23d95bb73dbd0a5f,1,0,0,0,0,1,"Instance creation logic extracted to separate class, Various fixes, code cleanup"
42ca8c4ff63323f1d667671068f98fa362b0632b,1,0,0,0,0,1,"Moved object creation logic to other classVarious fixes, code cleanup"
48516372b9770a0f442bea06f7f93b3d27d6ed32,0,0,0,0,0,0,Added fixes
7494a2c05cf2f02142fc3193682141826974661a,0,0,0,0,0,0,Javdoc update
0a07ac1808f1c0b93746b6f9d550f9f5f4717be6,0,0,0,0,0,1,"Code cleanup, javadoc"
c507577566e7b3a548d2f8256ca2f144ac14a08c,0,0,0,0,0,0,Differentiated behaviour based on type checking (principle violation)
b7086efb4a3cf53640075044c98ec3edc906f746,1,1,0,0,0,0,Wrapped and returned new behaviour into new class confoming to existing interface
ea7ca2c81573c56274163ad3e51d8cc07573e170,1,0,0,0,0,0,Fixed bug and split long method into three methods
ad8ca8e587be6f7836e5c76707248ac955af54e3,0,0,0,0,0,0,Added functionality
9564121e09616df909c2d23c4bba62734217bdd6,0,0,0,0,0,0,Fixed functionality
6fefdc6e6ca253f4fea2a576a0e6e93ee340491e,0,0,0,0,0,0,Feature enhancement
ab649824e6d55505cc7b3e6d9fb033143146b110,0,0,0,0,0,0,Feature enhancement
1a774e6d775d381937ae360296a88610353fefe6,0,0,0,0,0,0,Added fixes